bmp_hdmi_test3/.Xil/Vivado-6276-DESKTOP-3OAFHV8/hw_ila_data_1/zip_work/waveform.vcd
$date
        2025-Jan-20 23:24:40
$end
$version
        Vivado v2020.2 (64-bit)
$end
$timescale
        1ps
$end
$scope module dut $end
$var reg 8 " system_i/Bic_top_0/inst/ramRB/readData00 [7:0] $end
$var reg 8 * system_i/Bic_top_0/inst/ramRB/readData10 [7:0] $end
$var reg 8 2 system_i/Bic_top_0/inst/ramRB/readData11 [7:0] $end
$var reg 8 : system_i/Bic_top_0/inst/ramRB/readData21 [7:0] $end
$var reg 8 B system_i/Bic_top_0/inst/ramRB/readData01 [7:0] $end
$var reg 8 J system_i/Bic_top_0/inst/ramRB/readData20 [7:0] $end
$var reg 8 R system_i/Bic_top_0/inst/ramRB/readData30 [7:0] $end
$var reg 8 Z system_i/Bic_top_0/inst/ramRB/readData31 [7:0] $end
$var reg 6 b system_i/Bic_top_0/inst/ramRB/writeSelect [5:0] $end
$var reg 6 h system_i/Bic_top_0/inst/ramRB/readSelect [5:0] $end
$var reg 12 n system_i/Bic_top_0/inst/outputColumn [11:0] $end
$var reg 8 z system_i/Bic_top_0/inst/s_axis_tdata [7:0] $end
$var reg 12 $" system_i/Bic_top_0/inst/yPixLow [11:0] $end
$var reg 12 0" system_i/Bic_top_0/inst/yPixLowNext [11:0] $end
$var reg 12 <" system_i/Bic_top_0/inst/writeRowCount [11:0] $end
$var reg 12 H" system_i/Bic_top_0/inst/xPixLow [11:0] $end
$var reg 8 T" system_i/Bic_top_0/inst/m_axis_tdata [7:0] $end
$var reg 3 \" system_i/Bic_top_0/inst/fillCount [2:0] $end
$var reg 12 _" system_i/Bic_top_0/inst/writeNextValidLine [11:0] $end
$var reg 1 k" system_i/Bic_top_0/inst/advanceRead1 $end
$var reg 1 l" system_i/Bic_top_0/inst/advanceWrite $end
$var reg 1 m" system_i/Bic_top_0/inst/allDataWritten $end
$var reg 1 n" system_i/Bic_top_0/inst/dOutValidInt $end
$var reg 1 o" u_ila_0_enableNextDin $end
$var reg 1 p" system_i/Bic_top_0/inst/forceRead $end
$var reg 1 q" system_i/Bic_top_0/inst/i_vid_de $end
$var reg 1 r" system_i/Bic_top_0/inst/i_vout_read $end
$var reg 1 s" system_i/Bic_top_0/inst/m_axis_tready $end
$var reg 1 t" system_i/Bic_top_0/inst/m_axis_tvalid $end
$var reg 1 u" system_i/Bic_top_0/inst/readState $end
$var reg 1 v" system_i/Bic_top_0/inst/s_axis_tlast $end
$var reg 1 w" system_i/Bic_top_0/inst/s_axis_tready $end
$var reg 1 x" system_i/Bic_top_0/inst/s_axis_tvalid $end
$var reg 1 y" _TRIGGER $end
$var reg 1 z" _WINDOW $end
$var reg 1 {" _GAP $end
$upscope $end
$enddefinitions $end
#0
$dumpvars
b1011101 "
b1011011 *
b1010110 2
b1010001 :
b1010110 B
b1011011 J
b1011000 R
b1010011 Z
b100000 b
b10 h
b10000000000 n
b11000001 z
b1 $"
b10 0"
b101 <"
b10000000000 H"
b0 T"
b100 \"
b110 _"
0k"
0l"
0m"
1n"
0o"
0p"
0q"
1r"
1s"
0t"
1u"
0v"
1w"
0x"
0y"
1z"
0{"
$end
#1
b1010110 "
b1010110 *
b10110111 2
b10110110 :
b10110100 B
b1010001 J
b1010011 R
b10110111 Z
b10000000001 n
b10000000001 H"
#2
b10110100 "
b10110111 *
b1100001 2
b1011000 :
b1011011 B
b10110110 J
b10110111 R
b1011000 Z
b10000000010 n
b10000000010 H"
#3
b1011011 "
b1100001 *
b1011000 2
b1010010 :
b1010011 B
b1011000 J
b1011000 R
b1010101 Z
b10000000011 n
b10000000011 H"
#4
b1010011 "
b1011000 *
b10111001 2
b10110001 :
b10110010 B
b1010010 J
b1010101 R
b10110010 Z
b10000000100 n
b10000000100 H"
#5
b10110010 "
b10111001 *
b1010011 2
b1010101 :
b1011011 B
b10110001 J
b10110010 R
b1100001 Z
b10000000101 n
b10000000101 H"
#6
b1011011 "
b1010011 *
b1001111 2
b1010000 :
b1010101 B
b1010101 J
b1100001 R
b1010011 Z
b10000000110 n
b10000000110 H"
#7
b1010101 "
b1001111 *
b10110001 2
b10110110 :
b10101111 B
b1010000 J
b1010011 R
b10111101 Z
b10000000111 n
b10000000111 H"
#8
b10101111 "
b10110001 *
b1011110 2
b1010111 :
b1011101 B
b10110110 J
b10111101 R
b1010110 Z
b10000001000 n
b10000001000 H"
#9
b1011101 "
b1011110 *
b1010001 2
b1001111 :
b1010111 B
b1010111 J
b1010110 R
b1001101 Z
b10000001001 n
b10000001001 H"
#10
b1010111 "
b1010001 *
b10110001 2
b10110010 :
b10110011 B
b1001111 J
b1001101 R
b10111011 Z
b10000001010 n
b10000001010 H"
#11
b10110011 "
b10110001 *
b1010101 2
b1010000 :
b1010011 B
b10110010 J
b10111011 R
b1010001 Z
b10000001011 n
b10000001011 H"
#12
b1010011 "
b1010101 *
b1001011 2
b1001000 :
b1001010 B
b1010000 J
b1010001 R
b1001100 Z
b10000001100 n
b10000001100 H"
#13
b1001010 "
b1001011 *
b10101100 2
b10101101 :
b10101111 B
b1001000 J
b1001100 R
b10110000 Z
b10000001101 n
b10000001101 H"
#14
b10101111 "
b10101100 *
b1011001 2
b1010100 :
b1010010 B
b10101101 J
b10110000 R
b1011001 Z
b10000001110 n
b10000001110 H"
#15
b1010010 "
b1011001 *
b1001100 2
b1001000 :
b1001000 B
b1010100 J
b1011001 R
b1001100 Z
b10000001111 n
b10000001111 H"
#16
b1001000 "
b1001100 *
b10101010 2
b10101100 :
b10101010 B
b1001000 J
b1001100 R
b10101010 Z
b10000010000 n
b10000010000 H"
#17
b10101010 "
b10101010 *
b1010110 2
b1011001 :
b1011001 B
b10101100 J
b10101010 R
b1011011 Z
b10000010001 n
b10000010001 H"
#18
b1011001 "
b1010110 *
b1001011 2
b1001010 :
b1001001 B
b1011001 J
b1011011 R
b1001111 Z
b10000010010 n
b10000010010 H"
#19
b1001001 "
b1001011 *
b10101000 2
b10100111 :
b10100110 B
b1001010 J
b1001111 R
b10101110 Z
b10000010011 n
b10000010011 H"
#20
b10100110 "
b10101000 *
b1001110 2
b1010001 :
b1001101 B
b10100111 J
b10101110 R
b1010000 Z
b10000010100 n
b10000010100 H"
#21
b1001101 "
b1001110 *
b1000010 2
b1000111 :
b1000111 B
b1010001 J
b1010000 R
b1000011 Z
b10000010101 n
b10000010101 H"
#22
b1000111 "
b1000010 *
b10110011 2
b10101010 :
b10110100 B
b1000111 J
b1000011 R
b10101010 Z
b10000010110 n
b10000010110 H"
#23
b10110100 "
b10110011 *
b1010100 2
b1001101 :
b1010010 B
b10101010 J
b10101010 R
b1010000 Z
b10000010111 n
b10000010111 H"
#24
b1010010 "
b1010100 *
b1001111 2
b1000110 :
b1001101 J
b1010000 R
b1000100 Z
b10000011000 n
b10000011000 H"
#25
b1001111 *
b10110101 2
b10101101 :
b10110111 B
b1000110 J
b1000100 R
b10101110 Z
b10000011001 n
b10000011001 H"
#26
b10110111 "
b10110101 *
b1010101 2
b1010111 :
b1100010 B
b10101101 J
b10101110 R
b1011011 Z
b10000011010 n
b10000011010 H"
#27
b1100010 "
b1010101 *
b1001110 2
b1010101 :
b1010011 B
b1010111 J
b1011011 R
b1010110 Z
b10000011011 n
b10000011011 H"
#28
b1010011 "
b1001110 *
b10110011 2
b10110101 :
b10111101 B
b1010101 J
b1010110 R
b10110000 Z
b10000011100 n
b10000011100 H"
#29
b10111101 "
b10110011 *
b1010101 2
b1011010 :
b1010101 B
b10110101 J
b10110000 R
b1010010 Z
b10000011101 n
b10000011101 H"
#30
b1010101 "
b1010101 *
b1010111 2
b1010101 :
b1011000 B
b1011010 J
b1010010 R
b1010011 Z
b10000011110 n
b10000011110 H"
#31
b1011000 "
b1010111 *
b11000110 2
b11000011 :
b10111110 B
b1010101 J
b1010011 R
b11000010 Z
b10000011111 n
b10000011111 H"
#32
b10111110 "
b11000110 *
b1011100 2
b1011001 :
b1011001 B
b11000011 J
b11000010 R
b1011110 Z
b10000100000 n
b10000100000 H"
#33
b1011001 "
b1011100 *
b1011011 2
b1011011 :
b1011010 B
b1011001 J
b1011110 R
b1011011 Z
b10000100001 n
b10000100001 H"
#34
b1011010 "
b1011011 *
b11000011 2
b11000011 :
b11000101 B
b1011011 J
b1011011 R
b11000000 Z
b10000100010 n
b10000100010 H"
#35
b11000101 "
b11000011 *
b1100001 2
b1100001 :
b1100001 B
b11000011 J
b11000000 R
b1011111 Z
b10000100011 n
b10000100011 H"
#36
b1100001 "
b1100001 *
b1011111 :
b1100110 B
b1100001 J
b1011111 R
b1011010 Z
b10000100100 n
b10000100100 H"
#37
b1100110 "
b11001001 2
b11000110 :
b11001011 B
b1011111 J
b1011010 R
b11000101 Z
b10000100101 n
b10000100101 H"
#38
b11001011 "
b11001001 *
b1010111 2
b1011000 :
b1011111 B
b11000110 J
b11000101 R
b1011100 Z
b10000100110 n
b10000100110 H"
#39
b1011111 "
b1010111 *
b1100010 2
b1100000 :
b1101010 B
b1011000 J
b1011100 R
b1100001 Z
b10000100111 n
b10000100111 H"
#40
b1101010 "
b1100010 *
b11001011 2
b11000100 :
b11010000 B
b1100000 J
b1100001 R
b11000101 Z
b10000101000 n
b10000101000 H"
#41
b11010000 "
b11001011 *
b1101101 2
b1100001 :
b1100101 B
b11000100 J
b11000101 R
b1101100 Z
b10000101001 n
b10000101001 H"
#42
b1100101 "
b1101101 *
b1101111 2
b1100110 :
b1101111 B
b1100001 J
b1101100 R
b10000101010 n
b10000101010 H"
#43
b1101111 "
b1101111 *
b11001110 2
b11001101 :
b11010010 B
b1100110 J
b11001011 Z
b10000101011 n
b10000101011 H"
#44
b11010010 "
b11001110 *
b1100111 2
b1100011 :
b1101010 B
b11001101 J
b11001011 R
b1100100 Z
b10000101100 n
b10000101100 H"
#45
b1101010 "
b1100111 *
b1101001 2
b1101001 :
b1101110 B
b1100011 J
b1100100 R
b1101011 Z
b10000101101 n
b10000101101 H"
#46
b1101110 "
b1101001 *
b11010100 2
b11010001 :
b11010100 B
b1101001 J
b1101011 R
b11010011 Z
b10000101110 n
b10000101110 H"
#47
b11010100 "
b11010100 *
b1110000 2
b1101010 :
b1101110 B
b11010001 J
b11010011 R
b1101100 Z
b10000101111 n
b10000101111 H"
#48
b1101110 "
b1110000 *
b1110011 2
b1101101 :
b1110100 B
b1101010 J
b1101100 R
b1101111 Z
b10000110000 n
b10000110000 H"
#49
b1110100 "
b1110011 *
b11010110 2
b11010110 :
b11010011 B
b1101101 J
b1101111 R
b11010011 Z
b10000110001 n
b10000110001 H"
#50
b11010011 "
b11010110 *
b1101010 2
b1101011 :
b1101101 B
b11010110 J
b11010011 R
b1101101 Z
b10000110010 n
b10000110010 H"
#51
b1101101 "
b1101010 *
b1110101 2
b1110110 :
b1110110 B
b1101011 J
b1101101 R
b1110011 Z
b10000110011 n
b10000110011 H"
#52
b1110110 "
b1110101 *
b11010110 2
b11010100 :
b11010110 B
b1110110 J
b1110011 R
b11010010 Z
b10000110100 n
b10000110100 H"
#53
b11010110 "
b11010110 *
b1110001 2
b1111000 :
b1101010 B
b11010100 J
b11010010 R
b1101001 Z
b10000110101 n
b10000110101 H"
#54
b1101010 "
b1110001 *
b1111100 2
b1111011 :
b1111101 B
b1111000 J
b1101001 R
b1110110 Z
b10000110110 n
b10000110110 H"
#55
b1111101 "
b1111100 *
b11011000 2
b11010101 :
b11010111 B
b1111011 J
b1110110 R
b11010110 Z
b10000110111 n
b10000110111 H"
#56
b11010111 "
b11011000 *
b1110001 2
b1100100 :
b1111001 B
b11010101 J
b11010110 R
b1101011 Z
b10000111000 n
b10000111000 H"
#57
b1111001 "
b1110001 *
b1111101 2
b1110100 :
b10000000 B
b1100100 J
b1101011 R
b1111010 Z
b10000111001 n
b10000111001 H"
#58
b10000000 "
b1111101 *
b11011000 2
b11011001 :
b11010111 B
b1110100 J
b1111010 R
b11010110 Z
b10000111010 n
b10000111010 H"
#59
b11010111 "
b11011000 *
b1101101 2
b1110000 :
b1110000 B
b11011001 J
b11010110 R
b1110111 Z
b10000111011 n
b10000111011 H"
#60
b1110000 "
b1101101 *
b1111010 2
b1111011 :
b1111110 B
b1110000 J
b1110111 R
b10000011 Z
b10000111100 n
b10000111100 H"
#61
b1111110 "
b1111010 *
b11011001 2
b11011000 :
b11011011 B
b1111011 J
b10000011 R
b11011010 Z
b10000111101 n
b10000111101 H"
#62
b11011011 "
b11011001 *
b1110101 2
b1101011 :
b1101101 B
b11011000 J
b11011010 R
b1101111 Z
b10000111110 n
b10000111110 H"
#63
b1101101 "
b1110101 *
b1111101 2
b10000010 :
b1111111 B
b1101011 J
b1101111 R
b1111110 Z
b10000111111 n
b10000111111 H"
#64
b1111111 "
b1111101 *
b11011101 2
b11011011 :
b11011110 B
b10000010 J
b1111110 R
b11011011 Z
b10001000000 n
b10001000000 H"
#65
b11011110 "
b11011101 *
b1110010 2
b10000011 :
b1110100 B
b11011011 J
b11011011 R
b1101100 Z
b10001000001 n
b10001000001 H"
#66
b1110100 "
b1110010 *
b10000010 2
b10000100 :
b10001000 B
b10000011 J
b1101100 R
b10000001 Z
b10001000010 n
b10001000010 H"
#67
b10001000 "
b10000010 *
b11011101 2
b11011001 :
b11011011 B
b10000100 J
b10000001 R
b11011101 Z
b10001000011 n
b10001000011 H"
#68
b11011011 "
b11011101 *
b1111001 2
b1101101 :
b1101111 B
b11011001 J
b11011101 R
b1101110 Z
b10001000100 n
b10001000100 H"
#69
b1101111 "
b1111001 *
b10000100 2
b10001001 :
b10001000 B
b1101101 J
b1101110 R
b10000011 Z
b10001000101 n
b10001000101 H"
#70
b10001000 "
b10000100 *
b11011011 2
b11011001 :
b11011101 B
b10001001 J
b10000011 R
b11011010 Z
b10001000110 n
b10001000110 H"
#71
b11011101 "
b11011011 *
b1111110 2
b1110101 :
b1101101 B
b11011001 J
b11011010 R
b1110000 Z
b10001000111 n
b10001000111 H"
#72
b1101101 "
b1111110 *
b10000111 2
b10000110 :
b10001000 B
b1110101 J
b1110000 R
b10000100 Z
b10001001000 n
b10001001000 H"
#73
b10001000 "
b10000111 *
b11100000 2
b11011011 :
b11011110 B
b10000110 J
b10000100 R
b11011110 Z
b10001001001 n
b10001001001 H"
#74
b11011110 "
b11100000 *
b1101011 2
b1110010 :
b1110101 B
b11011011 J
b11011110 R
b1111000 Z
b10001001010 n
b10001001010 H"
#75
b1110101 "
b1101011 *
b10001001 2
b10000110 :
b10001101 B
b1110010 J
b1111000 R
b10000110 Z
b10001001011 n
b10001001011 H"
#76
b10001101 "
b10001001 *
b11011110 2
b11011101 :
b11011111 B
b10000110 J
b10000110 R
b11011100 Z
b10001001100 n
b10001001100 H"
#77
b11011111 "
b11011110 *
b1111011 2
b1101110 :
b1101110 B
b11011101 J
b11011100 R
b1111000 Z
b10001001101 n
b10001001101 H"
#78
b1101110 "
b1111011 *
b10001101 2
b10000111 :
b10000111 B
b1101110 J
b1111000 R
b10001100 Z
b10001001110 n
b10001001110 H"
#79
b10000111 "
b10001101 *
b11100000 2
b11100000 :
b11011110 B
b10000111 J
b10001100 R
b11011111 Z
b10001001111 n
b10001001111 H"
#80
b11011110 "
b11100000 *
b1110101 2
b1110110 :
b1111010 B
b11100000 J
b11011111 R
b1111000 Z
b10001010000 n
b10001010000 H"
#81
b1111010 "
b1110101 *
b10000111 2
b10001101 :
b10001110 B
b1110110 J
b1111000 R
b10001000 Z
b10001010001 n
b10001010001 H"
#82
b10001110 "
b10000111 *
b11011101 2
b11011111 :
b11011010 B
b10001101 J
b10001000 R
b11100000 Z
b10001010010 n
b10001010010 H"
#83
b11011010 "
b11011101 *
b1101101 2
b1110010 :
b1110001 B
b11011111 J
b11100000 R
b1110000 Z
b10001010011 n
b10001010011 H"
#84
b1110001 "
b1101101 *
b10000111 2
b10000101 :
b10001101 B
b1110010 J
b1110000 R
b10001000 Z
b10001010100 n
b10001010100 H"
#85
b10001101 "
b10000111 *
b11011100 2
b11011110 :
b11011010 B
b10000101 J
b10001000 R
b11011111 Z
b10001010101 n
b10001010101 H"
#86
b11011010 "
b11011100 *
b1101111 2
b1101101 :
b1101000 B
b11011110 J
b11011111 R
b1110110 Z
b10001010110 n
b10001010110 H"
#87
b1101000 "
b1101111 *
b10001000 2
b10000100 :
b10000011 B
b1101101 J
b1110110 R
b10001001 Z
b10001010111 n
b10001010111 H"
#88
b10000011 "
b10001000 *
b11011110 2
b11011010 :
b11011101 B
b10000100 J
b10001001 R
b11011100 Z
b10001011000 n
b10001011000 H"
#89
b11011101 "
b11011110 *
b1101010 2
b1101001 :
b1110011 B
b11011010 J
b11011100 R
b1101000 Z
b10001011001 n
b10001011001 H"
#90
b1110011 "
b1101010 *
b1111111 2
b10000001 :
b10000010 B
b1101001 J
b1101000 R
b10000001 Z
b10001011010 n
b10001011010 H"
#91
b10000010 "
b1111111 *
b11011101 2
b11100000 :
b11011101 B
b10000001 J
b10000001 R
b11100001 Z
b10001011011 n
b10001011011 H"
#92
b11011101 "
b11011101 *
b1101111 2
b1101110 :
b1100101 B
b11100000 J
b11100001 R
b1111011 Z
b10001011100 n
b10001011100 H"
#93
b1100101 "
b1101111 *
b1111110 2
b10000001 :
b1111001 B
b1101110 J
b1111011 R
b10000101 Z
b10001011101 n
b10001011101 H"
#94
b1111001 "
b1111110 *
b11011100 2
b11011101 :
b11011011 B
b10000001 J
b10000101 R
b11011110 Z
b10001011110 n
b10001011110 H"
#95
b11011011 "
b11011100 *
b1101001 2
b1100101 :
b1101001 B
b11011101 J
b11011110 R
b1101111 Z
b10001011111 n
b10001011111 H"
#96
b1101001 "
b1101001 *
b1111111 2
b1111100 :
b1111010 B
b1100101 J
b1101111 R
b10000100 Z
b10001100000 n
b10001100000 H"
#97
b1111010 "
b1111111 *
b11011011 2
b11100000 :
b11011101 B
b1111100 J
b10000100 R
b11011101 Z
b10001100001 n
b10001100001 H"
#98
b11011101 "
b11011011 *
b1100110 2
b1101010 :
b1101000 B
b11100000 J
b11011101 R
b1100010 Z
b10001100010 n
b10001100010 H"
#99
b1101000 "
b1100110 *
b1111110 2
b1111111 :
b10000001 B
b1101010 J
b1100010 R
b1111011 Z
b10001100011 n
b10001100011 H"
#100
b10000001 "
b1111110 *
b11100000 2
b11011101 :
b11011100 B
b1111111 J
b1111011 R
b11011101 Z
b10001100100 n
b10001100100 H"
#101
b11011100 "
b11100000 *
b1100110 2
b1100110 :
b1101011 B
b11011101 J
b11011101 R
b1101001 Z
b10001100101 n
b10001100101 H"
#102
b1101011 "
b1100110 *
b10000011 2
b1111111 :
b1111010 B
b1100110 J
b1101001 R
b1111101 Z
b10001100110 n
b10001100110 H"
#103
b1111010 "
b10000011 *
b11011010 2
b11011111 :
b11011101 B
b1111111 J
b1111101 R
b11011110 Z
b10001100111 n
b10001100111 H"
#104
b11011101 "
b11011010 *
b1110100 2
b1101101 :
b1101010 B
b11011111 J
b11011110 R
b1100100 Z
b10001101000 n
b10001101000 H"
#105
b1101010 "
b1110100 *
b1111100 2
b1111101 :
b10000010 B
b1101101 J
b1100100 R
b1111010 Z
b10001101001 n
b10001101001 H"
#106
b10000010 "
b1111100 *
b11011101 2
b11011110 :
b11011010 B
b1111101 J
b1111010 R
b11011110 Z
b10001101010 n
b10001101010 H"
#107
b11011010 "
b11011101 *
b1100101 2
b1101001 :
b1101010 B
b11011110 J
b11011110 R
b1100001 Z
b10001101011 n
b10001101011 H"
#108
b1101010 "
b1100101 *
b1111101 2
b10000000 :
b1111101 B
b1101001 J
b1100001 R
b1111110 Z
b10001101100 n
b10001101100 H"
#109
b1111101 "
b1111101 *
b11011101 2
b11011101 :
b11011011 B
b10000000 J
b1111110 R
b11011101 Z
b10001101101 n
b10001101101 H"
#110
b11011011 "
b11011101 *
b1110110 2
b1101110 :
b1101001 B
b11011101 J
b11011101 R
b1110100 Z
b10001101110 n
b10001101110 H"
#111
b1101001 "
b1110110 *
b10000001 2
b1111111 :
b1111011 B
b1101110 J
b1110100 R
b10000000 Z
b10001101111 n
b10001101111 H"
#112
b1111011 "
b10000001 *
b11011010 2
b11011101 :
b11011111 B
b1111111 J
b10000000 R
b11011110 Z
b10001110000 n
b10001110000 H"
#113
b11011111 "
b11011010 *
b1100111 2
b1101111 :
b1101110 B
b11011101 J
b11011110 R
b1101011 Z
b10001110001 n
b10001110001 H"
#114
b1101110 "
b1100111 *
b1111100 2
b1111110 :
b10000011 B
b1101111 J
b1101011 R
b1111111 Z
b10001110010 n
b10001110010 H"
#115
b10000011 "
b1111100 *
b11011101 2
b11011011 :
b11011010 B
b1111110 J
b1111111 R
b11011100 Z
b10001110011 n
b10001110011 H"
#116
b11011010 "
b11011101 *
b1100010 2
b1101001 :
b1100110 B
b11011011 J
b11011100 R
b1100001 Z
b10001110100 n
b10001110100 H"
#117
b1100110 "
b1100010 *
b1110111 2
b1111110 :
b1111101 B
b1101001 J
b1100001 R
b1111000 Z
b10001110101 n
b10001110101 H"
#118
b1111101 "
b1110111 *
b11011010 2
b11011011 :
b11011101 B
b1111110 J
b1111000 R
b11011100 Z
b10001110110 n
b10001110110 H"
#119
b11011101 "
b11011010 *
b1101111 2
b1100110 :
b1110110 B
b11011011 J
b11011100 R
b1101011 Z
b10001110111 n
b10001110111 H"
#120
b1110110 "
b1101111 *
b1111110 2
b1111110 :
b10000011 B
b1100110 J
b1101011 R
b1111110 Z
b10001111000 n
b10001111000 H"
#121
b10000011 "
b1111110 *
b11011101 2
b11011011 :
b11011110 B
b1111110 J
b1111110 R
b11011110 Z
b10001111001 n
b10001111001 H"
#122
b11011110 "
b11011101 *
b1110010 2
b1111011 :
b1111001 B
b11011011 J
b11011110 R
b1101101 Z
b10001111010 n
b10001111010 H"
#123
b1111001 "
b1110010 *
b10000010 2
b10000011 :
b10000001 B
b1111011 J
b1101101 R
b1111111 Z
b10001111011 n
b10001111011 H"
#124
b10000001 "
b10000010 *
b11011101 2
b11011110 :
b11011010 B
b10000011 J
b1111111 R
b11011111 Z
b10001111100 n
b10001111100 H"
#125
b11011010 "
b11011101 *
b1100110 2
b1100110 :
b1101010 B
b11011110 J
b11011111 R
b1101000 Z
b10001111101 n
b10001111101 H"
#126
b1101010 "
b1100110 *
b1110111 2
b1111111 :
b1111110 B
b1100110 J
b1101000 R
b1111111 Z
b10001111110 n
b10001111110 H"
#127
b1111110 "
b1110111 *
b11011110 2
b11011101 :
b11011101 B
b1111111 J
b1111111 R
b11011101 Z
b10001111111 n
b10001111111 H"
#128
b11011101 "
b11011110 *
b1101110 2
b1110100 :
b1110101 B
b11011101 J
b11011101 R
b1110000 Z
b10010000000 n
b10010000000 H"
#129
b1110101 "
b1101110 *
b10000001 2
b10000110 :
b10000011 B
b1110100 J
b1110000 R
b10000000 Z
b10010000001 n
b10010000001 H"
#130
b10000011 "
b10000001 *
b11011100 2
b11011101 :
b11011110 B
b10000110 J
b10000000 R
b11011100 Z
b10010000010 n
b10010000010 H"
#131
b11011110 "
b11011100 *
b1110001 2
b1100111 :
b1101110 B
b11011101 J
b11011100 R
b1101100 Z
b10010000011 n
b10010000011 H"
#132
b1101110 "
b1110001 *
b10000010 2
b1111011 :
b10000010 B
b1100111 J
b1101100 R
b1111101 Z
b10010000100 n
b10010000100 H"
#133
b10000010 "
b10000010 *
b11011110 2
b11011011 :
b11011111 B
b1111011 J
b1111101 R
b11011101 Z
b10010000101 n
b10010000101 H"
#134
b11011111 "
b11011110 *
b1101011 2
b1101011 :
b1110001 B
b11011011 J
b11011101 R
b1101011 Z
b10010000110 n
b10010000110 H"
#135
b1110001 "
b1101011 *
b1111110 2
b10000001 :
b10000000 B
b1101011 J
b1101011 R
b10000001 Z
b10010000111 n
b10010000111 H"
#136
b10000000 "
b1111110 *
b11011010 2
b11011100 :
b11011101 B
b10000001 J
b10000001 R
b11011011 Z
b10010001000 n
b10010001000 H"
#137
b11011101 "
b11011010 *
b1101001 2
b1101001 :
b1110000 B
b11011100 J
b11011011 R
b1100110 Z
b10010001001 n
b10010001001 H"
#138
b1110000 "
b1101001 *
b10000000 2
b1111110 :
b10000000 B
b1101001 J
b1100110 R
b1111011 Z
b10010001010 n
b10010001010 H"
#139
b10000000 "
b10000000 *
b11011101 2
b11011100 :
b11011101 B
b1111110 J
b1111011 R
b11011111 Z
b10010001011 n
b10010001011 H"
#140
b11011101 "
b11011101 *
b1101011 2
b1101111 :
b1111101 B
b11011100 J
b11011111 R
b1110101 Z
b10010001100 n
b10010001100 H"
#141
b1111101 "
b1101011 *
b10000000 2
b10000111 :
b10000111 B
b1101111 J
b1110101 R
b10000010 Z
b10010001101 n
b10010001101 H"
#142
b10000111 "
b10000000 *
b11011100 2
b11011100 :
b11011100 B
b10000111 J
b10000010 R
b11011010 Z
b10010001110 n
b10010001110 H"
#143
b11011100 "
b11011100 *
b1100010 2
b1101000 :
b1110100 B
b11011100 J
b11011010 R
b1101011 Z
b10010001111 n
b10010001111 H"
#144
b1110100 "
b1100010 *
b1111100 2
b10000000 :
b10000101 B
b1101000 J
b1101011 R
b1111101 Z
b10010010000 n
b10010010000 H"
#145
b10000101 "
b1111100 *
b11011110 2
b11100001 :
b11011111 B
b10000000 J
b1111101 R
b11011101 Z
b10010010001 n
b10010010001 H"
#146
b11011111 "
b11011110 *
b1110001 2
b1100100 :
b1101000 B
b11100001 J
b11011101 R
b1101110 Z
b10010010010 n
b10010010010 H"
#147
b1101000 "
b1110001 *
b10000011 2
b10000011 :
b10000001 B
b1100100 J
b1101110 R
b1111101 Z
b10010010011 n
b10010010011 H"
#148
b10000001 "
b10000011 *
b11011110 2
b11011111 :
b11100000 B
b10000011 J
b1111101 R
b11011110 Z
b10010010100 n
b10010010100 H"
#149
b11100000 "
b11011110 *
b1101110 2
b1101010 :
b1110101 B
b11011111 J
b11011110 R
b1110100 Z
b10010010101 n
b10010010101 H"
#150
b1110101 "
b1101110 *
b10000100 2
b10000001 :
b10000100 B
b1101010 J
b1110100 R
b10001001 Z
b10010010110 n
b10010010110 H"
#151
b10000100 "
b10000100 *
b11011111 2
b11011111 :
b11011101 B
b10000001 J
b10001001 R
b11011111 Z
b10010010111 n
b10010010111 H"
#152
b11011101 "
b11011111 *
b1101101 2
b1101000 :
b1101000 B
b11011111 J
b11011111 R
b1101101 Z
b10010011000 n
b10010011000 H"
#153
b1101000 "
b1101101 *
b10000001 2
b10000000 :
b10000001 B
b1101000 J
b1101101 R
b10000010 Z
b10010011001 n
b10010011001 H"
#154
b10000001 "
b10000001 *
b11011111 2
b11011111 :
b11011110 B
b10000000 J
b10000010 R
b11100000 Z
b10010011010 n
b10010011010 H"
#155
b11011110 "
b11011111 *
b1100100 2
b1011111 :
b1101001 B
b11011111 J
b11100000 R
b1100110 Z
b10010011011 n
b10010011011 H"
#156
b1101001 "
b1100100 *
b10000000 2
b1111110 :
b1111111 B
b1011111 J
b1100110 R
b1111110 Z
b10010011100 n
b10010011100 H"
#157
b1111111 "
b10000000 *
b11100010 2
b11100011 :
b11100000 B
b1111110 J
b1111110 R
b11100000 Z
b10010011101 n
b10010011101 H"
#158
b11100000 "
b11100010 *
b1100111 2
b1101011 :
b1100100 B
b11100011 J
b11100000 R
b1101100 Z
b10010011110 n
b10010011110 H"
#159
b1100100 "
b1100111 *
b10000000 2
b10000000 :
b1111100 B
b1101011 J
b1101100 R
b10000001 Z
b10010011111 n
b10010011111 H"
#160
b1111100 "
b10000000 *
b11100000 2
b11011101 :
b11011110 B
b10000000 J
b10000001 R
b11100001 Z
b10010100000 n
b10010100000 H"
#161
b11011110 "
b11100000 *
b1100100 2
b1100011 :
b1110001 B
b11011101 J
b11100001 R
b1101010 Z
b10010100001 n
b10010100001 H"
#162
b1110001 "
b1100100 *
b1111110 2
b1111101 :
b10000101 B
b1100011 J
b1101010 R
b1111111 Z
b10010100010 n
b10010100010 H"
#163
b10000101 "
b1111110 *
b11011111 2
b11011110 :
b11011110 B
b1111101 J
b1111111 R
b11100000 Z
b10010100011 n
b10010100011 H"
#164
b11011110 "
b11011111 *
b1101001 2
b1100101 :
b1101101 B
b11011110 J
b11100000 R
b1101001 Z
b10010100100 n
b10010100100 H"
#165
b1101101 "
b1101001 *
b1111110 2
b10000000 :
b1111111 B
b1100101 J
b1101001 R
b10000011 Z
b10010100101 n
b10010100101 H"
#166
b1111111 "
b1111110 *
b11011110 2
b11011111 :
b11011101 B
b10000000 J
b10000011 R
b11100001 Z
b10010100110 n
b10010100110 H"
#167
b11011101 "
b11011110 *
b1101001 2
b1101001 :
b1100111 B
b11011111 J
b11100001 R
b1100011 Z
b10010100111 n
b10010100111 H"
#168
b1100111 "
b1101001 *
b10000000 2
b1111110 :
b1111110 B
b1101001 J
b1100011 R
b10000010 Z
b10010101000 n
b10010101000 H"
#169
b1111110 "
b10000000 *
b11011111 2
b11011111 :
b11011011 B
b1111110 J
b10000010 R
b11011101 Z
b10010101001 n
b10010101001 H"
#170
b11011011 "
b11011111 *
b1101000 2
b1100111 :
b1101011 B
b11011111 J
b11011101 R
b1100100 Z
b10010101010 n
b10010101010 H"
#171
b1101011 "
b1101000 *
b1111100 2
b1111101 :
b10000000 B
b1100111 J
b1100100 R
b10000000 Z
b10010101011 n
b10010101011 H"
#172
b10000000 "
b1111100 *
b11011110 2
b11011110 :
b11011110 B
b1111101 J
b10000000 R
b11011111 Z
b10010101100 n
b10010101100 H"
#173
b11011110 "
b11011110 *
b1100110 2
b1100100 :
b1011111 B
b11011110 J
b11011111 R
b1100100 Z
b10010101101 n
b10010101101 H"
#174
b1011111 "
b1100110 *
b1111101 2
b10000000 :
b1111111 B
b1100100 J
b1100100 R
b10000000 Z
b10010101110 n
b10010101110 H"
