bmp_hdmi_test4/.Xil/Vivado-16804-DESKTOP-3OAFHV8/hw_ila_data_1/zip_work/waveform.vcd
$date
        2025-Jan-22 00:39:45
$end
$version
        Vivado v2020.2 (64-bit)
$end
$timescale
        1ps
$end
$scope module dut $end
$var reg 8 " system_i/Bic_top_0/inst/ramRB/readData12 [7:0] $end
$var reg 8 * system_i/Bic_top_0/inst/ramRB/readData31 [7:0] $end
$var reg 8 2 system_i/Bic_top_0/inst/ramRB/readData02 [7:0] $end
$var reg 8 : system_i/Bic_top_0/inst/ramRB/readData22 [7:0] $end
$var reg 8 B system_i/Bic_top_0/inst/ramRB/readData33 [7:0] $end
$var reg 8 J system_i/Bic_top_0/inst/ramRB/readData32 [7:0] $end
$var reg 8 R system_i/Bic_top_0/inst/ramRB/readData13 [7:0] $end
$var reg 8 Z system_i/Bic_top_0/inst/ramRB/readData10 [7:0] $end
$var reg 8 b system_i/Bic_top_0/inst/ramRB/readData11 [7:0] $end
$var reg 8 j system_i/Bic_top_0/inst/ramRB/readData23 [7:0] $end
$var reg 8 r system_i/Bic_top_0/inst/ramRB/readData20 [7:0] $end
$var reg 8 z system_i/Bic_top_0/inst/ramRB/readData21 [7:0] $end
$var reg 6 $" system_i/Bic_top_0/inst/ramRB/readSelect [5:0] $end
$var reg 6 *" system_i/Bic_top_0/inst/ramRB/writeSelect [5:0] $end
$var reg 8 0" system_i/Bic_top_0/inst/ramRB/readData01 [7:0] $end
$var reg 8 8" system_i/Bic_top_0/inst/ramRB/readData03 [7:0] $end
$var reg 8 @" system_i/Bic_top_0/inst/ramRB/readData00 [7:0] $end
$var reg 8 H" system_i/Bic_top_0/inst/ramRB/readData30 [7:0] $end
$var reg 3 P" system_i/Bic_top_0/inst/fillCount [2:0] $end
$var reg 12 S" system_i/Bic_top_0/inst/writeRowCount [11:0] $end
$var reg 12 _" system_i/Bic_top_0/inst/xPixLow [11:0] $end
$var reg 12 k" system_i/Bic_top_0/inst/outputColumn [11:0] $end
$var reg 8 w" system_i/Bic_top_0/inst/s_axis_tdata [7:0] $end
$var reg 12 !# system_i/Bic_top_0/inst/yPixLowNext [11:0] $end
$var reg 12 -# system_i/Bic_top_0/inst/writeNextValidLine [11:0] $end
$var reg 8 9# system_i/Bic_top_0/inst/m_axis_tdata [7:0] $end
$var reg 12 A# system_i/Bic_top_0/inst/yPixLow [11:0] $end
$var reg 1 M# system_i/Bic_top_0/inst/advanceRead1 $end
$var reg 1 N# system_i/Bic_top_0/inst/advanceWrite $end
$var reg 1 O# system_i/Bic_top_0/inst/allDataWritten $end
$var reg 1 P# system_i/Bic_top_0/inst/dOutValidInt $end
$var reg 1 Q# system_i/Bic_top_0/inst/enableNextDin $end
$var reg 1 R# system_i/Bic_top_0/inst/forceRead $end
$var reg 1 S# system_i/Bic_top_0/inst/i_vid_de $end
$var reg 1 T# system_i/Bic_top_0/inst/i_vout_read $end
$var reg 1 U# system_i/Bic_top_0/inst/m_axis_tready $end
$var reg 1 V# system_i/Bic_top_0/inst/m_axis_tvalid $end
$var reg 1 W# system_i/Bic_top_0/inst/readState $end
$var reg 1 X# system_i/Bic_top_0/inst/s_axis_tlast $end
$var reg 1 Y# system_i/Bic_top_0/inst/s_axis_tready $end
$var reg 1 Z# system_i/Bic_top_0/inst/s_axis_tvalid $end
$var reg 1 [# _TRIGGER $end
$var reg 1 \# _WINDOW $end
$var reg 1 ]# _GAP $end
$upscope $end
$enddefinitions $end
#0
$dumpvars
b1011111 "
b1100001 *
b1100100 2
b1100001 :
b1100001 B
b1100001 J
b1011111 R
b1011111 Z
b1011111 b
b1100001 j
b1100001 r
b1100001 z
b1 $"
b1000 *"
b1100100 0"
b1100100 8"
b1100100 @"
b1100001 H"
b11 P"
b11 S"
b0 _"
b0 k"
b10110110 w"
b1 !#
b100 -#
b0 9#
b0 A#
0M#
0N#
0O#
0P#
0Q#
0R#
1S#
1T#
1U#
0V#
0W#
0X#
1Y#
1Z#
0[#
1\#
0]#
$end
#1
b1011000 w"
#2
b1010010 w"
#3
b10110001 w"
#4
b1010101 w"
#5
b1010000 w"
#6
b10110110 w"
#7
b1010111 w"
#8
b1001111 w"
#9
b10110010 w"
#10
b1010000 w"
#11
b1001000 w"
#12
b10101101 w"
#13
b1010100 w"
#14
b1001000 w"
#15
b10101100 w"
#16
b1011001 w"
#17
b1001010 w"
#18
b10100111 w"
#19
b1010001 w"
#20
b1000111 w"
#21
b10101010 w"
#22
b1001101 w"
#23
b1000110 w"
#24
b10101101 w"
#25
b1010111 w"
#26
b1010101 w"
#27
b10110101 w"
#28
b1011010 w"
#29
b1010101 w"
#30
b11000011 w"
#31
b1011001 w"
#32
b1011011 w"
#33
b11000011 w"
#34
b1100001 w"
#35
b1011111 w"
#36
b11000110 w"
#37
b1011000 w"
#38
b1100000 w"
#39
b11000100 w"
#40
b1100001 w"
#41
b1100110 w"
#42
b11001101 w"
#43
b1100011 w"
#44
b1101001 w"
#45
b11010001 w"
#46
b1101010 w"
#47
b1101101 w"
#48
b11010110 w"
#49
b1101011 w"
#50
b1110110 w"
#51
b11010100 w"
#52
b1111000 w"
#53
b1111011 w"
#54
b11010101 w"
#55
b1100100 w"
#56
b1110100 w"
#57
b11011001 w"
#58
b1110000 w"
#59
b1111011 w"
#60
b11011000 w"
#61
b1101011 w"
#62
b10000010 w"
#63
b11011011 w"
#64
b10000011 w"
#65
b10000100 w"
#66
b11011001 w"
#67
b1101101 w"
#68
b10001001 w"
#69
b11011001 w"
#70
b1110101 w"
#71
b10000110 w"
#72
b11011011 w"
#73
b1110010 w"
#74
b10000110 w"
#75
b11011101 w"
#76
b1101110 w"
#77
b10000111 w"
#78
b11100000 w"
#79
b1110110 w"
#80
b10001101 w"
#81
b11011111 w"
#82
b1110010 w"
#83
b10000101 w"
#84
b11011110 w"
#85
b1101101 w"
#86
b10000100 w"
#87
b11011010 w"
#88
b1101001 w"
#89
b10000001 w"
#90
b11100000 w"
#91
b1101110 w"
#92
b10000001 w"
#93
b11011101 w"
#94
b1100101 w"
#95
b1111100 w"
#96
b11100000 w"
#97
b1101010 w"
#98
b1111111 w"
#99
b11011101 w"
#100
b1100110 w"
#101
b1111111 w"
#102
b11011111 w"
#103
b1101101 w"
#104
b1111101 w"
#105
b11011110 w"
#106
b1101001 w"
#107
b10000000 w"
#108
b11011101 w"
#109
b1101110 w"
#110
b1111111 w"
#111
b11011101 w"
#112
b1101111 w"
#113
b1111110 w"
#114
b11011011 w"
#115
b1101001 w"
#116
b1111110 w"
#117
b11011011 w"
#118
b1100110 w"
#119
b1111110 w"
#120
b11011011 w"
#121
b1111011 w"
#122
b10000011 w"
#123
b11011110 w"
#124
b1100110 w"
#125
b1111111 w"
#126
b11011101 w"
#127
b1110100 w"
#128
b10000110 w"
#129
b11011101 w"
#130
b1100111 w"
#131
b1111011 w"
#132
b11011011 w"
#133
b1101011 w"
#134
b10000001 w"
#135
b11011100 w"
#136
b1101001 w"
#137
b1111110 w"
#138
b11011100 w"
#139
b1101111 w"
#140
b10000111 w"
#141
b11011100 w"
#142
b1101000 w"
#143
b10000000 w"
#144
b11100001 w"
#145
b1100100 w"
#146
b10000011 w"
#147
b11011111 w"
#148
b1101010 w"
#149
b10000001 w"
#150
b11011111 w"
#151
b1101000 w"
#152
b10000000 w"
#153
b11011111 w"
#154
b1011111 w"
#155
b1111110 w"
#156
b11100011 w"
#157
b1101011 w"
#158
b10000000 w"
#159
b11011101 w"
#160
b1100011 w"
#161
b1111101 w"
#162
b11011110 w"
#163
b1100101 w"
#164
b10000000 w"
#165
b11011111 w"
#166
b1101001 w"
#167
b1111110 w"
#168
b11011111 w"
#169
b1100111 w"
#170
b1111101 w"
#171
b11011110 w"
#172
b1100100 w"
#173
b10000000 w"
#174
b11011111 w"
#175
b1100100 w"
#176
b1111101 w"
#177
b11011110 w"
#178
b1100010 w"
#179
b10000010 w"
#180
b11100000 w"
#181
b1100111 w"
#182
b10000011 w"
#183
b11100001 w"
#184
b1101111 w"
#185
b10000011 w"
#186
b11100010 w"
#187
b1100110 w"
#188
b10000011 w"
#189
b11100001 w"
#190
b1101010 w"
#191
b10000011 w"
#192
b11011111 w"
#193
b1101101 w"
#194
b10000100 w"
#195
b11011010 w"
#196
b1101110 w"
#197
b1111111 w"
#198
b11011100 w"
#199
b1101111 w"
#200
b1111111 w"
#201
b11011110 w"
#202
b1011110 w"
#203
b10000000 w"
#204
b11100001 w"
#205
b1100111 w"
#206
b1111101 w"
#207
b11011111 w"
#208
b1100110 w"
#209
b1111101 w"
#210
b11011110 w"
#211
b1101010 w"
#212
b10000001 w"
#213
b11011110 w"
#214
b1011111 w"
#215
b10000000 w"
#216
b11011100 w"
#217
b1101100 w"
#218
b10000001 w"
#219
b11011101 w"
#220
b1100110 w"
#221
b10000111 w"
#222
b11100001 w"
#223
b1101011 w"
#224
b10000010 w"
#225
b11011101 w"
#226
b1100011 w"
#227
b10000011 w"
#228
b11011100 w"
#229
b1101011 w"
#230
b10000101 w"
#231
b11011101 w"
#232
b1101110 w"
#233
b10000011 w"
#234
b11011010 w"
#235
b1110001 w"
#236
b10000100 w"
#237
b11011100 w"
#238
b1100101 w"
#239
b10000000 w"
#240
b11011011 w"
#241
b1101100 w"
#242
b10000100 w"
#243
b11011100 w"
#244
b1101110 w"
#245
b10000100 w"
#246
b11011110 w"
#247
b1100111 w"
#248
b10000010 w"
#249
b11011101 w"
#250
b1101011 w"
#251
b10000100 w"
#252
b11011101 w"
#253
b1100111 w"
#254
b10000010 w"
#255
b11011111 w"
#256
b1101011 w"
#257
b10000001 w"
#258
b11011100 w"
#259
b1100100 w"
#260
b1111110 w"
#261
b11011101 w"
#262
b1101100 w"
#263
b1111110 w"
#264
b11010101 w"
#265
b1101001 w"
#266
b10000000 w"
#267
b11011001 w"
#268
b1101101 w"
#269
b10001100 w"
#270
b11011111 w"
#271
b1111000 w"
#272
b10011100 w"
#273
b11100111 w"
#274
b10000100 w"
#275
b10110110 w"
#276
b11101101 w"
#277
b10001000 w"
#278
b10111110 w"
#279
b11110001 w"
#280
b10010001 w"
#281
b11000010 w"
#282
b11110100 w"
#283
b10001011 w"
#284
b11001010 w"
#285
b11110111 w"
#286
b10011001 w"
#287
b11001110 w"
#288
b11111000 w"
#289
b10011011 w"
#290
b11001110 w"
#291
b11111000 w"
#292
b10011100 w"
#293
b11010010 w"
#294
b11110111 w"
#295
b10011101 w"
#296
b11010011 w"
#297
b11111001 w"
#298
b10011011 w"
#299
b11010100 w"
#300
b11111001 w"
#301
b10011111 w"
#302
b11010100 w"
#303
b11111011 w"
#304
b10100100 w"
#305
b11010111 w"
#306
b11111011 w"
#307
b10011101 w"
#308
b11011000 w"
#309
b11111011 w"
#310
b10011100 w"
#311
b11010110 w"
#312
b11111100 w"
#313
b10011000 w"
#314
b11010011 w"
#315
b11111100 w"
#316
b10001110 w"
#317
b11001111 w"
#318
b11111000 w"
#319
b10001001 w"
#320
b11000111 w"
#321
b11110100 w"
#322
b10000101 w"
#323
b10111011 w"
#324
b11101100 w"
#325
b1111011 w"
#326
b10100101 w"
#327
b11100010 w"
#328
b1101001 w"
#329
b10001000 w"
#330
b11010100 w"
#331
b1011101 w"
#332
b1101001 w"
#333
b10111101 w"
#334
b1011001 w"
#335
b1001111 w"
#336
b10101100 w"
#337
b1011100 w"
#338
b1001101 w"
#339
b10100101 w"
#340
b1010110 w"
#341
b1000100 w"
#342
b10100011 w"
#343
b1010111 w"
#344
b1000111 w"
#345
b10100111 w"
#346
b1010100 w"
#347
b1000111 w"
#348
b10101100 w"
#349
b1011111 w"
#350
b1010000 w"
#351
b10101011 w"
#352
b1010101 w"
#353
b1001011 w"
#354
b10101011 w"
#355
b1011101 w"
#356
b1010101 w"
#357
b10110000 w"
#358
b1011101 w"
#359
b1011001 w"
#360
b10110100 w"
#361
b1011101 w"
#362
b1010110 w"
#363
b10110110 w"
#364
b1011010 w"
#365
b1010100 w"
#366
b10111010 w"
#367
b1011001 w"
#368
b1011010 w"
#369
b10111101 w"
#370
b1100101 w"
#371
b1011111 w"
#372
b10111101 w"
#373
b1011001 w"
#374
b1011000 w"
#375
b10111101 w"
#376
b1001111 w"
#377
b1010001 w"
#378
b11000011 w"
#379
b1011101 w"
#380
b1011001 w"
#381
b10111110 w"
#382
b1100101 w"
#383
b1011110 w"
#384
b10111100 w"
#385
b1010110 w"
#386
b1011100 w"
#387
b10111110 w"
#388
b1100101 w"
#389
b1011000 w"
#390
b10110110 w"
#391
b1011000 w"
#392
b1011100 w"
#393
b10111110 w"
#394
b1011100 w"
#395
b1011110 w"
#396
b10111101 w"
#397
b1011101 w"
#398
b1100101 w"
#399
b10111110 w"
#400
b1011111 w"
#401
b1011101 w"
#402
b10111110 w"
#403
b1011110 w"
#404
b1011100 w"
#405
b10111111 w"
#406
b1011101 w"
#408
b11000100 w"
#409
b1100010 w"
#411
b10111101 w"
#412
b1100100 w"
#413
b1100011 w"
#414
b10111101 w"
#415
b1011100 w"
#416
b1011010 w"
#417
b10111110 w"
#418
b1011101 w"
#419
b1011001 w"
#420
b11000000 w"
#421
b1010111 w"
#422
b1011001 w"
#423
b10111010 w"
#424
b1100101 w"
#425
b1011110 w"
#426
b10110110 w"
#427
b1100111 w"
#428
b1100000 w"
#429
b10111010 w"
#430
b1011110 w"
#432
b10110111 w"
#433
b1100100 w"
#434
b1011111 w"
#435
b10111110 w"
#436
b1011011 w"
#437
b1011100 w"
#438
b10111100 w"
#439
b1100011 w"
#441
b10111110 w"
#442
b1010100 w"
#443
b1010111 w"
#444
b11000000 w"
#445
b1011010 w"
#446
b1011110 w"
#447
b10111101 w"
#448
b1011111 w"
#449
b1100101 w"
#450
b11000100 w"
#451
b1011111 w"
#452
b1100000 w"
#453
b11000010 w"
#454
b1011111 w"
#455
b1011101 w"
#456
b11000011 w"
#457
b1010111 w"
#458
b1011101 w"
#459
b11000101 w"
#460
b1011110 w"
#461
b1100000 w"
#462
b11001001 w"
#463
b1100010 w"
#464
b1100011 w"
#465
b11000010 w"
#466
b1011100 w"
#467
b1011011 w"
#468
b10111100 w"
#469
b1011111 w"
#470
b1100001 w"
#471
b10111111 w"
#472
b1011011 w"
#473
b1011101 w"
#474
b11000000 w"
#475
b1100011 w"
#476
b1011110 w"
#477
b10111111 w"
#478
b1011000 w"
#479
b1011100 w"
#480
b11000001 w"
#481
b1011001 w"
#482
b1010110 w"
#483
b11000011 w"
#484
b1100101 w"
#485
b1100011 w"
#486
b11000001 w"
#487
b1011110 w"
#488
b1100000 w"
#489
b11000010 w"
#490
b1011001 w"
#491
b1011011 w"
#492
b11000101 w"
#493
b1011001 w"
#494
b1100000 w"
#495
b11000100 w"
#496
b1100010 w"
#497
b1011101 w"
#498
b10111101 w"
#499
b1101000 w"
#500
b1011100 w"
#501
b10111101 w"
#502
b1011011 w"
#503
b1011101 w"
#504
b11000001 w"
#505
b1011111 w"
#506
b1100001 w"
#507
b11000100 w"
#508
b1011101 w"
#509
b1011011 w"
#510
b11000100 w"
1N#
1X#
#511
b10000 *"
b100 P"
b100 S"
0N#
0S#
0X#
0Z#
#512
b101 -#
1P#
1W#
1[#
#513
b1 _"
b1 k"
#514
b10 _"
b10 k"
#515
b1011110 B
b1100010 R
b1011110 j
b1011111 8"
b11 _"
b11 k"
#516
b1100010 "
b1011111 2
b1011110 :
b11000100 B
b1011110 J
b11001001 R
b11000100 j
b11000100 8"
b100 _"
b100 k"
#517
b11001001 "
b1011110 *
b11000100 2
b11000100 :
b1011100 B
b11000100 J
b1100001 R
b1100010 b
b1011100 j
b1011110 z
b1011111 0"
b1101100 8"
b101 _"
b101 k"
#518
b1100001 "
b11000100 *
b1101100 2
b1011100 :
b1100001 B
b1011100 J
b1100010 R
b1100010 Z
b11001001 b
b1100001 j
b1011110 r
b11000100 z
b11000100 0"
b1100101 8"
b1011111 @"
b1011110 H"
b110 _"
b110 k"
#519
b1100010 "
b1011100 *
b1100101 2
b1100001 :
b11001000 B
b1100001 J
b11000100 R
b11001001 Z
b1100001 b
b11001000 j
b11000100 r
b1011100 z
b1101100 0"
b11000100 8"
b11000100 @"
b11000100 H"
b111 _"
b111 k"
#520
b11000100 "
b1100001 *
b11000100 2
b11001000 :
b1011000 B
b11001000 J
b1011111 R
b1100001 Z
b1100010 b
b1011000 j
b1011100 r
b1100001 z
b1100101 0"
b1011011 8"
b1101100 @"
b1011100 H"
b1000 _"
b1000 k"
#521
b1011111 "
b11001000 *
b1011011 2
b1011000 :
b1011000 J
b1100001 R
b1100010 Z
b11000100 b
b1100001 r
b11001000 z
b11000100 0"
b1011111 8"
b1100101 @"
b1100001 H"
b1001 _"
b1001 k"
#522
b1100001 "
b1011000 *
b1011111 2
b11000101 B
b11000111 R
b11000100 Z
b1011111 b
b11000101 j
b11001000 r
b1011000 z
b1011011 0"
b11000000 8"
b11000100 @"
b11001000 H"
b1010 _"
b1010 k"
#523
b11000111 "
b11000000 2
b11000101 :
b1011001 B
b11000101 J
b1100001 R
b1011111 Z
b1100001 b
b1011001 j
b1011000 r
b1011111 0"
b1100101 8"
b1011011 @"
b1011000 H"
b1011 _"
b1011 k"
#524
b1100001 "
b11000101 *
b1100101 2
b1011001 :
b1011001 J
b1011100 R
b1100001 Z
b11000111 b
b11000101 z
b11000000 0"
b1100001 8"
b1011111 @"
b1100 _"
b1100 k"
#525
b1011100 "
b1011001 *
b1100001 2
b11001000 B
b11000110 R
b11000111 Z
b1100001 b
b11001000 j
b11000101 r
b1011001 z
b1100101 0"
b11000010 8"
b11000000 @"
b11000101 H"
b1101 _"
b1101 k"
#526
b11000110 "
b11000010 2
b11001000 :
b1011000 B
b11001000 J
b1011010 R
b1100001 Z
b1011100 b
b1011000 j
b1011001 r
b1100001 0"
b1011101 8"
b1100101 @"
b1011001 H"
b1110 _"
b1110 k"
#527
b1011010 "
b11001000 *
b1011101 2
b1011000 :
b1011011 B
b1011000 J
b1100000 R
b1011100 Z
b11000110 b
b1011011 j
b11001000 z
b11000010 0"
b1100001 @"
b1111 _"
b1111 k"
#528
b1100000 "
b1011000 *
b1011011 :
b11000111 B
b1011011 J
b11001000 R
b11000110 Z
b1011010 b
b11000111 j
b11001000 r
b1011000 z
b1011101 0"
b11000111 8"
b11000010 @"
b11001000 H"
b10000 _"
b10000 k"
#529
b11001000 "
b1011011 *
b11000111 2
b11000111 :
b1100001 B
b11000111 J
b1011010 R
b1011010 Z
b1100000 b
b1100001 j
b1011000 r
b1011011 z
b1011001 8"
b1011101 @"
b1011000 H"
b10001 _"
b10001 k"
#530
b1011010 "
b11000111 *
b1011001 2
b1100001 :
b1011110 B
b1100001 J
b1011111 R
b1100000 Z
b11001000 b
b1011110 j
b1011011 r
b11000111 z
b11000111 0"
b1011011 H"
b10010 _"
b10010 k"
#531
b1011111 "
b1100001 *
b1011110 :
b11000101 B
b1011110 J
b11001000 R
b11001000 Z
b1011010 b
b11000101 j
b11000111 r
b1100001 z
b1011001 0"
b11000100 8"
b11000111 @"
b11000111 H"
b10011 _"
b10011 k"
#532
b11001000 "
b1011110 *
b11000100 2
b11000101 :
b1100100 B
b11000101 J
b1100101 R
b1011010 Z
b1011111 b
b1100100 j
b1100001 r
b1011110 z
b1100100 8"
b1011001 @"
b1100001 H"
b10100 _"
b10100 k"
#533
b1100101 "
b11000101 *
b1100100 2
b1100100 :
b1011111 B
b1100100 J
b1100100 R
b1011111 Z
b11001000 b
b1011111 j
b1011110 r
b11000101 z
b11000100 0"
b1100101 8"
b1011110 H"
b10101 _"
b10101 k"
#534
b1100100 "
b1100100 *
b1100101 2
b1011111 :
b11000001 B
b1011111 J
b11000101 R
b11001000 Z
b1100101 b
b11000001 j
b11000101 r
b1100100 z
b1100100 0"
b11000100 8"
b11000100 @"
b11000101 H"
b10110 _"
b10110 k"
#535
b11000101 "
b1011111 *
b11000100 2
b11000001 :
b1011111 B
b11000001 J
b1011101 R
b1100101 Z
b1100100 b
b1011111 j
b1100100 r
b1011111 z
b1100101 0"
b1100000 8"
b1100100 @"
b1100100 H"
b10111 _"
b10111 k"
#536
b1011101 "
b11000001 *
b1100000 2
b1011111 :
b1100010 B
b1011111 J
b1100001 R
b1100100 Z
b11000101 b
b1100010 j
b1011111 r
b11000001 z
b11000100 0"
b1011111 8"
b1100101 @"
b1011111 H"
b11000 _"
b11000 k"
#537
b1100001 "
b1011111 *
b1011111 2
b1100010 :
b11000010 B
b1100010 J
b11000000 R
b11000101 Z
b1011101 b
b11000010 j
b11000001 r
b1011111 z
b1100000 0"
b11000001 8"
b11000100 @"
b11000001 H"
b11001 _"
b11001 k"
#538
b11000000 "
b1100010 *
b11000001 2
b11000010 :
b1010101 B
b11000010 J
b1011011 R
b1011101 Z
b1100001 b
b1010101 j
b1011111 r
b1100010 z
b1011111 0"
b1010110 8"
b1100000 @"
b1011111 H"
b11010 _"
b11010 k"
#539
b1011011 "
b11000010 *
b1010110 2
b1010101 :
b1011111 B
b1010101 J
b1011110 R
b1100001 Z
b11000000 b
b1011111 j
b1100010 r
b11000010 z
b11000001 0"
b1100001 8"
b1011111 @"
b1100010 H"
b11011 _"
b11011 k"
#540
b1011110 "
b1010101 *
b1100001 2
b1011111 :
b11000110 B
b1011111 J
b11000010 R
b11000000 Z
b1011011 b
b11000110 j
b11000010 r
b1010101 z
b1010110 0"
b11000101 8"
b11000001 @"
b11000010 H"
b11100 _"
b11100 k"
#541
b11000010 "
b1011111 *
b11000101 2
b11000110 :
b1011101 B
b11000110 J
b1011101 R
b1011011 Z
b1011110 b
b1011101 j
b1010101 r
b1011111 z
b1100001 0"
b1101001 8"
b1010110 @"
b1010101 H"
b11101 _"
b11101 k"
#542
b1011101 "
b11000110 *
b1101001 2
b1011101 :
b1011111 B
b1011101 J
b1011110 R
b1011110 Z
b11000010 b
b1011111 j
b1011111 r
b11000110 z
b11000101 0"
b1100001 8"
b1100001 @"
b1011111 H"
b11110 _"
b11110 k"
#543
b1011110 "
b1011101 *
b1100001 2
b1011111 :
b11001000 B
b1011111 J
b11000101 R
b11000010 Z
b1011101 b
b11001000 j
b11000110 r
b1011101 z
b1101001 0"
b11000010 8"
b11000101 @"
b11000110 H"
b11111 _"
b11111 k"
#544
b11000101 "
b1011111 *
b11000010 2
b11001000 :
b1100001 B
b11001000 J
b1011011 R
b1011101 Z
b1011110 b
b1100001 j
b1011101 r
b1011111 z
b1100001 0"
b1011010 8"
b1101001 @"
b1011101 H"
b100000 _"
b100000 k"
#545
b1011011 "
b11001000 *
b1011010 2
b1100001 :
b1100000 B
b1100001 J
b1011110 Z
b11000101 b
b1100000 j
b1011111 r
b11001000 z
b11000010 0"
b1011000 8"
b1100001 @"
b1011111 H"
b100001 _"
b100001 k"
#546
b1100001 *
b1011000 2
b1100000 :
b11000101 B
b1100000 J
b10111111 R
b11000101 Z
b1011011 b
b11000101 j
b11001000 r
b1100001 z
b1011010 0"
b11000000 8"
b11000010 @"
b11001000 H"
b100010 _"
b100010 k"
#547
b10111111 "
b1100000 *
b11000000 2
b11000101 :
b1011010 B
b11000101 J
b1011100 R
b1011011 Z
b1011010 j
b1100001 r
b1100000 z
b1011000 0"
b1100000 8"
b1011010 @"
b1100001 H"
b100011 _"
b100011 k"
#548
b1011100 "
b11000101 *
b1100000 2
b1011010 :
b1011110 B
b1011010 J
b1011101 R
b10111111 b
b1011110 j
b1100000 r
b11000101 z
b11000000 0"
b1011110 8"
b1011000 @"
b1100000 H"
b100100 _"
b100100 k"
#549
b1011101 "
b1011010 *
b1011110 2
b1011110 :
b11000011 B
b1011110 J
b11000011 R
b10111111 Z
b1011100 b
b11000011 j
b11000101 r
b1011010 z
b1100000 0"
b10111110 8"
b11000000 @"
b11000101 H"
b100101 _"
b100101 k"
#550
b11000011 "
b1011110 *
b10111110 2
b11000011 :
b1011000 B
b11000011 J
b1011110 R
b1011100 Z
b1011101 b
b1011000 j
b1011010 r
b1011110 z
b1011110 0"
b1011101 8"
b1100000 @"
b1011010 H"
b100110 _"
b100110 k"
#551
b1011110 "
b11000011 *
b1011101 2
b1011000 :
b1011001 B
b1011000 J
b1010110 R
b1011101 Z
b11000011 b
b1011001 j
b1011110 r
b11000011 z
b10111110 0"
b1010010 8"
b1011110 @"
b1011110 H"
b100111 _"
b100111 k"
#552
b1010110 "
b1011000 *
b1010010 2
b1011001 :
b10111111 B
b1011001 J
b11000001 R
b11000011 Z
b1011110 b
b10111111 j
b11000011 r
b1011000 z
b1011101 0"
b10111001 8"
b10111110 @"
b11000011 H"
b101000 _"
b101000 k"
#553
b11000001 "
b1011001 *
b10111001 2
b10111111 :
b1011110 B
b10111111 J
b1011001 R
b1011110 Z
b1010110 b
b1011110 j
b1011000 r
b1011001 z
b1010010 0"
b1011011 8"
b1011101 @"
b1011000 H"
b101001 _"
b101001 k"
#554
b1011001 "
b10111111 *
b1011011 2
b1011110 :
b1011010 B
b1011110 J
b1010010 R
b1010110 Z
b11000001 b
b1011010 j
b1011001 r
b10111111 z
b10111001 0"
b1010010 @"
b1011001 H"
b101010 _"
b101010 k"
#555
b1010010 "
b1011110 *
b1011010 :
b10111110 B
b1011010 J
b10111110 R
b11000001 Z
b1011001 b
b10111110 j
b10111111 r
b1011110 z
b1011011 0"
b10111111 8"
b10111001 @"
b10111111 H"
b101011 _"
b101011 k"
#556
b10111110 "
b1011010 *
b10111111 2
b10111110 :
b1011001 B
b10111110 J
b1010011 R
b1011001 Z
b1010010 b
b1011001 j
b1011110 r
b1011010 z
b1011000 8"
b1011011 @"
b1011110 H"
b101100 _"
b101100 k"
#557
b1010011 "
b10111110 *
b1011000 2
b1011001 :
b1010101 B
b1011001 J
b1010001 R
b1010010 Z
b10111110 b
b1010101 j
b1011010 r
b10111110 z
b10111111 0"
b1010100 8"
b1011010 H"
b101101 _"
b101101 k"
#558
b1010001 "
b1011001 *
b1010100 2
b1010101 :
b11000001 B
b1010101 J
b10111110 R
b10111110 Z
b1010011 b
b11000001 j
b10111110 r
b1011001 z
b1011000 0"
b10111100 8"
b10111111 @"
b10111110 H"
b101110 _"
b101110 k"
#559
b10111110 "
b1010101 *
b10111100 2
b11000001 :
b1100000 B
b11000001 J
b1100101 R
b1010011 Z
b1010001 b
b1100000 j
b1011001 r
b1010101 z
b1010100 0"
b1100000 8"
b1011000 @"
b1011001 H"
b101111 _"
b101111 k"
#560
b1100101 "
b11000001 *
b1100000 2
b1100000 :
b1100000 J
b1011011 R
b1010001 Z
b10111110 b
b1010101 r
b11000001 z
b10111100 0"
b1011000 8"
b1010100 @"
b1010101 H"
b110000 _"
b110000 k"
#561
b1011011 "
b1100000 *
b1011000 2
b11000111 B
b11000001 R
b10111110 Z
b1100101 b
b11000111 j
b11000001 r
b1100000 z
b1100000 0"
b10111101 8"
b10111100 @"
b11000001 H"
b110001 _"
b110001 k"
#562
b11000001 "
b10111101 2
b11000111 :
b1100101 B
b11000111 J
b1011110 R
b1100101 Z
b1011011 b
b1100101 j
b1100000 r
b1011000 0"
b1011001 8"
b1100000 @"
b1100000 H"
b110010 _"
b110010 k"
#563
b1011110 "
b11000111 *
b1011001 2
b1100101 :
b1100000 B
b1100101 J
b1011101 R
b1011011 Z
b11000001 b
b1100000 j
b11000111 z
b10111101 0"
b1011000 @"
b110011 _"
b110011 k"
#564
b1011101 "
b1100101 *
b1100000 :
b11000001 B
b1100000 J
b10111101 R
b11000001 Z
b1011110 b
b11000001 j
b11000111 r
b1100101 z
b1011001 0"
b10111011 8"
b10111101 @"
b11000111 H"
b110100 _"
b110100 k"
#565
b10111101 "
b1100000 *
b10111011 2
b11000001 :
b1100011 B
b11000001 J
b1011110 R
b1011110 Z
b1011101 b
b1100011 j
b1100101 r
b1100000 z
b1011010 8"
b1011001 @"
b1100101 H"
b110101 _"
b110101 k"
#566
b1011110 "
b11000001 *
b1011010 2
b1100011 :
b1011111 B
b1100011 J
b1011100 R
b1011101 Z
b10111101 b
b1011111 j
b1100000 r
b11000001 z
b10111011 0"
b1010100 8"
b1100000 H"
b110110 _"
b110110 k"
#567
b1011100 "
b1100011 *
b1010100 2
b1011111 :
b11000101 B
b1011111 J
b11000000 R
b10111101 Z
b1011110 b
b11000101 j
b11000001 r
b1100011 z
b1011010 0"
b10111010 8"
b10111011 @"
b11000001 H"
b110111 _"
b110111 k"
#568
b11000000 "
b1011111 *
b10111010 2
b11000101 :
b1100010 B
b11000101 J
b1100100 R
b1011110 Z
b1011100 b
b1100010 j
b1100011 r
b1011111 z
b1010100 0"
b1100110 8"
b1011010 @"
b1100011 H"
b111000 _"
b111000 k"
#569
b1100100 "
b11000101 *
b1100110 2
b1100010 :
b1100101 B
b1100010 J
b1100010 R
b1011100 Z
b11000000 b
b1100101 j
b1011111 r
b11000101 z
b10111010 0"
b1011011 8"
b1010100 @"
b1011111 H"
b111001 _"
b111001 k"
#570
b1100010 "
b1100010 *
b1011011 2
b1100101 :
b11000110 B
b1100101 J
b10111110 R
b11000000 Z
b1100100 b
b11000110 j
b11000101 r
b1100010 z
b1100110 0"
b10111001 8"
b10111010 @"
b11000101 H"
b111010 _"
b111010 k"
#571
b10111110 "
b1100101 *
b10111001 2
b11000110 :
b1100000 B
b11000110 J
b1100010 R
b1100100 Z
b1100010 b
b1100000 j
b1100010 r
b1100101 z
b1011011 0"
b1011110 8"
b1100110 @"
b1100010 H"
b111011 _"
b111011 k"
#572
b1100010 "
b11000110 *
b1011110 2
b1100000 :
b1100101 B
b1100000 J
b1100001 R
b1100010 Z
b10111110 b
b1100101 j
b1100101 r
b11000110 z
b10111001 0"
b1011101 8"
b1011011 @"
b1100101 H"
b111100 _"
b111100 k"
