bmp_hdmi_test3/.Xil/Vivado-18244-DESKTOP-3OAFHV8/hw_ila_data_1/zip_work/waveform.vcd
$date
        2025-Jan-18 16:12:26
$end
$version
        Vivado v2020.2 (64-bit)
$end
$timescale
        1ps
$end
$scope module dut $end
$var reg 9 " system_i/Bic_top_0/inst/coeff01 [8:0] $end
$var reg 9 + system_i/Bic_top_0/inst/coeff10 [8:0] $end
$var reg 12 4 system_i/Bic_top_0/inst/outputColumn [11:0] $end
$var reg 3 @ system_i/Bic_top_0/inst/fillCount [2:0] $end
$var reg 8 C system_i/Bic_top_0/inst/o_vout_data [7:0] $end
$var reg 9 K system_i/Bic_top_0/inst/coeff00 [8:0] $end
$var reg 8 T system_i/Bic_top_0/inst/readData00 [7:0] $end
$var reg 9 \ system_i/Bic_top_0/inst/coeff11 [8:0] $end
$var reg 8 e system_i/Bic_top_0/inst/m_axis_tdata [7:0] $end
$var reg 8 m system_i/Bic_top_0/inst/readData10 [7:0] $end
$var reg 8 u system_i/Bic_top_0/inst/s_axis_tdata [7:0] $end
$var reg 12 } system_i/Bic_top_0/inst/yPixLowNext [11:0] $end
$var reg 12 +" system_i/Bic_top_0/inst/yPixLow [11:0] $end
$var reg 8 7" system_i/Bic_top_0/inst/readData11 [7:0] $end
$var reg 8 ?" system_i/Bic_top_0/inst/readData01 [7:0] $end
$var reg 12 G" system_i/Bic_top_0/inst/writeNextValidLine [11:0] $end
$var reg 12 S" system_i/Bic_top_0/inst/xPixLow [11:0] $end
$var reg 12 _" system_i/Bic_top_0/inst/writeRowCount [11:0] $end
$var reg 1 k" system_i/Bic_top_0/inst/advanceRead1 $end
$var reg 1 l" system_i/Bic_top_0/inst/advanceWrite $end
$var reg 1 m" system_i/Bic_top_0/inst/allDataWritten $end
$var reg 1 n" system_i/Bic_top_0/inst/dOutValidInt $end
$var reg 1 o" system_i/Bic_top_0/inst/enableNextDin $end
$var reg 1 p" system_i/Bic_top_0/inst/forceRead $end
$var reg 1 q" system_i/Bic_top_0/inst/i_vid_de $end
$var reg 1 r" system_i/Bic_top_0/inst/i_vout_read $end
$var reg 1 s" system_i/Bic_top_0/inst/m_axis_tready $end
$var reg 1 t" system_i/Bic_top_0/inst/m_axis_tvalid $end
$var reg 1 u" system_i/Bic_top_0/inst/readState $end
$var reg 1 v" system_i/Bic_top_0/inst/s_axis_tlast $end
$var reg 1 w" system_i/Bic_top_0/inst/s_axis_tready $end
$var reg 1 x" system_i/Bic_top_0/inst/s_axis_tvalid $end
$var reg 1 y" _TRIGGER $end
$var reg 1 z" _WINDOW $end
$var reg 1 {" _GAP $end
$upscope $end
$enddefinitions $end
#0
$dumpvars
b0 "
b0 +
b1000000000 4
b10 @
b1100100 C
b100000000 K
b1100100 T
b0 \
b1100100 e
b1100010 m
b0 u
b11 }
b10 +"
b11001001 7"
b11001100 ?"
b101 G"
b1000000000 S"
b100 _"
0k"
0l"
0m"
1n"
0o"
0p"
0q"
1r"
0s"
1t"
1u"
0v"
1w"
0x"
0y"
1z"
0{"
$end
#1
b1000000001 4
b11001110 C
b11001100 T
b11001110 e
b11001001 m
b1010101 7"
b1011110 ?"
b1000000001 S"
#2
b1000000010 4
b1100010 C
b1011110 T
b1100010 e
b1010101 m
b1011000 7"
b1100110 ?"
b1000000010 S"
#3
b1000000011 4
b1100100 C
b1100110 T
b1100100 e
b1011000 m
b11001110 7"
b11001111 ?"
b1000000011 S"
#4
b1000000100 4
b11001100 C
b11001111 T
b11001100 e
b11001110 m
b1011111 7"
b1101000 ?"
b1000000100 S"
#5
b1000000101 4
b1011110 C
b1101000 T
b1011110 e
b1011111 m
b1100100 7"
b1100101 ?"
b1000000101 S"
#6
b1000000110 4
b1100110 C
b1100101 T
b1100110 e
b1100100 m
b11010000 7"
b11001011 ?"
b1000000110 S"
#7
b1000000111 4
b11001111 C
b11001011 T
b11001111 e
b11010000 m
b1100010 7"
b1011001 ?"
b1000000111 S"
#8
b1000001000 4
b1101000 C
b1011001 T
b1101000 e
b1100010 m
b1011010 7"
b1011100 ?"
b1000001000 S"
#9
b1000001001 4
b1100101 C
b1011100 T
b1100101 e
b1011010 m
b11001110 7"
b11001101 ?"
b1000001001 S"
#10
b1000001010 4
b11001011 C
b11001101 T
b11001011 e
b11001110 m
b1100000 7"
b1100000 ?"
b1000001010 S"
#11
b1000001011 4
b1011001 C
b1100000 T
b1011001 e
b1100000 m
b1100110 7"
b1011111 ?"
b1000001011 S"
#12
b1000001100 4
b1011100 C
b1011111 T
b1011100 e
b1100110 m
b11010000 7"
b11001110 ?"
b1000001100 S"
#13
b1000001101 4
b11001101 C
b11001110 T
b11001101 e
b11010000 m
b1011110 7"
b1100010 ?"
b1000001101 S"
#14
b1000001110 4
b1100000 C
b1100010 T
b1100000 e
b1011110 m
b1100110 7"
b1100100 ?"
b1000001110 S"
#15
b1000001111 4
b1011111 C
b1100100 T
b1011111 e
b1100110 m
b11010010 7"
b11001001 ?"
b1000001111 S"
#16
b1000010000 4
b11001110 C
b11001001 T
b11001110 e
b11010010 m
b1011101 7"
b1101000 ?"
b1000010000 S"
#17
b1000010001 4
b1100010 C
b1101000 T
b1100010 e
b1011101 m
b1100010 7"
b1100100 ?"
b1000010001 S"
#18
b1000010010 4
b1100100 C
b1100100 T
b1100100 e
b1100010 m
b11010000 7"
b11000110 ?"
b1000010010 S"
#19
b1000010011 4
b11001001 C
b11000110 T
b11001001 e
b11010000 m
b1011101 7"
b1100101 ?"
b1000010011 S"
#20
b1000010100 4
b1101000 C
b1100101 T
b1101000 e
b1011101 m
b1100010 7"
b1101000 ?"
b1000010100 S"
#21
b1000010101 4
b1100100 C
b1101000 T
b1100100 e
b1100010 m
b11001111 7"
b11001011 ?"
b1000010101 S"
#22
b1000010110 4
b11000110 C
b11001011 T
b11000110 e
b11001111 m
b1011101 7"
b1100001 ?"
b1000010110 S"
#23
b1000010111 4
b1100101 C
b1100001 T
b1100101 e
b1011101 m
b1100100 7"
b1100100 ?"
b1000010111 S"
#24
b1000011000 4
b1101000 C
b1100100 T
b1101000 e
b1100100 m
b11001111 7"
b11001100 ?"
b1000011000 S"
#25
b1000011001 4
b11001011 C
b11001100 T
b11001011 e
b11001111 m
b1011111 7"
b1100011 ?"
b1000011001 S"
#26
b1000011010 4
b1100001 C
b1100011 T
b1100001 e
b1011111 m
b1100000 7"
b1000011010 S"
#27
b1000011011 4
b1100100 C
b1100100 e
b1100000 m
b11000111 7"
b11001100 ?"
b1000011011 S"
#28
b1000011100 4
b11001100 C
b11001100 T
b11001100 e
b11000111 m
b1010110 7"
b1011000 ?"
b1000011100 S"
#29
b1000011101 4
b1100011 C
b1011000 T
b1100011 e
b1010110 m
b1011101 7"
b1011111 ?"
b1000011101 S"
#30
b1000011110 4
b1011111 T
b1011101 m
b11001100 7"
b11010001 ?"
b1000011110 S"
#31
b1000011111 4
b11001100 C
b11010001 T
b11001100 e
b11001100 m
b1101000 7"
b1100110 ?"
b1000011111 S"
#32
b1000100000 4
b1011000 C
b1100110 T
b1011000 e
b1101000 m
b1100010 ?"
b1000100000 S"
#33
b1000100001 4
b1011111 C
b1100010 T
b1011111 e
b11001101 7"
b11001100 ?"
b1000100001 S"
#34
b1000100010 4
b11010001 C
b11001100 T
b11010001 e
b11001101 m
b1011100 7"
b1100000 ?"
b1000100010 S"
#35
b1000100011 4
b1100110 C
b1100000 T
b1100110 e
b1011100 m
b1100011 7"
b1100011 ?"
b1000100011 S"
#36
b1000100100 4
b1100010 C
b1100011 T
b1100010 e
b1100011 m
b11010010 7"
b11001110 ?"
b1000100100 S"
#37
b1000100101 4
b11001100 C
b11001110 T
b11001100 e
b11010010 m
b1011001 7"
b1100001 ?"
b1000100101 S"
#38
b1000100110 4
b1100000 C
b1100001 T
b1100000 e
b1011001 m
b1011110 7"
b1100011 ?"
b1000100110 S"
#39
b1000100111 4
b1100011 C
b1100011 T
b1100011 e
b1011110 m
b11010000 7"
b11001100 ?"
b1000100111 S"
#40
b1000101000 4
b11001110 C
b11001100 T
b11001110 e
b11010000 m
b1100000 7"
b1101100 ?"
b1000101000 S"
#41
b1000101001 4
b1100001 C
b1101100 T
b1100001 e
b1100000 m
b1100001 7"
b1101011 ?"
b1000101001 S"
#42
b1000101010 4
b1100011 C
b1101011 T
b1100011 e
b1100001 m
b11010000 7"
b11001110 ?"
b1000101010 S"
#43
b1000101011 4
b11001100 C
b11001110 T
b11001100 e
b11010000 m
b1011110 7"
b1100110 ?"
b1000101011 S"
#44
b1000101100 4
b1101100 C
b1100110 T
b1101100 e
b1011110 m
b1100000 7"
b1100111 ?"
b1000101100 S"
#45
b1000101101 4
b1101011 C
b1100111 T
b1101011 e
b1100000 m
b11010010 7"
b11010001 ?"
b1000101101 S"
#46
b1000101110 4
b11001110 C
b11010001 T
b11001110 e
b11010010 m
b1011011 7"
b1101011 ?"
b1000101110 S"
#47
b1000101111 4
b1100110 C
b1101011 T
b1100110 e
b1011011 m
b1100001 7"
b1101000 ?"
b1000101111 S"
#48
b1000110000 4
b1100111 C
b1101000 T
b1100111 e
b1100001 m
b11010010 7"
b11001111 ?"
b1000110000 S"
#49
b1000110001 4
b11010001 C
b11001111 T
b11010001 e
b11010010 m
b1011111 7"
b1101000 ?"
b1000110001 S"
#50
b1000110010 4
b1101011 C
b1101000 T
b1101011 e
b1011111 m
b1100011 7"
b1100101 ?"
b1000110010 S"
#51
b1000110011 4
b1101000 C
b1100101 T
b1101000 e
b1100011 m
b11001100 7"
b11001110 ?"
b1000110011 S"
#52
b1000110100 4
b11001111 C
b11001110 T
b11001111 e
b11001100 m
b1011111 7"
b1011110 ?"
b1000110100 S"
#53
b1000110101 4
b1101000 C
b1011110 T
b1101000 e
b1011111 m
b1100111 7"
b1100011 ?"
b1000110101 S"
#54
b1000110110 4
b1100101 C
b1100011 T
b1100101 e
b1100111 m
b11010011 7"
b11001100 ?"
b1000110110 S"
#55
b1000110111 4
b11001110 C
b11001100 T
b11001110 e
b11010011 m
b1011000 7"
b1100010 ?"
b1000110111 S"
#56
b1000111000 4
b1011110 C
b1100010 T
b1011110 e
b1011000 m
b1100011 7"
b1101000 ?"
b1000111000 S"
#57
b1000111001 4
b1100011 C
b1101000 T
b1100011 e
b1100011 m
b11010001 7"
b11010001 ?"
b1000111001 S"
#58
b1000111010 4
b11001100 C
b11010001 T
b11001100 e
b11010001 m
b1101100 7"
b1101000 ?"
b1000111010 S"
#59
b1000111011 4
b1100010 C
b1101000 T
b1100010 e
b1101100 m
b1101010 7"
b1100110 ?"
b1000111011 S"
#60
b1000111100 4
b1101000 C
b1100110 T
b1101000 e
b1101010 m
b11001111 7"
b11010001 ?"
b1000111100 S"
#61
b1000111101 4
b11010001 C
b11010001 T
b11010001 e
b11001111 m
b1100111 7"
b1100101 ?"
b1000111101 S"
#62
b1000111110 4
b1101000 C
b1100101 T
b1101000 e
b1100111 m
b1101001 7"
b1101100 ?"
b1000111110 S"
#63
b1000111111 4
b1100110 C
b1101100 T
b1100110 e
b1101001 m
b11001100 7"
b11001111 ?"
b1000111111 S"
#64
b1001000000 4
b11010001 C
b11001111 T
b11010001 e
b11001100 m
b1101001 7"
b1100111 ?"
b1001000000 S"
#65
b1001000001 4
b1100101 C
b1100111 T
b1100101 e
b1101001 m
b1101000 ?"
b1001000001 S"
#66
b1001000010 4
b1101100 C
b1101000 T
b1101100 e
b11001111 7"
b11010001 ?"
b1001000010 S"
#67
b1001000011 4
b11001111 C
b11010001 T
b11001111 e
b11001111 m
b1011110 7"
b1100110 ?"
b1001000011 S"
#68
b1001000100 4
b1100111 C
b1100110 T
b1100111 e
b1011110 m
b1100101 7"
b1101100 ?"
b1001000100 S"
#69
b1001000101 4
b1101000 C
b1101100 T
b1101000 e
b1100101 m
b11010010 7"
b11010010 ?"
b1001000101 S"
#70
b1001000110 4
b11010001 C
b11010010 T
b11010001 e
b11010010 m
b1100001 7"
b1100111 ?"
b1001000110 S"
#71
b1001000111 4
b1100110 C
b1100111 T
b1100110 e
b1100001 m
b1101000 7"
b1101011 ?"
b1001000111 S"
#72
b1001001000 4
b1101100 C
b1101011 T
b1101100 e
b1101000 m
b11010101 7"
b11010011 ?"
b1001001000 S"
#73
b1001001001 4
b11010010 C
b11010011 T
b11010010 e
b11010101 m
b1011111 7"
b1011011 ?"
b1001001001 S"
#74
b1001001010 4
b1100111 C
b1011011 T
b1100111 e
b1011111 m
b1100101 7"
b1101010 ?"
b1001001010 S"
#75
b1001001011 4
b1101011 C
b1101010 T
b1101011 e
b1100101 m
b11010001 7"
b11010101 ?"
b1001001011 S"
#76
b1001001100 4
b11010011 C
b11010101 T
b11010011 e
b11010001 m
b1011110 7"
b1100101 ?"
b1001001100 S"
#77
b1001001101 4
b1011011 C
b1100101 T
b1011011 e
b1011110 m
b1100011 7"
b1100110 ?"
b1001001101 S"
#78
b1001001110 4
b1101010 C
b1100110 T
b1101010 e
b1100011 m
b11010100 7"
b11010010 ?"
b1001001110 S"
#79
b1001001111 4
b11010101 C
b11010010 T
b11010101 e
b11010100 m
b1011101 7"
b1011100 ?"
b1001001111 S"
#80
b1001010000 4
b1100101 C
b1011100 T
b1100101 e
b1011101 m
b1100110 7"
b1100110 ?"
b1001010000 S"
#81
b1001010001 4
b1100110 C
b1100110 T
b1100110 e
b1100110 m
b11010100 7"
b11010101 ?"
b1001010001 S"
#82
b1001010010 4
b11010010 C
b11010101 T
b11010010 e
b11010100 m
b1011100 7"
b1100000 ?"
b1001010010 S"
#83
b1001010011 4
b1011100 C
b1100000 T
b1011100 e
b1011100 m
b1100110 7"
b1100011 ?"
b1001010011 S"
#84
b1001010100 4
b1100110 C
b1100011 T
b1100110 e
b1100110 m
b11010101 7"
b11010101 ?"
b1001010100 S"
#85
b1001010101 4
b11010101 C
b11010101 T
b11010101 e
b11010101 m
b1100000 7"
b1100100 ?"
b1001010101 S"
#86
b1001010110 4
b1100000 C
b1100100 T
b1100000 e
b1100000 m
b1100010 7"
b1101000 ?"
b1001010110 S"
#87
b1001010111 4
b1100011 C
b1101000 T
b1100011 e
b1100010 m
b11010011 7"
b11010011 ?"
b1001010111 S"
#88
b1001011000 4
b11010101 C
b11010011 T
b11010101 e
b11010011 m
b1100000 7"
b1011101 ?"
b1001011000 S"
#89
b1001011001 4
b1100100 C
b1011101 T
b1100100 e
b1100000 m
b1100100 7"
b1100101 ?"
b1001011001 S"
#90
b1001011010 4
b1101000 C
b1100101 T
b1101000 e
b1100100 m
b11010110 7"
b11010101 ?"
b1001011010 S"
#91
b1001011011 4
b11010011 C
b11010101 T
b11010011 e
b11010110 m
b1011101 7"
b1100010 ?"
b1001011011 S"
#92
b1001011100 4
b1011101 C
b1100010 T
b1011101 e
b1011101 m
b1100111 7"
b1101010 ?"
b1001011100 S"
#93
b1001011101 4
b1100101 C
b1101010 T
b1100101 e
b1100111 m
b11010100 7"
b11010011 ?"
b1001011101 S"
#94
b1001011110 4
b11010101 C
b11010011 T
b11010101 e
b11010100 m
b1100111 7"
b1101100 ?"
b1001011110 S"
#95
b1001011111 4
b1100010 C
b1101100 T
b1100010 e
b1100111 m
b1101100 7"
b1101010 ?"
b1001011111 S"
#96
b1001100000 4
b1101010 C
b1101010 T
b1101010 e
b1101100 m
b11010011 7"
b11001110 ?"
b1001100000 S"
#97
b1001100001 4
b11010011 C
b11001110 T
b11010011 e
b11010011 m
b1011000 7"
b1010110 ?"
b1001100001 S"
#98
b1001100010 4
b1101100 C
b1010110 T
b1101100 e
b1011000 m
b1100010 7"
b1100100 ?"
b1001100010 S"
#99
b1001100011 4
b1101010 C
b1100100 T
b1101010 e
b1100010 m
b11010101 7"
b11010101 ?"
b1001100011 S"
#100
b1001100100 4
b11001110 C
b11010101 T
b11001110 e
b11010101 m
b1011101 7"
b1100101 ?"
b1001100100 S"
#101
b1001100101 4
b1010110 C
b1100101 T
b1010110 e
b1011101 m
b1100100 7"
b1100110 ?"
b1001100101 S"
#102
b1001100110 4
b1100100 C
b1100110 T
b1100100 e
b1100100 m
b11010100 7"
b11010010 ?"
b1001100110 S"
#103
b1001100111 4
b11010101 C
b11010010 T
b11010101 e
b11010100 m
b1100011 7"
b1011110 ?"
b1001100111 S"
#104
b1001101000 4
b1100101 C
b1011110 T
b1100101 e
b1100011 m
b1100111 7"
b1100110 ?"
b1001101000 S"
#105
b1001101001 4
b1100110 C
b1100110 T
b1100110 e
b1100111 m
b11010010 7"
b11010101 ?"
b1001101001 S"
#106
b1001101010 4
b11010010 C
b11010101 T
b11010010 e
b11010010 m
b1011011 7"
b1100000 ?"
b1001101010 S"
#107
b1001101011 4
b1011110 C
b1100000 T
b1011110 e
b1011011 m
b1100001 7"
b1101101 ?"
b1001101011 S"
#108
b1001101100 4
b1100110 C
b1101101 T
b1100110 e
b1100001 m
b11010100 7"
b11010010 ?"
b1001101100 S"
#109
b1001101101 4
b11010101 C
b11010010 T
b11010101 e
b11010100 m
b1011100 7"
b1100101 ?"
b1001101101 S"
#110
b1001101110 4
b1100000 C
b1100101 T
b1100000 e
b1011100 m
b1100011 7"
b1101000 ?"
b1001101110 S"
#111
b1001101111 4
b1101101 C
b1101000 T
b1101101 e
b1100011 m
b11010010 7"
b11001110 ?"
b1001101111 S"
#112
b1001110000 4
b11010010 C
b11001110 T
b11010010 e
b11010010 m
b1100101 7"
b1011110 ?"
b1001110000 S"
#113
b1001110001 4
b1100101 C
b1011110 T
b1100101 e
b1100101 m
b1100111 7"
b1100010 ?"
b1001110001 S"
#114
b1001110010 4
b1101000 C
b1100010 T
b1101000 e
b1100111 m
b11001111 7"
b11010011 ?"
b1001110010 S"
#115
b1001110011 4
b11001110 C
b11010011 T
b11001110 e
b11001111 m
b1011000 7"
b1100001 ?"
b1001110011 S"
#116
b1001110100 4
b1011110 C
b1100001 T
b1011110 e
b1011000 m
b1100100 7"
b1100101 ?"
b1001110100 S"
#117
b1001110101 4
b1100010 C
b1100101 T
b1100010 e
b1100100 m
b11010000 7"
b11001111 ?"
b1001110101 S"
#118
b1001110110 4
b11010011 C
b11001111 T
b11010011 e
b11010000 m
b1100111 7"
b1100010 ?"
b1001110110 S"
#119
b1001110111 4
b1100001 C
b1100010 T
b1100001 e
b1100111 m
b1100100 7"
b1011101 ?"
b1001110111 S"
#120
b1001111000 4
b1100101 C
b1011101 T
b1100101 e
b1100100 m
b11010011 7"
b11001110 ?"
b1001111000 S"
#121
b1001111001 4
b11001111 C
b11001110 T
b11001111 e
b11010011 m
b1011000 7"
b1011100 ?"
b1001111001 S"
#122
b1001111010 4
b1100010 C
b1011100 T
b1100010 e
b1011000 m
b1011101 7"
b1100110 ?"
b1001111010 S"
#123
b1001111011 4
b1011101 C
b1100110 T
b1011101 e
b1011101 m
b11010001 7"
b11010001 ?"
b1001111011 S"
#124
b1001111100 4
b11001110 C
b11010001 T
b11001110 e
b11010001 m
b1100111 7"
b1100101 ?"
b1001111100 S"
#125
b1001111101 4
b1011100 C
b1100101 T
b1011100 e
b1100111 m
b1100100 7"
b1101011 ?"
b1001111101 S"
#126
b1001111110 4
b1100110 C
b1101011 T
b1100110 e
b1100100 m
b11010000 7"
b11001111 ?"
b1001111110 S"
#127
b1001111111 4
b11010001 C
b11001111 T
b11010001 e
b11010000 m
b1100001 7"
b1011010 ?"
b1001111111 S"
#128
b1010000000 4
b1100101 C
b1011010 T
b1100101 e
b1100001 m
b1100000 7"
b1011110 ?"
b1010000000 S"
#129
b1010000001 4
b1101011 C
b1011110 T
b1101011 e
b1100000 m
b11001111 7"
b11001111 ?"
b1010000001 S"
#130
b1010000010 4
b11001111 C
b11001111 T
b11001111 e
b11001111 m
b1100011 7"
b1011101 ?"
b1010000010 S"
#131
b1010000011 4
b1011010 C
b1011101 T
b1011010 e
b1100011 m
b1100001 7"
b1100011 ?"
b1010000011 S"
#132
b1010000100 4
b1011110 C
b1100011 T
b1011110 e
b1100001 m
b11001011 7"
b11010010 ?"
b1010000100 S"
#133
b1010000101 4
b11001111 C
b11010010 T
b11001111 e
b11001011 m
b1011111 7"
b1011111 ?"
b1010000101 S"
#134
b1010000110 4
b1011101 C
b1011111 T
b1011101 e
b1011111 m
b1100000 7"
b1100101 ?"
b1010000110 S"
#135
b1010000111 4
b1100011 C
b1100101 T
b1100011 e
b1100000 m
b11010010 7"
b11010000 ?"
b1010000111 S"
#136
b1010001000 4
b11010010 C
b11010000 T
b11010010 e
b11010010 m
b1100001 7"
b1100001 ?"
b1010001000 S"
#137
b1010001001 4
b1011111 C
b1100001 T
b1011111 e
b1100001 m
b1100011 7"
b1100011 ?"
b1010001001 S"
#138
b1010001010 4
b1100101 C
b1100011 T
b1100101 e
b1100011 m
b11001110 7"
b11001110 ?"
b1010001010 S"
#139
b1010001011 4
b11010000 C
b11001110 T
b11010000 e
b11001110 m
b1100001 7"
b1011101 ?"
b1010001011 S"
#140
b1010001100 4
b1100001 C
b1011101 T
b1100001 e
b1100001 m
b1100010 7"
b1100010 ?"
b1010001100 S"
#141
b1010001101 4
b1100011 C
b1100010 T
b1100011 e
b1100010 m
b11010000 7"
b11010001 ?"
b1010001101 S"
#142
b1010001110 4
b11001110 C
b11010001 T
b11001110 e
b11010000 m
b1100000 7"
b1011110 ?"
b1010001110 S"
#143
b1010001111 4
b1011101 C
b1011110 T
b1011101 e
b1100000 m
b1100101 7"
b1100101 ?"
b1010001111 S"
#144
b1010010000 4
b1100010 C
b1100101 T
b1100010 e
b1100101 m
b11010010 7"
b11010011 ?"
b1010010000 S"
#145
b1010010001 4
b11010001 C
b11010011 T
b11010001 e
b11010010 m
b1011000 7"
b1101001 ?"
b1010010001 S"
#146
b1010010010 4
b1011110 C
b1101001 T
b1011110 e
b1011000 m
b1011100 7"
b1100110 ?"
b1010010010 S"
#147
b1010010011 4
b1100101 C
b1100110 T
b1100101 e
b1011100 m
b11010011 7"
b11001111 ?"
b1010010011 S"
#148
b1010010100 4
b11010011 C
b11001111 T
b11010011 e
b11010011 m
b1100010 7"
b1011111 ?"
b1010010100 S"
#149
b1010010101 4
b1101001 C
b1011111 T
b1101001 e
b1100010 m
b1101000 7"
b1100111 ?"
b1010010101 S"
#150
b1010010110 4
b1100110 C
b1100111 T
b1100110 e
b1101000 m
b11010001 7"
b11010001 ?"
b1010010110 S"
#151
b1010010111 4
b11001111 C
b11010001 T
b11001111 e
b11010001 m
b1100100 7"
b1011110 ?"
b1010010111 S"
#152
b1010011000 4
b1011111 C
b1011110 T
b1011111 e
b1100100 m
b1100101 7"
b1100110 ?"
b1010011000 S"
#153
b1010011001 4
b1100111 C
b1100110 T
b1100111 e
b1100101 m
b11010011 7"
b11010001 ?"
b1010011001 S"
#154
b1010011010 4
b11010001 C
b11010001 T
b11010001 e
b11010011 m
b1100010 7"
b1100001 ?"
b1010011010 S"
#155
b1010011011 4
b1011110 C
b1100001 T
b1011110 e
b1100010 m
b1101001 7"
b1100111 ?"
b1010011011 S"
#156
b1010011100 4
b1100110 C
b1100111 T
b1100110 e
b1101001 m
b11001111 7"
b11001101 ?"
b1010011100 S"
#157
b1010011101 4
b11010001 C
b11001101 T
b11010001 e
b11001111 m
b1101000 7"
b1011111 ?"
b1010011101 S"
#158
b1010011110 4
b1100001 C
b1011111 T
b1100001 e
b1101000 m
b1100111 7"
b1100110 ?"
b1010011110 S"
#159
b1010011111 4
b1100111 C
b1100110 T
b1100111 e
b1100111 m
b11001111 7"
b11010010 ?"
b1010011111 S"
#160
b1010100000 4
b11001101 C
b11010010 T
b11001101 e
b11001111 m
b1100001 7"
b1011111 ?"
b1010100000 S"
#161
b1010100001 4
b1011111 C
b1011111 T
b1011111 e
b1100001 m
b1100101 7"
b1100101 ?"
b1010100001 S"
#162
b1010100010 4
b1100110 C
b1100101 T
b1100110 e
b1100101 m
b11010000 7"
b11010001 ?"
b1010100010 S"
#163
b1010100011 4
b11010010 C
b11010001 T
b11010010 e
b11010000 m
b1011110 7"
b1011110 ?"
b1010100011 S"
#164
b1010100100 4
b1011111 C
b1011110 T
b1011111 e
b1011110 m
b1100100 7"
b1101000 ?"
b1010100100 S"
#165
b1010100101 4
b1100101 C
b1101000 T
b1100101 e
b1100100 m
b11001111 7"
b11010000 ?"
b1010100101 S"
#166
b1010100110 4
b11010001 C
b11010000 T
b11010001 e
b11001111 m
b1101011 7"
b1101010 ?"
b1010100110 S"
#167
b1010100111 4
b1011110 C
b1101010 T
b1011110 e
b1101011 m
b1100110 7"
b1100011 ?"
b1010100111 S"
#168
b1010101000 4
b1101000 C
b1100011 T
b1101000 e
b1100110 m
b11001101 7"
b11001110 ?"
b1010101000 S"
#169
b1010101001 4
b11010000 C
b11001110 T
b11010000 e
b11001101 m
b1011000 7"
b1011000 ?"
b1010101001 S"
#170
b1010101010 4
b1101010 C
b1011000 T
b1101010 e
b1011000 m
b1100011 7"
b1100001 ?"
b1010101010 S"
#171
b1010101011 4
b1100011 C
b1100001 T
b1100011 e
b1100011 m
b11010001 7"
b11010011 ?"
b1010101011 S"
#172
b1010101100 4
b11001110 C
b11010011 T
b11001110 e
b11010001 m
b1101101 7"
b1011101 ?"
b1010101100 S"
#173
b1010101101 4
b1011000 C
b1011101 T
b1011000 e
b1101101 m
b1101011 7"
b1101000 ?"
b1010101101 S"
#174
b1010101110 4
b1100001 C
b1101000 T
b1100001 e
b1101011 m
b11001100 7"
b11001111 ?"
b1010101110 S"
#175
b1010101111 4
b11010011 C
b11001111 T
b11010011 e
b11001100 m
b1100111 7"
b1101110 ?"
b1010101111 S"
#176
b1010110000 4
b1011101 C
b1101110 T
b1011101 e
b1100111 m
b1100110 ?"
b1010110000 S"
#177
b1010110001 4
b1101000 C
b1100110 T
b1101000 e
b11001111 7"
b11001110 ?"
b1010110001 S"
#178
b1010110010 4
b11001111 C
b11001110 T
b11001111 e
b11001111 m
b1011111 7"
b1100110 ?"
b1010110010 S"
#179
b1010110011 4
b1101110 C
b1100110 T
b1101110 e
b1011111 m
b1100110 7"
b1101011 ?"
b1010110011 S"
#180
b1010110100 4
b1100110 C
b1101011 T
b1100110 e
b1100110 m
b11001101 7"
b11001101 ?"
b1010110100 S"
#181
b1010110101 4
b11001110 C
b11001101 T
b11001110 e
b11001101 m
b1011101 7"
b1011111 ?"
b1010110101 S"
#182
b1010110110 4
b1100110 C
b1011111 T
b1100110 e
b1011101 m
b1100100 7"
b1100101 ?"
b1010110110 S"
#183
b1010110111 4
b1101011 C
b1100101 T
b1101011 e
b1100100 m
b11010000 7"
b11010000 ?"
b1010110111 S"
#184
b1010111000 4
b11001101 C
b11010000 T
b11001101 e
b11010000 m
b1100001 7"
b1011100 ?"
b1010111000 S"
#185
b1010111001 4
b1011111 C
b1011100 T
b1011111 e
b1100001 m
b1100101 7"
b1100011 ?"
b1010111001 S"
#186
b1010111010 4
b1100101 C
b1100011 T
b1100101 e
b1100101 m
b11010011 7"
b11010101 ?"
b1010111010 S"
#187
b1010111011 4
b11010000 C
b11010101 T
b11010000 e
b11010011 m
b1011100 7"
b1011111 ?"
b1010111011 S"
#188
b1010111100 4
b1011100 C
b1011111 T
b1011100 e
b1011100 m
b1100001 7"
b1100111 ?"
b1010111100 S"
#189
b1010111101 4
b1100011 C
b1100111 T
b1100011 e
b1100001 m
b11001011 7"
b11001111 ?"
b1010111101 S"
#190
b1010111110 4
b11010101 C
b11001111 T
b11010101 e
b11001011 m
b1110000 7"
b1101101 ?"
b1010111110 S"
#191
b1010111111 4
b1011111 C
b1101101 T
b1011111 e
b1110000 m
b1100101 7"
b1100011 ?"
b1010111111 S"
#192
b1011000000 4
b1100111 C
b1100011 T
b1100111 e
b1100101 m
b11001101 7"
b11001101 ?"
b1011000000 S"
#193
b1011000001 4
b11001111 C
b11001101 T
b11001111 e
b11001101 m
b1101001 7"
b1101011 ?"
b1011000001 S"
#194
b1011000010 4
b1101101 C
b1101011 T
b1101101 e
b1101001 m
b1100101 7"
b1011000010 S"
#195
b1011000011 4
b1100011 C
b1100011 e
b1100101 m
b11001101 7"
b11001101 ?"
b1011000011 S"
#196
b1011000100 4
b11001101 C
b11001101 T
b11001101 e
b11001101 m
b1100111 7"
b1100010 ?"
b1011000100 S"
#197
b1011000101 4
b1101011 C
b1100010 T
b1101011 e
b1100111 m
b1101101 7"
b1100100 ?"
b1011000101 S"
#198
b1011000110 4
b1100100 T
b1101101 m
b11001001 7"
b11001110 ?"
b1011000110 S"
#199
b1011000111 4
b11001101 C
b11001110 T
b11001101 e
b11001001 m
b1101111 7"
b1100101 ?"
b1011000111 S"
#200
b1011001000 4
b1100010 C
b1100101 T
b1100010 e
b1101111 m
b1100110 7"
b1100110 ?"
b1011001000 S"
#201
b1011001001 4
b1100100 C
b1100110 T
b1100100 e
b1100110 m
b11001101 7"
b11010000 ?"
b1011001001 S"
#202
b1011001010 4
b11001110 C
b11010000 T
b11001110 e
b11001101 m
b1100100 7"
b1100111 ?"
b1011001010 S"
#203
b1011001011 4
b1100101 C
b1100111 T
b1100101 e
b1100100 m
b1100011 7"
b1101001 ?"
b1011001011 S"
#204
b1011001100 4
b1100110 C
b1101001 T
b1100110 e
b1100011 m
b11001101 7"
b11001101 ?"
b1011001100 S"
#205
b1011001101 4
b11010000 C
b11001101 T
b11010000 e
b11001101 m
b1110000 7"
b1101011 ?"
b1011001101 S"
#206
b1011001110 4
b1100111 C
b1101011 T
b1100111 e
b1110000 m
b1101100 7"
b1101110 ?"
b1011001110 S"
#207
b1011001111 4
b1101001 C
b1101110 T
b1101001 e
b1101100 m
b11001011 7"
b11001011 ?"
b1011001111 S"
#208
b1011010000 4
b11001101 C
b11001011 T
b11001101 e
b11001011 m
b1100010 7"
b1011110 ?"
b1011010000 S"
