bmp_hdmi_test3/.Xil/Vivado-12316-DESKTOP-3OAFHV8/hw_ila_data_1/zip_work/waveform.vcd
$date
        2025-Jan-17 01:08:39
$end
$version
        Vivado v2020.2 (64-bit)
$end
$timescale
        1ps
$end
$scope module dut $end
$var reg 8 " system_i/Bic_top_0/inst/m_axis_tdata [7:0] $end
$var reg 9 * system_i/Bic_top_0/inst/coeff00 [8:0] $end
$var reg 3 3 system_i/Bic_top_0/inst/fillCount [2:0] $end
$var reg 9 6 system_i/Bic_top_0/inst/coeff11 [8:0] $end
$var reg 8 ? system_i/Bic_top_0/inst/o_vout_data [7:0] $end
$var reg 9 G system_i/Bic_top_0/inst/coeff10 [8:0] $end
$var reg 12 P system_i/Bic_top_0/inst/outputColumn [11:0] $end
$var reg 8 \ system_i/Bic_top_0/inst/readData00 [7:0] $end
$var reg 9 d system_i/Bic_top_0/inst/coeff01 [8:0] $end
$var reg 12 m system_i/Bic_top_0/inst/writeNextValidLine [11:0] $end
$var reg 12 y system_i/Bic_top_0/inst/writeColCount [11:0] $end
$var reg 8 '" system_i/Bic_top_0/inst/readData10 [7:0] $end
$var reg 8 /" system_i/Bic_top_0/inst/readData01 [7:0] $end
$var reg 8 7" system_i/Bic_top_0/inst/readData11 [7:0] $end
$var reg 12 ?" system_i/Bic_top_0/inst/writeRowCount [11:0] $end
$var reg 12 K" system_i/Bic_top_0/inst/yPixLowNext [11:0] $end
$var reg 8 W" system_i/Bic_top_0/inst/s_axis_tdata [7:0] $end
$var reg 12 _" system_i/Bic_top_0/inst/xPixLow [11:0] $end
$var reg 2 k" system_i/Bic_top_0/inst/writeState [1:0] $end
$var reg 12 m" system_i/Bic_top_0/inst/yPixLow [11:0] $end
$var reg 1 y" system_i/Bic_top_0/inst/advanceRead1 $end
$var reg 1 z" system_i/Bic_top_0/inst/advanceRead2 $end
$var reg 1 {" system_i/Bic_top_0/inst/advanceWrite $end
$var reg 1 |" system_i/Bic_top_0/inst/allDataWritten $end
$var reg 1 }" system_i/Bic_top_0/inst/discardInput $end
$var reg 1 ~" system_i/Bic_top_0/inst/enableNextDin $end
$var reg 1 !# system_i/Bic_top_0/inst/forceRead $end
$var reg 1 "# system_i/Bic_top_0/inst/i_vid_de $end
$var reg 1 ## system_i/Bic_top_0/inst/i_vout_read $end
$var reg 1 $# system_i/Bic_top_0/inst/m_axis_tready $end
$var reg 1 %# system_i/Bic_top_0/inst/m_axis_tvalid $end
$var reg 1 &# system_i/Bic_top_0/inst/o_vid_fifo_read $end
$var reg 1 '# system_i/Bic_top_0/inst/readState $end
$var reg 1 (# system_i/Bic_top_0/inst/s_axis_tlast $end
$var reg 1 )# system_i/Bic_top_0/inst/s_axis_tready $end
$var reg 1 *# system_i/Bic_top_0/inst/s_axis_tvalid $end
$var reg 1 +# _TRIGGER $end
$var reg 1 ,# _WINDOW $end
$var reg 1 -# _GAP $end
$upscope $end
$enddefinitions $end
#0
$dumpvars
b1100100 "
b100000000 *
b1 3
b0 6
b1100100 ?
b0 G
b0 P
b1100100 \
b0 d
b10 m
b10100101 y
b10110001 '"
b1011111 /"
b10000101 7"
b1 ?"
b0 K"
b1010110 W"
b0 _"
b10 k"
b0 m"
0y"
0z"
0{"
0|"
0}"
1~"
0!#
1"#
1##
1$#
1%#
1&#
0'#
0(#
1)#
1*#
0+#
1,#
0-#
$end
#1
b10100110 y
b1010110 '"
b1001100 W"
#2
b10100111 y
b1001100 '"
b10110010 W"
#3
b10101000 y
b10110010 '"
b1011010 W"
#4
b10101001 y
b1011010 '"
b1001110 W"
#5
b10101010 y
b1001110 '"
b10110110 W"
#6
b10101011 y
b10110110 '"
b1010111 W"
#7
b10101100 y
b1010111 '"
b1001110 W"
#8
b10101101 y
b1001110 '"
b10110010 W"
#9
b10101110 y
b10110010 '"
b1010100 W"
#10
b10101111 y
b1010100 '"
b1001011 W"
#11
b10110000 y
b1001011 '"
b10110010 W"
#12
b10110001 y
b10110010 '"
b1011000 W"
#13
b10110010 y
b1011000 '"
b1001110 W"
#14
b10110011 y
b1001110 '"
b10110011 W"
#15
b10110100 y
b10110011 '"
b1011101 W"
#16
b10110101 y
b1011101 '"
b1001110 W"
#17
b10110110 y
b1001110 '"
b10110000 W"
#18
b10110111 y
b10110000 '"
b1010110 W"
#19
b10111000 y
b1010110 '"
b1001111 W"
#20
b10111001 y
b1001111 '"
b10110011 W"
#21
b10111010 y
b10110011 '"
b1011101 W"
#22
b10111011 y
b1011101 '"
b1001110 W"
#23
b10111100 y
b1001110 '"
b10110010 W"
#24
b10111101 y
b10110010 '"
b1010111 W"
#25
b10111110 y
b1010111 '"
b1001110 W"
#26
b10111111 y
b1001110 '"
b10101110 W"
1{"
#27
b10 3
b0 y
b10101110 '"
b10 ?"
b1010010 W"
0{"
#28
b1 y
b1110000 '"
b1001001 W"
#29
b11 m
b10 y
b10101101 W"
#30
b11 y
b1010100 W"
#31
b100 y
b1001011 W"
#32
b101 y
b10101110 W"
#33
b110 y
b1010001 W"
#34
b111 y
b1001001 W"
#35
b1000 y
b10110011 W"
#36
b1001 y
b1010110 W"
#37
b1010 y
b1001011 W"
#38
b1011 y
b10110100 W"
#39
b1100 y
b1010011 W"
#40
b1101 y
b1001111 W"
#41
b1110 y
b10110001 W"
#42
b1111 y
b1011001 W"
#43
b10000 y
b1001111 W"
#44
b10001 y
b10110110 W"
#45
b10010 y
b1011100 W"
#46
b10011 y
b1011001 W"
#47
b10100 y
b10110110 W"
#48
b10101 y
b1010110 W"
#49
b10110 y
b1001101 W"
#50
b10111 y
b10111001 W"
#51
b11000 y
b1011000 W"
#52
b11001 y
b1010001 W"
#53
b11010 y
b10111011 W"
#54
b11011 y
b1011011 W"
#55
b11100 y
b1010110 W"
#56
b11101 y
b10111110 W"
#57
b11110 y
b1011100 W"
#58
b11111 y
b1011010 W"
#59
b100000 y
b11000010 W"
#60
b100001 y
b1011000 W"
#61
b100010 y
b1010110 W"
#62
b100011 y
b11000010 W"
#63
b100100 y
b1010011 W"
#64
b100101 y
b1001110 W"
#65
b100110 y
b10111110 W"
#66
b100111 y
b1011101 W"
#67
b101000 y
b1011001 W"
#68
b101001 y
b11000111 W"
#69
b101010 y
b1011010 W"
#70
b101011 y
b1011001 W"
#71
b101100 y
b11000011 W"
#72
b101101 y
b1011000 W"
#73
b101110 y
b1011100 W"
#74
b101111 y
b11000001 W"
#75
b110000 y
b1011111 W"
#76
b110001 y
#77
b110010 y
b11000011 W"
#78
b110011 y
b1010101 W"
#79
b110100 y
b1011100 W"
#80
b110101 y
b11000100 W"
#81
b110110 y
b1100001 W"
#82
b110111 y
b1011010 W"
#83
b111000 y
b11000000 W"
#84
b111001 y
b1010110 W"
#85
b111010 y
b1011100 W"
#86
b111011 y
b11001001 W"
#87
b111100 y
b1011011 W"
#88
b111101 y
#89
b111110 y
b11001011 W"
#90
b111111 y
b1011110 W"
#91
b1000000 y
b1100101 W"
#92
b1000001 y
b11001010 W"
#93
b1000010 y
b1011111 W"
#94
b1000011 y
b1100001 W"
#95
b1000100 y
b11001110 W"
#96
b1000101 y
b1011010 W"
#97
b1000110 y
b1011100 W"
#98
b1000111 y
b11000101 W"
#99
b1001000 y
b1011000 W"
#100
b1001001 y
b1011001 W"
#101
b1001010 y
b11001001 W"
#102
b1001011 y
b1011101 W"
#103
b1001100 y
b1011110 W"
#104
b1001101 y
b11001101 W"
#105
b1001110 y
b1100000 W"
#106
b1001111 y
b1101000 W"
#107
b1010000 y
b11001010 W"
#108
b1010001 y
b1011110 W"
#109
b1010010 y
b1100100 W"
#110
b1010011 y
b11001110 W"
#111
b1010100 y
b1100000 W"
#112
b1010101 y
b1100101 W"
#113
b1010110 y
b11001101 W"
#114
b1010111 y
b1011101 W"
#115
b1011000 y
b1100000 W"
#116
b1011001 y
b11001111 W"
#117
b1011010 y
b1100101 W"
#118
b1011011 y
b1101000 W"
#119
b1011100 y
b11010001 W"
#120
b1011101 y
b1011111 W"
#121
b1011110 y
b1100010 W"
#122
b1011111 y
b11001011 W"
#123
b1100000 y
b1011101 W"
#124
b1100001 y
b1100000 W"
#125
b1100010 y
b11001100 W"
#126
b1100011 y
b1101000 W"
#127
b1100100 y
b1100010 W"
#128
b1100101 y
b11001101 W"
#129
b1100110 y
b1100110 W"
#130
b1100111 y
b1100100 W"
#131
b1101000 y
b11001010 W"
#132
b1101001 y
b1011101 W"
#133
b1101010 y
b1011111 W"
#134
b1101011 y
b11001100 W"
#135
b1101100 y
b1101111 W"
#136
b1101101 y
b1101010 W"
#137
b1101110 y
b11001000 W"
#138
b1101111 y
b1100010 W"
#139
b1110000 y
b1101100 W"
#140
b1110001 y
b11001110 W"
#141
b1110010 y
b1100101 W"
#142
b1110011 y
b1100110 W"
#143
b1110100 y
b11001100 W"
#144
b1110101 y
b1100110 W"
#145
b1110110 y
b1100111 W"
#146
b1110111 y
b11001110 W"
#147
b1111000 y
b1011110 W"
#148
b1111001 y
b1100100 W"
#149
b1111010 y
b11001111 W"
#150
b1111011 y
b1100011 W"
#151
b1111100 y
b1100100 W"
#152
b1111101 y
b11001100 W"
#153
b1111110 y
b1011111 W"
#154
b1111111 y
b1100000 W"
#155
b10000000 y
b11001011 W"
#156
b10000001 y
b1011011 W"
#157
b10000010 y
b1100011 W"
#158
b10000011 y
b11001110 W"
#159
b10000100 y
b1100111 W"
#160
b10000101 y
b1101000 W"
#161
b10000110 y
b11001101 W"
#162
b10000111 y
b1011010 W"
#163
b10001000 y
b1011011 W"
#164
b10001001 y
b11001111 W"
#165
b10001010 y
b1100001 W"
#166
b10001011 y
b1100010 W"
#167
b10001100 y
b11001011 W"
#168
b10001101 y
b1011011 W"
#169
b10001110 y
b1011111 W"
#170
b10001111 y
b11001001 W"
#171
b10010000 y
b1100010 W"
#172
b10010001 y
b1101001 W"
#173
b10010010 y
b11001010 W"
#174
b10010011 y
b1011100 W"
#175
b10010100 y
b1100101 W"
#176
b10010101 y
b11001011 W"
#177
b10010110 y
b1011101 W"
#178
b10010111 y
b1100010 W"
#179
b10011000 y
b11001100 W"
#180
b10011001 y
b1011111 W"
#181
b10011010 y
b1100101 W"
#182
b10011011 y
b11001010 W"
#183
b10011100 y
b1010110 W"
#184
b10011101 y
b1100001 W"
#185
b10011110 y
b11001101 W"
#186
b10011111 y
b1101010 W"
#187
b10100000 y
b1100110 W"
#188
b10100001 y
b11001001 W"
#189
b10100010 y
b1011101 W"
#190
b10100011 y
b1100001 W"
#191
b10100100 y
b11001100 W"
#192
b10100101 y
b1011111 W"
#193
b10100110 y
b1100001 W"
#194
b10100111 y
b11001010 W"
#195
b10101000 y
b1100111 W"
#196
b10101001 y
b1101001 W"
#197
b10101010 y
b11001101 W"
#198
b10101011 y
b1011011 W"
#199
b10101100 y
b1101000 W"
#200
b10101101 y
b11001111 W"
#201
b10101110 y
b1101110 W"
#202
b10101111 y
b1101001 W"
#203
b10110000 y
b11001110 W"
#204
b10110001 y
b1100101 W"
#205
b10110010 y
b1100111 W"
#206
b10110011 y
b11001110 W"
#207
b10110100 y
b1011011 W"
#208
b10110101 y
b1011111 W"
#209
b10110110 y
b11001110 W"
#210
b10110111 y
b1100001 W"
#211
b10111000 y
b1100110 W"
#212
b10111001 y
b11010100 W"
#213
b10111010 y
b1011101 W"
#214
b10111011 y
b1100001 W"
#215
b10111100 y
b11010010 W"
#216
b10111101 y
b1100110 W"
#217
b10111110 y
b1101001 W"
#218
b10111111 y
b11001101 W"
1{"
#219
b11 3
b0 y
b11 ?"
b1011111 W"
0{"
#220
b1 y
b1100110 W"
#221
b100 m
b10 y
b11001111 W"
#222
b11 y
b1100011 W"
#223
b100 y
b1100110 W"
#224
b101 y
b11010000 W"
#225
b110 y
b1100101 W"
#226
b111 y
b1100111 W"
#227
b1000 y
b11001111 W"
#228
b1001 y
b1101000 W"
#229
b1010 y
b1100111 W"
#230
b1011 y
b11010010 W"
#231
b1100 y
b1011110 W"
#232
b1101 y
b1100011 W"
#233
b1110 y
b11010010 W"
#234
b1111 y
b1100110 W"
#235
b10000 y
b1100111 W"
#236
b10001 y
b11010010 W"
#237
b10010 y
b1011011 W"
#238
b10011 y
b1100000 W"
#239
b10100 y
b11010110 W"
#240
b10101 y
b1100110 W"
#241
b10110 y
b1101010 W"
#242
b10111 y
b11010001 W"
#243
b11000 y
b1100100 W"
#244
b11001 y
b1100110 W"
#245
b11010 y
b11010011 W"
#246
b11011 y
b1100100 W"
#247
b11100 y
b1100011 W"
#248
b11101 y
b11010010 W"
#249
b11110 y
b1100100 W"
#250
b11111 y
b1100110 W"
#251
b100000 y
b11010000 W"
#252
b100001 y
b1100000 W"
#253
b100010 y
b1100101 W"
#254
b100011 y
b11010011 W"
#255
b100100 y
b1100110 W"
#256
b100101 y
b1101010 W"
#257
b100110 y
b11010001 W"
#258
b100111 y
b1100001 W"
#259
b101000 y
b1100100 W"
#260
b101001 y
b11010010 W"
#261
b101010 y
b1101001 W"
#262
b101011 y
b1101000 W"
#263
b101100 y
b11001100 W"
#264
b101101 y
b1100001 W"
#265
b101110 y
b1100111 W"
#266
b101111 y
b11010001 W"
#267
b110000 y
b1011100 W"
#268
b110001 y
b1100101 W"
#269
b110010 y
b11001111 W"
#270
b110011 y
b1100101 W"
#271
b110100 y
b1100110 W"
#272
b110101 y
b11001110 W"
#273
b110110 y
b1100001 W"
#274
b110111 y
b1100100 W"
#275
b111000 y
b11001100 W"
#276
b111001 y
b1011100 W"
#277
b111010 y
b1100100 W"
#278
b111011 y
b11010010 W"
#279
b111100 y
b1100110 W"
#280
b111101 y
b1100100 W"
#281
b111110 y
b11010000 W"
#282
b111111 y
b1100110 W"
#283
b1000000 y
b1101000 W"
#284
b1000001 y
b11010000 W"
#285
b1000010 y
b1100101 W"
#286
b1000011 y
b1101100 W"
#287
b1000100 y
b11001110 W"
#288
b1000101 y
b1101000 W"
#289
b1000110 y
b1100111 W"
#290
b1000111 y
b11010001 W"
#291
b1001000 y
b1100110 W"
#292
b1001001 y
b1101000 W"
#293
b1001010 y
b11001011 W"
#294
b1001011 y
b1100100 W"
#295
b1001100 y
b1100011 W"
#296
b1001101 y
b11001110 W"
#297
b1001110 y
b1100011 W"
#298
b1001111 y
b1101000 W"
#299
b1010000 y
b11001100 W"
#300
b1010001 y
b1100001 W"
#301
b1010010 y
b1100011 W"
#302
b1010011 y
b11001111 W"
#303
b1010100 y
b1100101 W"
#304
b1010101 y
b1101001 W"
#305
b1010110 y
b11001110 W"
#306
b1010111 y
b1100111 W"
#307
b1011000 y
b1101010 W"
#308
b1011001 y
b11001111 W"
#309
b1011010 y
b1011111 W"
#310
b1011011 y
b1100101 W"
#311
b1011100 y
b11010000 W"
#312
b1011101 y
b1100100 W"
#313
b1011110 y
b1101001 W"
#314
b1011111 y
b11001111 W"
#315
b1100000 y
b1011111 W"
#316
b1100001 y
b1101001 W"
#317
b1100010 y
b11010011 W"
#318
b1100011 y
b1101000 W"
#319
b1100100 y
b1101001 W"
#320
b1100101 y
b11010011 W"
#321
b1100110 y
b1011100 W"
#322
b1100111 y
b1100101 W"
#323
b1101000 y
b11010011 W"
#324
b1101001 y
b1101001 W"
#325
b1101010 y
b1101101 W"
#326
b1101011 y
b11001111 W"
#327
b1101100 y
b1100101 W"
#328
b1101101 y
b1101010 W"
#329
b1101110 y
b11010000 W"
#330
b1101111 y
b1100001 W"
#331
b1110000 y
b1101000 W"
#332
b1110001 y
b11010000 W"
#333
b1110010 y
b1101110 W"
#334
b1110011 y
b1100110 W"
#335
b1110100 y
b11001100 W"
#336
b1110101 y
b1100110 W"
#337
b1110110 y
b1101001 W"
#338
b1110111 y
b11010000 W"
#339
b1111000 y
b1100101 W"
#340
b1111001 y
b1101000 W"
#341
b1111010 y
b11010001 W"
#342
b1111011 y
b1100101 W"
#343
b1111100 y
b1101001 W"
#344
b1111101 y
b11010011 W"
#345
b1111110 y
b1100110 W"
#346
b1111111 y
#347
b10000000 y
b11001011 W"
#348
b10000001 y
b1101011 W"
#349
b10000010 y
b1101000 W"
#350
b10000011 y
b11001000 W"
#351
b10000100 y
b1110111 W"
#352
b10000101 y
b1110000 W"
#353
b10000110 y
b11001010 W"
#354
b10000111 y
b1100110 W"
#355
b10001000 y
#356
b10001001 y
b11001011 W"
#357
b10001010 y
b1100011 W"
#358
b10001011 y
#359
b10001100 y
b11001111 W"
#360
b10001101 y
b1110101 W"
#361
b10001110 y
b1101110 W"
#362
b10001111 y
b11001101 W"
#363
b10010000 y
b1101001 W"
#364
b10010001 y
b1101000 W"
#365
b10010010 y
b11001011 W"
#366
b10010011 y
b1100010 W"
#367
b10010100 y
b1100101 W"
#368
b10010101 y
b11001100 W"
#369
b10010110 y
b1011011 W"
#370
b10010111 y
b1100100 W"
#371
b10011000 y
b11001010 W"
#372
b10011001 y
b1100011 W"
#373
b10011010 y
b1100110 W"
#374
b10011011 y
b11001100 W"
#375
b10011100 y
b1101011 W"
#376
b10011101 y
b1100110 W"
#377
b10011110 y
b11001001 W"
#378
b10011111 y
b1011100 W"
#379
b10100000 y
b1100010 W"
#380
b10100001 y
b11000101 W"
#381
b10100010 y
b1011110 W"
#382
b10100011 y
b1100100 W"
#383
b10100100 y
b11001110 W"
#384
b10100101 y
b1011110 W"
#385
b10100110 y
b1100111 W"
#386
b10100111 y
b11001011 W"
#387
b10101000 y
b1011101 W"
#388
b10101001 y
b1100111 W"
#389
b10101010 y
b11001101 W"
#390
b10101011 y
b1011101 W"
#391
b10101100 y
b1100011 W"
#392
b10101101 y
b11010000 W"
#393
b10101110 y
b1011011 W"
#394
b10101111 y
b1100010 W"
#395
b10110000 y
b11001101 W"
#396
b10110001 y
b1101001 W"
#397
b10110010 y
b1100100 W"
#398
b10110011 y
b11001101 W"
#399
b10110100 y
b1100100 W"
#400
b10110101 y
b1100101 W"
#401
b10110110 y
b11001010 W"
#402
b10110111 y
b1011111 W"
#403
b10111000 y
b1100001 W"
#404
b10111001 y
b11001011 W"
#405
b10111010 y
b1101010 W"
#406
b10111011 y
b1101011 W"
#407
b10111100 y
b11001001 W"
#408
b10111101 y
b1100111 W"
#409
b10111110 y
b1101001 W"
#410
b10111111 y
b11001000 W"
1{"
#411
b100 3
b0 y
b100 ?"
b1011101 W"
0{"
0"#
0&#
0)#
#412
1'#
#413
b1 P
b101 m
#414
b10 P
b1 _"
#415
b10000000 *
b11 P
b1011111 \
b10000000 d
b10000101 '"
b11000100 /"
b11100001 7"
#416
b100000000 *
b100 P
b0 d
b10 _"
#417
b1100001 "
b10000000 *
b1100001 ?
b101 P
b11000100 \
b10000000 d
b11100001 '"
b1101100 /"
b1111100 7"
#418
b1011111 "
b100000000 *
b1011111 ?
b110 P
b0 d
b11 _"
#419
b10010001 "
b10000000 *
b10010001 ?
b111 P
b1101100 \
b10000000 d
b1111100 '"
b1100101 /"
b10010000 7"
#420
b11000100 "
b100000000 *
b11000100 ?
b1000 P
b0 d
b100 _"
#421
b10011000 "
b10000000 *
b10011000 ?
b1001 P
b1100101 \
b10000000 d
b10010000 '"
b11000100 /"
b11100011 7"
#422
b1101100 "
b100000000 *
b1101100 ?
b1010 P
b0 d
b101 _"
#423
b1101000 "
b10000000 *
b1101000 ?
b1011 P
b11000100 \
b10000000 d
b11100011 '"
b1011011 /"
b1101000 7"
#424
b1100101 "
b100000000 *
b1100101 ?
b1100 P
b0 d
b110 _"
#425
b10010100 "
b10000000 *
b10010100 ?
b1101 P
b1011011 \
b10000000 d
b1101000 '"
b1011111 /"
b10000111 7"
#426
b11000100 "
b100000000 *
b11000100 ?
b1110 P
b0 d
b111 _"
#427
b10001111 "
b10000000 *
b10001111 ?
b1111 P
b1011111 \
b10000000 d
b10000111 '"
b11000000 /"
b11100101 7"
#428
b1011011 "
b100000000 *
b1011011 ?
b10000 P
b0 d
b1000 _"
#429
b1011101 "
b10000000 *
b1011101 ?
b10001 P
b11000000 \
b10000000 d
b11100101 '"
b1100101 /"
b1111011 7"
#430
b1011111 "
b100000000 *
b1011111 ?
b10010 P
b0 d
b1001 _"
#431
b10001111 "
b10000000 *
b10001111 ?
b10011 P
b1100101 \
b10000000 d
b1111011 '"
b1100001 /"
b10001110 7"
#432
b11000000 "
b100000000 *
b11000000 ?
b10100 P
b0 d
b1010 _"
#433
b10010010 "
b10000000 *
b10010010 ?
b10101 P
b1100001 \
b10000000 d
b10001110 '"
b11000010 /"
b11100111 7"
#434
b1100101 "
b100000000 *
b1100101 ?
b10110 P
b0 d
b1011 _"
#435
b1100011 "
b10000000 *
b1100011 ?
b10111 P
b11000010 \
b10000000 d
b11100111 '"
b1011101 /"
b1110100 7"
#436
b1100001 "
b100000000 *
b1100001 ?
b11000 P
b0 d
b1100 _"
#437
b10010001 "
b10000000 *
b10010001 ?
b11001 P
b1011101 \
b10000000 d
b1110100 '"
b10001111 7"
#438
b11000010 "
b100000000 *
b11000010 ?
b11010 P
b0 d
b1101 _"
#439
b10001111 "
b10000000 *
b10001111 ?
b11011 P
b10000000 d
b10001111 '"
b11000111 /"
b11100111 7"
#440
b1011101 "
b100000000 *
b1011101 ?
b11100 P
b0 d
b1110 _"
#441
b10000000 *
b11101 P
b11000111 \
b10000000 d
b11100111 '"
b1011001 /"
b1110000 7"
#442
b100000000 *
b11110 P
b0 d
b1111 _"
#443
b10010010 "
b10000000 *
b10010010 ?
b11111 P
b1011001 \
b10000000 d
b1110000 '"
b10001110 7"
#444
b11000111 "
b100000000 *
b11000111 ?
b100000 P
b0 d
b10000 _"
#445
b10010000 "
b10000000 *
b10010000 ?
b100001 P
b10000000 d
b10001110 '"
b11000100 /"
b11101000 7"
#446
b1011001 "
b100000000 *
b1011001 ?
b100010 P
b0 d
b10001 _"
#447
b10000000 *
b100011 P
b11000100 \
b10000000 d
b11101000 '"
b1100100 /"
b1110101 7"
#448
b100000000 *
b100100 P
b0 d
b10010 _"
#449
b10001110 "
b10000000 *
b10001110 ?
b100101 P
b1100100 \
b10000000 d
b1110101 '"
b1100101 /"
b10001111 7"
#450
b11000100 "
b100000000 *
b11000100 ?
b100110 P
b0 d
b10011 _"
#451
b10010100 "
b10000000 *
b10010100 ?
b100111 P
b1100101 \
b10000000 d
b10001111 '"
b11000100 /"
b11100110 7"
#452
b1100100 "
b100000000 *
b1100100 ?
b101000 P
b0 d
b10100 _"
#453
b10000000 *
b101001 P
b11000100 \
b10000000 d
b11100110 '"
b1100000 /"
b1111001 7"
#454
b1100101 "
b100000000 *
b1100101 ?
b101010 P
b0 d
b10101 _"
#455
b10010100 "
b10000000 *
b10010100 ?
b101011 P
b1100000 \
b10000000 d
b1111001 '"
b1011111 /"
b10010110 7"
#456
b11000100 "
b100000000 *
b11000100 ?
b101100 P
b0 d
b10110 _"
#457
b10010010 "
b10000000 *
b10010010 ?
b101101 P
b1011111 \
b10000000 d
b10010110 '"
b11000001 /"
b11101001 7"
#458
b1100000 "
b100000000 *
b1100000 ?
b101110 P
b0 d
b10111 _"
#459
b1011111 "
b10000000 *
b1011111 ?
b101111 P
b11000001 \
b10000000 d
b11101001 '"
b1010110 /"
b1111001 7"
#460
b100000000 *
b110000 P
b0 d
b11000 _"
#461
b10010000 "
b10000000 *
b10010000 ?
b110001 P
b1010110 \
b10000000 d
b1111001 '"
b1100001 /"
b10010100 7"
#462
b11000001 "
b100000000 *
b11000001 ?
b110010 P
b0 d
b11001 _"
#463
b10001011 "
b10000000 *
b10001011 ?
b110011 P
b1100001 \
b10000000 d
b10010100 '"
b11000101 /"
b11101010 7"
#464
b1010110 "
b100000000 *
b1010110 ?
b110100 P
b0 d
b11010 _"
#465
b1011011 "
b10000000 *
b1011011 ?
b110101 P
b11000101 \
b10000000 d
b11101010 '"
b1101001 /"
b1111011 7"
#466
b1100001 "
b100000000 *
b1100001 ?
b110110 P
b0 d
b11011 _"
#467
b10010011 "
b10000000 *
b10010011 ?
b110111 P
b1101001 \
b10000000 d
b1111011 '"
b1100001 /"
b10011010 7"
#468
b11000101 "
b100000000 *
b11000101 ?
b111000 P
b0 d
b11100 _"
#469
b10010111 "
b10000000 *
b10010111 ?
b111001 P
b1100001 \
b10000000 d
b10011010 '"
b11000010 /"
b11101101 7"
#470
b1101001 "
b100000000 *
b1101001 ?
b111010 P
b0 d
b11101 _"
#471
b1100101 "
b10000000 *
b1100101 ?
b111011 P
b11000010 \
b10000000 d
b11101101 '"
b1011010 /"
b1111001 7"
#472
b1100001 "
b100000000 *
b1100001 ?
b111100 P
b0 d
b11110 _"
#473
b10010001 "
b10000000 *
b10010001 ?
b111101 P
b1011010 \
b10000000 d
b1111001 '"
b1011000 /"
b10011001 7"
#474
b11000010 "
b100000000 *
b11000010 ?
b111110 P
b0 d
b11111 _"
#475
b10001110 "
b10000000 *
b10001110 ?
b111111 P
b1011000 \
b10000000 d
b10011001 '"
b11000000 /"
b11101001 7"
#476
b1011010 "
b100000000 *
b1011010 ?
b1000000 P
b0 d
b100000 _"
#477
b1011001 "
b10000000 *
b1011001 ?
b1000001 P
b11000000 \
b10000000 d
b11101001 '"
b1100000 /"
b1111001 7"
#478
b1011000 "
b100000000 *
b1011000 ?
b1000010 P
b0 d
b100001 _"
#479
b10001100 "
b10000000 *
b10001100 ?
b1000011 P
b1100000 \
b10000000 d
b1111001 '"
b1011110 /"
b10010101 7"
#480
b11000000 "
b100000000 *
b11000000 ?
b1000100 P
b0 d
b100010 _"
#481
b10010000 "
b10000000 *
b10010000 ?
b1000101 P
b1011110 \
b10000000 d
b10010101 '"
b10111110 /"
b11100111 7"
#482
b1100000 "
b100000000 *
b1100000 ?
b1000110 P
b0 d
b100011 _"
#483
b1011111 "
b10000000 *
b1011111 ?
b1000111 P
b10111110 \
b10000000 d
b11100111 '"
b1011101 /"
b1110111 7"
#484
b1011110 "
b100000000 *
b1011110 ?
b1001000 P
b0 d
b100100 _"
#485
b10001110 "
b10000000 *
b10001110 ?
b1001001 P
b1011101 \
b10000000 d
b1110111 '"
b1010010 /"
b10010101 7"
#486
b10111110 "
b100000000 *
b10111110 ?
b1001010 P
b0 d
b100101 _"
#487
b10001101 "
b10000000 *
b10001101 ?
b1001011 P
b1010010 \
b10000000 d
b10010101 '"
b10111001 /"
b11101101 7"
#488
b1011101 "
b100000000 *
b1011101 ?
b1001100 P
b0 d
b100110 _"
#489
b1010111 "
b10000000 *
b1010111 ?
b1001101 P
b10111001 \
b10000000 d
b11101101 '"
b1011011 /"
b1110100 7"
#490
b1010010 "
b100000000 *
b1010010 ?
b1001110 P
b0 d
b100111 _"
#491
b10000101 "
b10000000 *
b10000101 ?
b1001111 P
b1011011 \
b10000000 d
b1110100 '"
b10010101 7"
#492
b10111001 "
b100000000 *
b10111001 ?
b1010000 P
b0 d
b101000 _"
#493
b10001010 "
b10000000 *
b10001010 ?
b1010001 P
b10000000 d
b10010101 '"
b10111111 /"
b11101110 7"
#494
b1011011 "
b100000000 *
b1011011 ?
b1010010 P
b0 d
b101001 _"
#495
b10000000 *
b1010011 P
b10111111 \
b10000000 d
b11101110 '"
b1011000 /"
b1110110 7"
#496
b100000000 *
b1010100 P
b0 d
b101010 _"
#497
b10001101 "
b10000000 *
b10001101 ?
b1010101 P
b1011000 \
b10000000 d
b1110110 '"
b1010100 /"
b10001111 7"
#498
b10111111 "
b100000000 *
b10111111 ?
b1010110 P
b0 d
b101011 _"
#499
b10001011 "
b10000000 *
b10001011 ?
b1010111 P
b1010100 \
b10000000 d
b10001111 '"
b10111100 /"
b11101010 7"
#500
b1011000 "
b100000000 *
b1011000 ?
b1011000 P
b0 d
b101100 _"
#501
b1010110 "
b10000000 *
b1010110 ?
b1011001 P
b10111100 \
b10000000 d
b11101010 '"
b1100000 /"
b1111010 7"
#502
b1010100 "
b100000000 *
b1010100 ?
b1011010 P
b0 d
b101101 _"
#503
b10001000 "
b10000000 *
b10001000 ?
b1011011 P
b1100000 \
b10000000 d
b1111010 '"
b1011000 /"
b10011010 7"
#504
b10111100 "
b100000000 *
b10111100 ?
b1011100 P
b0 d
b101110 _"
#505
b10001110 "
b10000000 *
b10001110 ?
b1011101 P
b1011000 \
b10000000 d
b10011010 '"
b10111101 /"
b11101011 7"
#506
b1100000 "
b100000000 *
b1100000 ?
b1011110 P
b0 d
b101111 _"
#507
b1011100 "
b10000000 *
b1011100 ?
b1011111 P
b10111101 \
b10000000 d
b11101011 '"
b1011001 /"
b1110100 7"
#508
b1011000 "
b100000000 *
b1011000 ?
b1100000 P
b0 d
b110000 _"
#509
b10001010 "
b10000000 *
b10001010 ?
b1100001 P
b1011001 \
b10000000 d
b1110100 '"
b10010001 7"
#510
b10111101 "
b100000000 *
b10111101 ?
b1100010 P
b0 d
b110001 _"
#511
b10001011 "
b10000000 *
b10001011 ?
b1100011 P
b10000000 d
b10010001 '"
b10111011 /"
b11101010 7"
#512
b1011001 "
b100000000 *
b1011001 ?
b1100100 P
b0 d
b110010 _"
1+#
#513
b10000000 *
b1100101 P
b10111011 \
b10000000 d
b11101010 '"
b1011010 /"
b1111001 7"
#514
b100000000 *
b1100110 P
b0 d
b110011 _"
#515
b10001010 "
b10000000 *
b10001010 ?
b1100111 P
b1011010 \
b10000000 d
b1111001 '"
b1010100 /"
b10001110 7"
#516
b10111011 "
b100000000 *
b10111011 ?
b1101000 P
b0 d
b110100 _"
#517
b10001010 "
b10000000 *
b10001010 ?
b1101001 P
b1010100 \
b10000000 d
b10001110 '"
b10111010 /"
b11101000 7"
#518
b1011010 "
b100000000 *
b1011010 ?
b1101010 P
b0 d
b110101 _"
#519
b1010111 "
b10000000 *
b1010111 ?
b1101011 P
b10111010 \
b10000000 d
b11101000 '"
b1100110 /"
b1110000 7"
#520
b1010100 "
b100000000 *
b1010100 ?
b1101100 P
b0 d
b110110 _"
