bmp_hdmi_test2/.Xil/Vivado-10804-DESKTOP-3OAFHV8/hw_ila_data_1/zip_work/waveform.vcd
$date
        2025-Jan-08 00:19:30
$end
$version
        Vivado v2020.2 (64-bit)
$end
$timescale
        1ps
$end
$scope module dut $end
$var reg 12 " system_i/Bic_top_0/inst/writeRowCount [11:0] $end
$var reg 3 . system_i/Bic_top_0/inst/fillCount [2:0] $end
$var reg 8 1 system_i/Bic_top_0/inst/readData00 [7:0] $end
$var reg 12 9 system_i/Bic_top_0/inst/yPixLowNext [11:0] $end
$var reg 12 E system_i/Bic_top_0/inst/xPixLow [11:0] $end
$var reg 12 Q system_i/Bic_top_0/inst/yPixLow [11:0] $end
$var reg 8 ] system_i/Bic_top_0/inst/readData11 [7:0] $end
$var reg 8 e system_i/Bic_top_0/inst/readData10 [7:0] $end
$var reg 12 m system_i/Bic_top_0/inst/writeColCount [11:0] $end
$var reg 8 y system_i/Bic_top_0/inst/readData01 [7:0] $end
$var reg 8 #" system_i/Bic_top_0/inst/s_axis_tdata [7:0] $end
$var reg 2 +" system_i/Bic_top_0/inst/writeState [1:0] $end
$var reg 12 -" system_i/Bic_top_0/inst/outputColumn [11:0] $end
$var reg 12 9" system_i/Bic_top_0/inst/writeNextValidLine [11:0] $end
$var reg 8 E" system_i/Bic_top_0/inst/m_axis_tdata [7:0] $end
$var reg 1 M" system_i/Bic_top_0/inst/advanceRead1 $end
$var reg 1 N" system_i/Bic_top_0/inst/advanceRead2 $end
$var reg 1 O" system_i/Bic_top_0/inst/advanceWrite $end
$var reg 1 P" system_i/Bic_top_0/inst/allDataWritten $end
$var reg 1 Q" system_i/Bic_top_0/inst/discardInput $end
$var reg 1 R" system_i/Bic_top_0/inst/enableNextDin $end
$var reg 1 S" system_i/Bic_top_0/inst/forceRead $end
$var reg 1 T" system_i/Bic_top_0/inst/i_vid_de $end
$var reg 1 U" system_i/Bic_top_0/inst/i_vout_read $end
$var reg 1 V" system_i/Bic_top_0/inst/m_axis_tready $end
$var reg 1 W" system_i/Bic_top_0/inst/m_axis_tvalid $end
$var reg 1 X" system_i/Bic_top_0/inst/o_vid_fifo_read $end
$var reg 1 Y" system_i/Bic_top_0/inst/readState $end
$var reg 1 Z" system_i/Bic_top_0/inst/s_axis_tlast $end
$var reg 1 [" system_i/Bic_top_0/inst/s_axis_tready $end
$var reg 1 \" system_i/Bic_top_0/inst/s_axis_tvalid $end
$var reg 1 ]" _TRIGGER $end
$var reg 1 ^" _WINDOW $end
$var reg 1 _" _GAP $end
$upscope $end
$enddefinitions $end
#0
$dumpvars
b0 "
b0 .
b0 1
b1 9
b0 E
b0 Q
b0 ]
b0 e
b0 m
b0 y
b0 #"
b10 +"
b0 -"
b1 9"
b0 E"
0M"
0N"
0O"
0P"
0Q"
1R"
0S"
0T"
1U"
1V"
0W"
1X"
0Y"
0Z"
1["
0\"
0]"
1^"
0_"
$end
#155
b1100100 #"
1T"
1\"
#156
b1100100 1
b1 m
b1011111 #"
#157
b1011111 1
b10 m
b1011111 y
b11000100 #"
#158
b11000100 1
b11 m
b1101100 #"
#159
b1101100 1
b100 m
b1100101 #"
#160
b1100101 1
b101 m
b11000100 #"
#161
b11000100 1
b110 m
b1011011 #"
#162
b1011011 1
b111 m
b1011111 #"
#163
b1011111 1
b1000 m
b11000000 #"
#164
b11000000 1
b1001 m
b1100101 #"
#165
b1100101 1
b1010 m
b1100001 #"
#166
b1100001 1
b1011 m
b11000010 #"
#167
b11000010 1
b1100 m
b1011101 #"
#168
b1011101 1
b1101 m
#169
b1110 m
b11000111 #"
#170
b11000111 1
b1111 m
b1011001 #"
#171
b1011001 1
b10000 m
#172
b10001 m
b11000100 #"
#173
b11000100 1
b10010 m
b1100100 #"
#174
b1100100 1
b10011 m
b1100101 #"
#175
b1100101 1
b10100 m
b11000100 #"
#176
b11000100 1
b10101 m
b1100000 #"
#177
b1100000 1
b10110 m
b1011111 #"
#178
b1011111 1
b10111 m
b11000001 #"
#179
b11000001 1
b11000 m
b1010110 #"
#180
b1010110 1
b11001 m
b1100001 #"
#181
b1100001 1
b11010 m
b11000101 #"
#182
b11000101 1
b11011 m
b1101001 #"
#183
b1101001 1
b11100 m
b1100001 #"
#184
b1100001 1
b11101 m
b11000010 #"
#185
b11000010 1
b11110 m
b1011010 #"
#186
b1011010 1
b11111 m
b1011000 #"
#187
b1011000 1
b100000 m
b11000000 #"
#188
b11000000 1
b100001 m
b1100000 #"
#189
b1100000 1
b100010 m
b1011110 #"
#190
b1011110 1
b100011 m
b10111110 #"
#191
b10111110 1
b100100 m
b1011101 #"
#192
b1011101 1
b100101 m
b1010010 #"
#193
b1010010 1
b100110 m
b10111001 #"
#194
b10111001 1
b100111 m
b1011011 #"
#195
b1011011 1
b101000 m
#196
b101001 m
b10111111 #"
#197
b10111111 1
b101010 m
b1011000 #"
#198
b1011000 1
b101011 m
b1010100 #"
#199
b1010100 1
b101100 m
b10111100 #"
#200
b10111100 1
b101101 m
b1100000 #"
#201
b1100000 1
b101110 m
b1011000 #"
#202
b1011000 1
b101111 m
b10111101 #"
#203
b10111101 1
b110000 m
b1011001 #"
#204
b1011001 1
b110001 m
#205
b110010 m
b10111011 #"
#206
b10111011 1
b110011 m
b1011010 #"
#207
b1011010 1
b110100 m
b1010100 #"
#208
b1010100 1
b110101 m
b10111010 #"
#209
b10111010 1
b110110 m
b1100110 #"
#210
b1100110 1
b110111 m
b1011011 #"
#211
b1011011 1
b111000 m
b10111001 #"
#212
b10111001 1
b111001 m
b1011110 #"
#213
b1011110 1
b111010 m
b1011101 #"
#214
b1011101 1
b111011 m
b11000100 #"
#215
b11000100 1
b111100 m
b1101000 #"
#216
b1101000 1
b111101 m
b1101011 #"
#217
b1101011 1
b111110 m
b11010011 #"
#218
b11010011 1
b111111 m
b10000011 #"
#219
b10000011 1
b1000000 m
b10001011 #"
#220
b10001011 1
b1000001 m
b11100000 #"
#221
b11100000 1
b1000010 m
b10000001 #"
#222
b10000001 1
b1000011 m
b10010000 #"
#223
b10010000 1
b1000100 m
b11100101 #"
#224
b11100101 1
b1000101 m
b1111110 #"
#225
b1111110 1
b1000110 m
b10010011 #"
#226
b10010011 1
b1000111 m
b11100111 #"
#227
b11100111 1
b1001000 m
b1111011 #"
#228
b1111011 1
b1001001 m
b10010101 #"
#229
b10010101 1
b1001010 m
b11101010 #"
#230
b11101010 1
b1001011 m
b1111010 #"
#231
b1111010 1
b1001100 m
b10010100 #"
#232
b10010100 1
b1001101 m
b11100110 #"
#233
b11100110 1
b1001110 m
b1101110 #"
#234
b1101110 1
b1001111 m
b10000010 #"
#235
b10000010 1
b1010000 m
b11011101 #"
#236
b11011101 1
b1010001 m
b1011010 #"
#237
b1011010 1
b1010010 m
b1100011 #"
#238
b1100011 1
b1010011 m
b11001000 #"
#239
b11001000 1
b1010100 m
b1111101 #"
#240
b1111101 1
b1010101 m
b10001001 #"
#241
b10001001 1
b1010110 m
b11100010 #"
#242
b11100010 1
b1010111 m
b1111101 #"
#243
b1111101 1
b1011000 m
b10001001 #"
#244
b10001001 1
b1011001 m
b11100010 #"
#245
b11100010 1
b1011010 m
b10000101 #"
#246
b10000101 1
b1011011 m
b10001001 #"
#247
b10001001 1
b1011100 m
b11011111 #"
#248
b11011111 1
b1011101 m
b10000000 #"
#249
b10000000 1
b1011110 m
b10001000 #"
#250
b10001000 1
b1011111 m
b11011111 #"
#251
b11011111 1
b1100000 m
b1111000 #"
#252
b1111000 1
b1100001 m
b10001010 #"
#253
b10001010 1
b1100010 m
b11100010 #"
#254
b11100010 1
b1100011 m
b1110100 #"
#255
b1110100 1
b1100100 m
b10000001 #"
#256
b10000001 1
b1100101 m
b11100010 #"
#257
b11100010 1
b1100110 m
b1111011 #"
#258
b1111011 1
b1100111 m
b10001010 #"
#259
b10001010 1
b1101000 m
b11100100 #"
#260
b11100100 1
b1101001 m
b1111100 #"
#261
b1111100 1
b1101010 m
b10000110 #"
#262
b10000110 1
b1101011 m
b11100011 #"
#263
b11100011 1
b1101100 m
b1111111 #"
#264
b1111111 1
b1101101 m
b10001100 #"
#265
b10001100 1
b1101110 m
b11100011 #"
#266
b11100011 1
b1101111 m
b1110111 #"
#267
b1110111 1
b1110000 m
b10001000 #"
#268
b10001000 1
b1110001 m
b11100001 #"
#269
b11100001 1
b1110010 m
b1111110 #"
#270
b1111110 1
b1110011 m
b10000111 #"
#271
b10000111 1
b1110100 m
b11100100 #"
#272
b11100100 1
b1110101 m
b1111001 #"
#273
b1111001 1
b1110110 m
b10000110 #"
#274
b10000110 1
b1110111 m
b11100001 #"
#275
b11100001 1
b1111000 m
b1101100 #"
#276
b1101100 1
b1111001 m
b10000010 #"
#277
b10000010 1
b1111010 m
b11011111 #"
#278
b11011111 1
b1111011 m
b1110111 #"
#279
b1110111 1
b1111100 m
b10001011 #"
#280
b10001011 1
b1111101 m
b11100010 #"
#281
b11100010 1
b1111110 m
b1111000 #"
#282
b1111000 1
b1111111 m
b10000111 #"
#283
b10000111 1
b10000000 m
b11011111 #"
#284
b11011111 1
b10000001 m
b1110010 #"
#285
b1110010 1
b10000010 m
b10000001 #"
#286
b10000001 1
b10000011 m
b11011101 #"
#287
b11011101 1
b10000100 m
b1101100 #"
#288
b1101100 1
b10000101 m
b10000110 #"
#289
b10000110 1
b10000110 m
b11011101 #"
#290
b11011101 1
b10000111 m
b1110001 #"
#291
b1110001 1
b10001000 m
b10000011 #"
#292
b10000011 1
b10001001 m
b11011101 #"
#293
b11011101 1
b10001010 m
b1111001 #"
#294
b1111001 1
b10001011 m
b10001010 #"
#295
b10001010 1
b10001100 m
b11011110 #"
#296
b11011110 1
b10001101 m
b1110010 #"
#297
b1110010 1
b10001110 m
b10001011 #"
#298
b10001011 1
b10001111 m
b11011110 #"
#299
b11011110 1
b10010000 m
b1101101 #"
#300
b1101101 1
b10010001 m
b1111111 #"
#301
b1111111 1
b10010010 m
b11011111 #"
#302
b11011111 1
b10010011 m
b1101001 #"
#303
b1101001 1
b10010100 m
b10000100 #"
#304
b10000100 1
b10010101 m
b11011111 #"
#305
b11011111 1
b10010110 m
b1100110 #"
#306
b1100110 1
b10010111 m
b10000001 #"
#307
b10000001 1
b10011000 m
b11100000 #"
#308
b11100000 1
b10011001 m
b1101101 #"
#309
b1101101 1
b10011010 m
b10000110 #"
#310
b10000110 1
b10011011 m
b11011101 #"
#311
b11011101 1
b10011100 m
b1101110 #"
#312
b1101110 1
b10011101 m
b10000011 #"
#313
b10000011 1
b10011110 m
b11011010 #"
#314
b11011010 1
b10011111 m
b1110001 #"
#315
b1110001 1
b10100000 m
b10000101 #"
#316
b10000101 1
b10100001 m
b11011101 #"
#317
b11011101 1
b10100010 m
b1101100 #"
#318
b1101100 1
b10100011 m
b10000010 #"
#319
b10000010 1
b10100100 m
b11011111 #"
#320
b11011111 1
b10100101 m
b1100010 #"
#321
b1100010 1
b10100110 m
b1111101 #"
#322
b1111101 1
b10100111 m
b11100001 #"
#323
b11100001 1
b10101000 m
b1111001 #"
#324
b1111001 1
b10101001 m
b10000010 #"
#325
b10000010 1
b10101010 m
b11011101 #"
#326
b11011101 1
b10101011 m
b1101111 #"
#327
b1101111 1
b10101100 m
b10000001 #"
#328
b10000001 1
b10101101 m
b11011101 #"
#329
b11011101 1
b10101110 m
b1111001 #"
#330
b1111001 1
b10101111 m
b1111111 #"
#331
b1111111 1
b10110000 m
b11011100 #"
#332
b11011100 1
b10110001 m
b1101101 #"
#333
b1101101 1
b10110010 m
b10000011 #"
#334
b10000011 1
b10110011 m
b11011111 #"
#335
b11011111 1
b10110100 m
b1100111 #"
#336
b1100111 1
b10110101 m
b1111111 #"
#337
b1111111 1
b10110110 m
b11100001 #"
#338
b11100001 1
b10110111 m
b1101101 #"
#339
b1101101 1
b10111000 m
b10000110 #"
#340
b10000110 1
b10111001 m
b11011111 #"
#341
b11011111 1
b10111010 m
b1101010 #"
#342
b1101010 1
b10111011 m
b10000000 #"
#343
b10000000 1
b10111100 m
b11100010 #"
#344
b11100010 1
b10111101 m
b1111010 #"
#345
b1111010 1
b10111110 m
b10000111 #"
#346
b10000111 1
b10111111 m
b11011111 #"
1O"
#347
b1 "
b1 .
b11011111 1
b0 m
b1110000 #"
0O"
#348
b1100100 1
b1110000 e
b1 m
b10000101 #"
b11 9"
#349
b10000000 ]
b10000101 e
b10 m
b11100001 #"
#350
b10000101 ]
b11100001 e
b11 m
b1111100 #"
#351
b1111100 e
b100 m
b10010000 #"
#352
b10010000 e
b101 m
b11100011 #"
#353
b11100011 e
b110 m
b1101000 #"
#354
b1101000 e
b111 m
b10000111 #"
#355
b10000111 e
b1000 m
b11100101 #"
#356
b11100101 e
b1001 m
b1111011 #"
#357
b1111011 e
b1010 m
b10001110 #"
#358
b10001110 e
b1011 m
b11100111 #"
#359
b11100111 e
b1100 m
b1110100 #"
#360
b1110100 e
b1101 m
b10001111 #"
#361
b10001111 e
b1110 m
b11100111 #"
#362
b11100111 e
b1111 m
b1110000 #"
#363
b1110000 e
b10000 m
b10001110 #"
#364
b10001110 e
b10001 m
b11101000 #"
#365
b11101000 e
b10010 m
b1110101 #"
#366
b1110101 e
b10011 m
b10001111 #"
#367
b10001111 e
b10100 m
b11100110 #"
#368
b11100110 e
b10101 m
b1111001 #"
#369
b1111001 e
b10110 m
b10010110 #"
#370
b10010110 e
b10111 m
b11101001 #"
#371
b11101001 e
b11000 m
b1111001 #"
#372
b1111001 e
b11001 m
b10010100 #"
#373
b10010100 e
b11010 m
b11101010 #"
#374
b11101010 e
b11011 m
b1111011 #"
#375
b1111011 e
b11100 m
b10011010 #"
#376
b10011010 e
b11101 m
b11101101 #"
#377
b11101101 e
b11110 m
b1111001 #"
#378
b1111001 e
b11111 m
b10011001 #"
#379
b10011001 e
b100000 m
b11101001 #"
#380
b11101001 e
b100001 m
b1111001 #"
#381
b1111001 e
b100010 m
b10010101 #"
#382
b10010101 e
b100011 m
b11100111 #"
#383
b11100111 e
b100100 m
b1110111 #"
#384
b1110111 e
b100101 m
b10010101 #"
#385
b10010101 e
b100110 m
b11101101 #"
#386
b11101101 e
b100111 m
b1110100 #"
#387
b1110100 e
b101000 m
b10010101 #"
#388
b10010101 e
b101001 m
b11101110 #"
#389
b11101110 e
b101010 m
b1110110 #"
#390
b1110110 e
b101011 m
b10001111 #"
#391
b10001111 e
b101100 m
b11101010 #"
#392
b11101010 e
b101101 m
b1111010 #"
#393
b1111010 e
b101110 m
b10011010 #"
#394
b10011010 e
b101111 m
b11101011 #"
#395
b11101011 e
b110000 m
b1110100 #"
#396
b1110100 e
b110001 m
b10010001 #"
#397
b10010001 e
b110010 m
b11101010 #"
#398
b11101010 e
b110011 m
b1111001 #"
#399
b1111001 e
b110100 m
b10001110 #"
#400
b10001110 e
b110101 m
b11101000 #"
#401
b11101000 e
b110110 m
b1110000 #"
#402
b1110000 e
b110111 m
b10000111 #"
#403
b10000111 e
b111000 m
b11101001 #"
#404
b11101001 e
b111001 m
b1111001 #"
#405
b1111001 e
b111010 m
b10000101 #"
#406
b10000101 e
b111011 m
b11100110 #"
#407
b11100110 e
b111100 m
b1100010 #"
#408
b1100010 e
b111101 m
b1110110 #"
#409
b1110110 e
b111110 m
b11100011 #"
#410
b11100011 e
b111111 m
b1101001 #"
#411
b1101001 e
b1000000 m
b1111000 #"
#412
b1111000 e
b1000001 m
b11011101 #"
#413
b11011101 e
b1000010 m
b1111111 #"
#414
b1111111 e
b1000011 m
#415
b1000100 m
b11011011 #"
#416
b11011011 e
b1000101 m
b1101101 #"
#417
b1101101 e
b1000110 m
b1101110 #"
#418
b1101110 e
b1000111 m
b11010101 #"
#419
b11010101 e
b1001000 m
b1100111 #"
#420
b1100111 e
b1001001 m
b1100010 #"
#421
b1100010 e
b1001010 m
b11001011 #"
#422
b11001011 e
b1001011 m
b1011011 #"
#423
b1011011 e
b1001100 m
b1010010 #"
#424
b1010010 e
b1001101 m
b11001010 #"
#425
b11001010 e
b1001110 m
b1100010 #"
#426
b1100010 e
b1001111 m
b1010110 #"
#427
b1010110 e
b1010000 m
b10111011 #"
#428
b10111011 e
b1010001 m
b1011100 #"
#429
b1011100 e
b1010010 m
b1001010 #"
#430
b1001010 e
b1010011 m
b10101110 #"
#431
b10101110 e
b1010100 m
b1010100 #"
#432
b1010100 e
b1010101 m
b111111 #"
#433
b111111 e
b1010110 m
b10101001 #"
#434
b10101001 e
b1010111 m
b1010101 #"
#435
b1010101 e
b1011000 m
b1000001 #"
#436
b1000001 e
b1011001 m
b10100110 #"
#437
b10100110 e
b1011010 m
b1011001 #"
#438
b1011001 e
b1011011 m
b111111 #"
#439
b111111 e
b1011100 m
b10011110 #"
#440
b10011110 e
b1011101 m
b1100000 #"
#441
b1100000 e
b1011110 m
b111101 #"
#442
b111101 e
b1011111 m
b10011001 #"
#443
b10011001 e
b1100000 m
b1010000 #"
#444
b1010000 e
b1100001 m
b110111 #"
#445
b110111 e
b1100010 m
b10011011 #"
#446
b10011011 e
b1100011 m
b1100010 #"
#447
b1100010 e
b1100100 m
b1000011 #"
#448
b1000011 e
b1100101 m
b10011101 #"
#449
b10011101 e
b1100110 m
b1011101 #"
#450
b1011101 e
b1100111 m
b1001000 #"
#451
b1001000 e
b1101000 m
b10100110 #"
#452
b10100110 e
b1101001 m
b1010010 #"
#453
b1010010 e
b1101010 m
b1000010 #"
#454
b1000010 e
b1101011 m
b10100001 #"
#455
b10100001 e
b1101100 m
b1011001 #"
#456
b1011001 e
b1101101 m
b1001001 #"
#457
b1001001 e
b1101110 m
b10100110 #"
#458
b10100110 e
b1101111 m
b1010111 #"
#459
b1010111 e
b1110000 m
b1000101 #"
#460
b1000101 e
b1110001 m
b10100101 #"
#461
b10100101 e
b1110010 m
b1011011 #"
#462
b1011011 e
b1110011 m
b1001001 #"
#463
b1001001 e
b1110100 m
b10101001 #"
#464
b10101001 e
b1110101 m
b1011010 #"
#465
b1011010 e
b1110110 m
b1001010 #"
#466
b1001010 e
b1110111 m
b10101010 #"
#467
b10101010 e
b1111000 m
b1011100 #"
#468
b1011100 e
b1111001 m
b1001001 #"
#469
b1001001 e
b1111010 m
b10101110 #"
#470
b10101110 e
b1111011 m
b1011000 #"
#471
b1011000 e
b1111100 m
b1001001 #"
#472
b1001001 e
b1111101 m
b10101110 #"
#473
b10101110 e
b1111110 m
b1011010 #"
#474
b1011010 e
b1111111 m
b1000110 #"
#475
b1000110 e
b10000000 m
b10101111 #"
#476
b10101111 e
b10000001 m
b1011101 #"
#477
b1011101 e
b10000010 m
b1001110 #"
#478
b1001110 e
b10000011 m
b10110100 #"
#479
b10110100 e
b10000100 m
b1011000 #"
#480
b1011000 e
b10000101 m
b1010000 #"
#481
b1010000 e
b10000110 m
b10110001 #"
#482
b10110001 e
b10000111 m
b1010110 #"
#483
b1010110 e
b10001000 m
b1001100 #"
#484
b1001100 e
b10001001 m
b10110010 #"
#485
b10110010 e
b10001010 m
b1011000 #"
#486
b1011000 e
b10001011 m
b1001011 #"
#487
b1001011 e
b10001100 m
b10110001 #"
#488
b10110001 e
b10001101 m
b1010011 #"
#489
b1010011 e
b10001110 m
b1001001 #"
#490
b1001001 e
b10001111 m
b10110001 #"
#491
b10110001 e
b10010000 m
b1010011 #"
#492
b1010011 e
b10010001 m
b1001000 #"
#493
b1001000 e
b10010010 m
b10101111 #"
#494
b10101111 e
b10010011 m
b1011001 #"
#495
b1011001 e
b10010100 m
b1010000 #"
#496
b1010000 e
b10010101 m
b10101111 #"
#497
b10101111 e
b10010110 m
b1011100 #"
#498
b1011100 e
b10010111 m
b1010000 #"
#499
b1010000 e
b10011000 m
b10101101 #"
#500
b10101101 e
b10011001 m
b1011001 #"
#501
b1011001 e
b10011010 m
b1001110 #"
#502
b1001110 e
b10011011 m
b10110011 #"
#503
b10110011 e
b10011100 m
b1010111 #"
#504
b1010111 e
b10011101 m
b1001101 #"
#505
b1001101 e
b10011110 m
b10110001 #"
#506
b10110001 e
b10011111 m
b1011001 #"
#507
b1011001 e
b10100000 m
b1001011 #"
#508
b1001011 e
b10100001 m
b10110010 #"
#509
b10110010 e
b10100010 m
b1011001 #"
#510
b1011001 e
b10100011 m
b1001011 #"
#511
b1001011 e
b10100100 m
b10110001 #"
#512
b10110001 e
b10100101 m
b1010110 #"
#513
b1010110 e
b10100110 m
b1001100 #"
#514
b1001100 e
b10100111 m
b10110010 #"
#515
b10110010 e
b10101000 m
b1011010 #"
#516
b1011010 e
b10101001 m
b1001110 #"
#517
b1001110 e
b10101010 m
b10110110 #"
#518
b10110110 e
b10101011 m
b1010111 #"
#519
b1010111 e
b10101100 m
b1001110 #"
#520
b1001110 e
b10101101 m
b10110010 #"
#521
b10110010 e
b10101110 m
b1010100 #"
#522
b1010100 e
b10101111 m
b1001011 #"
#523
b1001011 e
b10110000 m
b10110010 #"
#524
b10110010 e
b10110001 m
b1011000 #"
#525
b1011000 e
b10110010 m
b1001110 #"
#526
b1001110 e
b10110011 m
b10110011 #"
#527
b10110011 e
b10110100 m
b1011101 #"
#528
b1011101 e
b10110101 m
b1001110 #"
#529
b1001110 e
b10110110 m
b10110000 #"
#530
b10110000 e
b10110111 m
b1010110 #"
#531
b1010110 e
b10111000 m
b1001111 #"
#532
b1001111 e
b10111001 m
b10110011 #"
#533
b10110011 e
b10111010 m
b1011101 #"
#534
b1011101 e
b10111011 m
b1001110 #"
#535
b1001110 e
b10111100 m
b10110010 #"
#536
b10110010 e
b10111101 m
b1010111 #"
#537
b1010111 e
b10111110 m
b1001110 #"
#538
b1001110 e
b10111111 m
b10101110 #"
1O"
#539
b10 "
b10 .
b10101110 e
b0 m
b1010010 #"
0O"
#540
b1110000 e
b1 m
b1001001 #"
#541
b10 m
b10101101 #"
#542
b11 m
b1010100 #"
#543
b100 m
b1001011 #"
#544
b101 m
b10101110 #"
#545
b110 m
b1010001 #"
#546
b111 m
b1001001 #"
#547
b1000 m
b10110011 #"
#548
b1001 m
b1010110 #"
#549
b1010 m
b1001011 #"
#550
b1011 m
b10110100 #"
#551
b1100 m
b1010011 #"
#552
b1101 m
b1001111 #"
#553
b1110 m
b10110001 #"
#554
b1111 m
b1011001 #"
#555
b10000 m
b1001111 #"
#556
b10001 m
b10110110 #"
#557
b10010 m
b1011100 #"
#558
b10011 m
b1011001 #"
#559
b10100 m
b10110110 #"
#560
b10101 m
b1010110 #"
#561
b10110 m
b1001101 #"
#562
b10111 m
b10111001 #"
#563
b11000 m
b1011000 #"
#564
b11001 m
b1010001 #"
#565
b11010 m
b10111011 #"
#566
b11011 m
b1011011 #"
#567
b11100 m
b1010110 #"
#568
b11101 m
b10111110 #"
#569
b11110 m
b1011100 #"
#570
b11111 m
b1011010 #"
#571
b100000 m
b11000010 #"
#572
b100001 m
b1011000 #"
#573
b100010 m
b1010110 #"
#574
b100011 m
b11000010 #"
#575
b100100 m
b1010011 #"
#576
b100101 m
b1001110 #"
#577
b100110 m
b10111110 #"
#578
b100111 m
b1011101 #"
#579
b101000 m
b1011001 #"
#580
b101001 m
b11000111 #"
#581
b101010 m
b1011010 #"
#582
b101011 m
b1011001 #"
#583
b101100 m
b11000011 #"
#584
b101101 m
b1011000 #"
#585
b101110 m
b1011100 #"
#586
b101111 m
b11000001 #"
#587
b110000 m
b1011111 #"
#588
b110001 m
#589
b110010 m
b11000011 #"
#590
b110011 m
b1010101 #"
#591
b110100 m
b1011100 #"
#592
b110101 m
b11000100 #"
#593
b110110 m
b1100001 #"
#594
b110111 m
b1011010 #"
#595
b111000 m
b11000000 #"
#596
b111001 m
b1010110 #"
#597
b111010 m
b1011100 #"
#598
b111011 m
b11001001 #"
#599
b111100 m
b1011011 #"
#600
b111101 m
#601
b111110 m
b11001011 #"
#602
b111111 m
b1011110 #"
#603
b1000000 m
b1100101 #"
#604
b1000001 m
b11001010 #"
#605
b1000010 m
b1011111 #"
#606
b1000011 m
b1100001 #"
#607
b1000100 m
b11001110 #"
#608
b1000101 m
b1011010 #"
#609
b1000110 m
b1011100 #"
#610
b1000111 m
b11000101 #"
#611
b1001000 m
b1011000 #"
#612
b1001001 m
b1011001 #"
#613
b1001010 m
b11001001 #"
#614
b1001011 m
b1011101 #"
#615
b1001100 m
b1011110 #"
#616
b1001101 m
b11001101 #"
#617
b1001110 m
b1100000 #"
#618
b1001111 m
b1101000 #"
#619
b1010000 m
b11001010 #"
#620
b1010001 m
b1011110 #"
#621
b1010010 m
b1100100 #"
#622
b1010011 m
b11001110 #"
#623
b1010100 m
b1100000 #"
#624
b1010101 m
b1100101 #"
#625
b1010110 m
b11001101 #"
#626
b1010111 m
b1011101 #"
#627
b1011000 m
b1100000 #"
#628
b1011001 m
b11001111 #"
#629
b1011010 m
b1100101 #"
#630
b1011011 m
b1101000 #"
#631
b1011100 m
b11010001 #"
#632
b1011101 m
b1011111 #"
#633
b1011110 m
b1100010 #"
#634
b1011111 m
b11001011 #"
#635
b1100000 m
b1011101 #"
#636
b1100001 m
b1100000 #"
#637
b1100010 m
b11001100 #"
#638
b1100011 m
b1101000 #"
#639
b1100100 m
b1100010 #"
#640
b1100101 m
b11001101 #"
#641
b1100110 m
b1100110 #"
#642
b1100111 m
b1100100 #"
#643
b1101000 m
b11001010 #"
#644
b1101001 m
b1011101 #"
#645
b1101010 m
b1011111 #"
#646
b1101011 m
b11001100 #"
#647
b1101100 m
b1101111 #"
#648
b1101101 m
b1101010 #"
#649
b1101110 m
b11001000 #"
#650
b1101111 m
b1100010 #"
#651
b1110000 m
b1101100 #"
#652
b1110001 m
b11001110 #"
#653
b1110010 m
b1100101 #"
#654
b1110011 m
b1100110 #"
#655
b1110100 m
b11001100 #"
#656
b1110101 m
b1100110 #"
#657
b1110110 m
b1100111 #"
#658
b1110111 m
b11001110 #"
#659
b1111000 m
b1011110 #"
#660
b1111001 m
b1100100 #"
#661
b1111010 m
b11001111 #"
#662
b1111011 m
b1100011 #"
#663
b1111100 m
b1100100 #"
#664
b1111101 m
b11001100 #"
#665
b1111110 m
b1011111 #"
#666
b1111111 m
b1100000 #"
#667
b10000000 m
b11001011 #"
#668
b10000001 m
b1011011 #"
#669
b10000010 m
b1100011 #"
#670
b10000011 m
b11001110 #"
#671
b10000100 m
b1100111 #"
#672
b10000101 m
b1101000 #"
#673
b10000110 m
b11001101 #"
#674
b10000111 m
b1011010 #"
#675
b10001000 m
b1011011 #"
#676
b10001001 m
b11001111 #"
#677
b10001010 m
b1100001 #"
#678
b10001011 m
b1100010 #"
#679
b10001100 m
b11001011 #"
#680
b10001101 m
b1011011 #"
#681
b10001110 m
b1011111 #"
#682
b10001111 m
b11001001 #"
#683
b10010000 m
b1100010 #"
#684
b10010001 m
b1101001 #"
#685
b10010010 m
b11001010 #"
#686
b10010011 m
b1011100 #"
#687
b10010100 m
b1100101 #"
#688
b10010101 m
b11001011 #"
#689
b10010110 m
b1011101 #"
#690
b10010111 m
b1100010 #"
#691
b10011000 m
b11001100 #"
#692
b10011001 m
b1011111 #"
#693
b10011010 m
b1100101 #"
#694
b10011011 m
b11001010 #"
#695
b10011100 m
b1010110 #"
#696
b10011101 m
b1100001 #"
#697
b10011110 m
b11001101 #"
#698
b10011111 m
b1101010 #"
#699
b10100000 m
b1100110 #"
#700
b10100001 m
b11001001 #"
#701
b10100010 m
b1011101 #"
#702
b10100011 m
b1100001 #"
#703
b10100100 m
b11001100 #"
#704
b10100101 m
b1011111 #"
#705
b10100110 m
b1100001 #"
#706
b10100111 m
b11001010 #"
#707
b10101000 m
b1100111 #"
#708
b10101001 m
b1101001 #"
#709
b10101010 m
b11001101 #"
#710
b10101011 m
b1011011 #"
#711
b10101100 m
b1101000 #"
#712
b10101101 m
b11001111 #"
#713
b10101110 m
b1101110 #"
#714
b10101111 m
b1101001 #"
#715
b10110000 m
b11001110 #"
#716
b10110001 m
b1100101 #"
#717
b10110010 m
b1100111 #"
#718
b10110011 m
b11001110 #"
#719
b10110100 m
b1011011 #"
#720
b10110101 m
b1011111 #"
#721
b10110110 m
b11001110 #"
#722
b10110111 m
b1100001 #"
#723
b10111000 m
b1100110 #"
#724
b10111001 m
b11010100 #"
#725
b10111010 m
b1011101 #"
#726
b10111011 m
b1100001 #"
#727
b10111100 m
b11010010 #"
#728
b10111101 m
b1100110 #"
#729
b10111110 m
b1101001 #"
#730
b10111111 m
b11001101 #"
1O"
#731
b11 "
b11 .
b0 m
b1011111 #"
0O"
#732
b1 m
b1100110 #"
b100 9"
#733
b10 m
b11001111 #"
#734
b11 m
b1100011 #"
#735
b100 m
b1100110 #"
#736
b101 m
b11010000 #"
#737
b110 m
b1100101 #"
#738
b111 m
b1100111 #"
#739
b1000 m
b11001111 #"
#740
b1001 m
b1101000 #"
#741
b1010 m
b1100111 #"
#742
b1011 m
b11010010 #"
#743
b1100 m
b1011110 #"
#744
b1101 m
b1100011 #"
#745
b1110 m
b11010010 #"
#746
b1111 m
b1100110 #"
#747
b10000 m
b1100111 #"
#748
b10001 m
b11010010 #"
#749
b10010 m
b1011011 #"
#750
b10011 m
b1100000 #"
#751
b10100 m
b11010110 #"
#752
b10101 m
b1100110 #"
#753
b10110 m
b1101010 #"
#754
b10111 m
b11010001 #"
#755
b11000 m
b1100100 #"
#756
b11001 m
b1100110 #"
#757
b11010 m
b11010011 #"
#758
b11011 m
b1100100 #"
#759
b11100 m
b1100011 #"
#760
b11101 m
b11010010 #"
#761
b11110 m
b1100100 #"
#762
b11111 m
b1100110 #"
#763
b100000 m
b11010000 #"
#764
b100001 m
b1100000 #"
#765
b100010 m
b1100101 #"
#766
b100011 m
b11010011 #"
#767
b100100 m
b1100110 #"
#768
b100101 m
b1101010 #"
#769
b100110 m
b11010001 #"
#770
b100111 m
b1100001 #"
