bmp_hdmi_test2/.Xil/Vivado-20836-DESKTOP-3OAFHV8/hw_ila_data_1/zip_work/waveform.vcd
$date
        2025-Jan-04 01:23:18
$end
$version
        Vivado v2020.2 (64-bit)
$end
$timescale
        1ps
$end
$scope module dut $end
$var reg 8 " system_i/Bic_top_0/inst/m_axis_tdata [7:0] $end
$var reg 9 * system_i/Bic_top_0/inst/writeRowCount [8:0] $end
$var reg 12 3 system_i/Bic_top_0/inst/writeColCount [11:0] $end
$var reg 8 ? system_i/Bic_top_0/inst/s_axis_tdata [7:0] $end
$var reg 1 G system_i/Bic_top_0/inst/forceRead $end
$var reg 1 H system_i/Bic_top_0/inst/i_vid_vs $end
$var reg 1 I system_i/Bic_top_0/inst/m_axis_tlast $end
$var reg 1 J system_i/Bic_top_0/inst/m_axis_tready $end
$var reg 1 K system_i/Bic_top_0/inst/m_axis_tvalid $end
$var reg 1 L system_i/Bic_top_0/inst/s_axis_tlast $end
$var reg 1 M system_i/Bic_top_0/inst/s_axis_tready $end
$var reg 1 N system_i/Bic_top_0/inst/s_axis_tvalid $end
$var reg 1 O _TRIGGER $end
$var reg 1 P _WINDOW $end
$var reg 1 Q _GAP $end
$upscope $end
$enddefinitions $end
#0
$dumpvars
b0 "
b0 *
b0 3
b0 ?
0G
0H
0I
1J
0K
0L
1M
0N
0O
1P
0Q
$end
#833
b1100100 ?
1N
#834
b1011111 ?
1H
#835
b11000100 ?
0H
#836
b1101100 ?
#837
b1 3
b1100101 ?
#838
b10 3
b11000100 ?
#839
b11 3
b1011011 ?
#840
b100 3
b1011111 ?
#841
b101 3
b11000000 ?
#842
b110 3
b1100101 ?
#843
b111 3
b1100001 ?
#844
b1000 3
b11000010 ?
#845
b1001 3
b1011101 ?
#846
b1010 3
#847
b1011 3
b11000111 ?
#848
b1100 3
b1011001 ?
#849
b1101 3
#850
b1110 3
b11000100 ?
#851
b1111 3
b1100100 ?
#852
b10000 3
b1100101 ?
#853
b10001 3
b11000100 ?
#854
b10010 3
b1100000 ?
#855
b10011 3
b1011111 ?
#856
b10100 3
b11000001 ?
#857
b10101 3
b1010110 ?
#858
b10110 3
b1100001 ?
#859
b10111 3
b11000101 ?
#860
b11000 3
b1101001 ?
#861
b11001 3
b1100001 ?
#862
b11010 3
b11000010 ?
#863
b11011 3
b1011010 ?
#864
b11100 3
b1011000 ?
#865
b11101 3
b11000000 ?
#866
b11110 3
b1100000 ?
#867
b11111 3
b1011110 ?
#868
b100000 3
b10111110 ?
#869
b100001 3
b1011101 ?
#870
b100010 3
b1010010 ?
#871
b100011 3
b10111001 ?
#872
b100100 3
b1011011 ?
#873
b100101 3
#874
b100110 3
b10111111 ?
#875
b100111 3
b1011000 ?
#876
b101000 3
b1010100 ?
#877
b101001 3
b10111100 ?
#878
b101010 3
b1100000 ?
#879
b101011 3
b1011000 ?
#880
b101100 3
b10111101 ?
#881
b101101 3
b1011001 ?
#882
b101110 3
#883
b101111 3
b10111011 ?
#884
b110000 3
b1011010 ?
#885
b110001 3
b1010100 ?
#886
b110010 3
b10111010 ?
#887
b110011 3
b1100110 ?
#888
b110100 3
b1011011 ?
#889
b110101 3
b10111001 ?
#890
b110110 3
b1011110 ?
#891
b110111 3
b1011101 ?
#892
b111000 3
b11000100 ?
#893
b111001 3
b1101000 ?
#894
b111010 3
b1101011 ?
#895
b111011 3
b11010011 ?
#896
b111100 3
b10000011 ?
#897
b111101 3
b10001011 ?
#898
b111110 3
b11100000 ?
#899
b111111 3
b10000001 ?
#900
b1000000 3
b10010000 ?
#901
b1000001 3
b11100101 ?
#902
b1000010 3
b1111110 ?
#903
b1000011 3
b10010011 ?
#904
b1000100 3
b11100111 ?
#905
b1000101 3
b1111011 ?
#906
b1000110 3
b10010101 ?
#907
b1000111 3
b11101010 ?
#908
b1001000 3
b1111010 ?
#909
b1001001 3
b10010100 ?
#910
b1001010 3
b11100110 ?
#911
b1001011 3
b1101110 ?
#912
b1001100 3
b10000010 ?
#913
b1001101 3
b11011101 ?
#914
b1001110 3
b1011010 ?
#915
b1001111 3
b1100011 ?
#916
b1010000 3
b11001000 ?
#917
b1010001 3
b1111101 ?
#918
b1010010 3
b10001001 ?
#919
b1010011 3
b11100010 ?
#920
b1010100 3
b1111101 ?
#921
b1010101 3
b10001001 ?
#922
b1010110 3
b11100010 ?
#923
b1010111 3
b10000101 ?
#924
b1011000 3
b10001001 ?
#925
b1011001 3
b11011111 ?
#926
b1011010 3
b10000000 ?
#927
b1011011 3
b10001000 ?
#928
b1011100 3
b11011111 ?
#929
b1011101 3
b1111000 ?
#930
b1011110 3
b10001010 ?
#931
b1011111 3
b11100010 ?
#932
b1100000 3
b1110100 ?
#933
b1100001 3
b10000001 ?
#934
b1100010 3
b11100010 ?
#935
b1100011 3
b1111011 ?
#936
b1100100 3
b10001010 ?
#937
b1100101 3
b11100100 ?
#938
b1100110 3
b1111100 ?
#939
b1100111 3
b10000110 ?
#940
b1101000 3
b11100011 ?
#941
b1101001 3
b1111111 ?
#942
b1101010 3
b10001100 ?
#943
b1101011 3
b11100011 ?
#944
b1101100 3
b1110111 ?
#945
b1101101 3
b10001000 ?
#946
b1101110 3
b11100001 ?
#947
b1101111 3
b1111110 ?
#948
b1110000 3
b10000111 ?
#949
b1110001 3
b11100100 ?
#950
b1110010 3
b1111001 ?
#951
b1110011 3
b10000110 ?
#952
b1110100 3
b11100001 ?
#953
b1110101 3
b1101100 ?
#954
b1110110 3
b10000010 ?
#955
b1110111 3
b11011111 ?
#956
b1111000 3
b1110111 ?
#957
b1111001 3
b10001011 ?
#958
b1111010 3
b11100010 ?
#959
b1111011 3
b1111000 ?
#960
b1111100 3
b10000111 ?
#961
b1111101 3
b11011111 ?
#962
b1111110 3
b1110010 ?
#963
b1111111 3
b10000001 ?
#964
b10000000 3
b11011101 ?
#965
b10000001 3
b1101100 ?
#966
b10000010 3
b10000110 ?
#967
b10000011 3
b11011101 ?
#968
b10000100 3
b1110001 ?
#969
b10000101 3
b10000011 ?
#970
b10000110 3
b11011101 ?
#971
b10000111 3
b1111001 ?
#972
b10001000 3
b10001010 ?
#973
b10001001 3
b11011110 ?
#974
b10001010 3
b1110010 ?
#975
b10001011 3
b10001011 ?
#976
b10001100 3
b11011110 ?
#977
b10001101 3
b1101101 ?
#978
b10001110 3
b1111111 ?
#979
b10001111 3
b11011111 ?
#980
b10010000 3
b1101001 ?
#981
b10010001 3
b10000100 ?
#982
b10010010 3
b11011111 ?
#983
b10010011 3
b1100110 ?
#984
b10010100 3
b10000001 ?
#985
b10010101 3
b11100000 ?
#986
b10010110 3
b1101101 ?
#987
b10010111 3
b10000110 ?
#988
b10011000 3
b11011101 ?
#989
b10011001 3
b1101110 ?
#990
b10011010 3
b10000011 ?
#991
b10011011 3
b11011010 ?
#992
b10011100 3
b1110001 ?
#993
b10011101 3
b10000101 ?
#994
b10011110 3
b11011101 ?
#995
b10011111 3
b1101100 ?
#996
b10100000 3
b10000010 ?
#997
b10100001 3
b11011111 ?
#998
b10100010 3
b1100010 ?
#999
b10100011 3
b1111101 ?
#1000
b10100100 3
b11100001 ?
#1001
b10100101 3
b1111001 ?
#1002
b10100110 3
b10000010 ?
#1003
b10100111 3
b11011101 ?
#1004
b10101000 3
b1101111 ?
#1005
b10101001 3
b10000001 ?
#1006
b10101010 3
b11011101 ?
#1007
b10101011 3
b1111001 ?
#1008
b10101100 3
b1111111 ?
#1009
b10101101 3
b11011100 ?
#1010
b10101110 3
b1101101 ?
#1011
b10101111 3
b10000011 ?
#1012
b10110000 3
b11011111 ?
#1013
b10110001 3
b1100111 ?
#1014
b10110010 3
b1111111 ?
#1015
b10110011 3
b11100001 ?
#1016
b10110100 3
b1101101 ?
#1017
b10110101 3
b10000110 ?
#1018
b10110110 3
b11011111 ?
#1019
b10110111 3
b1101010 ?
#1020
b10111000 3
b10000000 ?
#1021
b10111001 3
b11100010 ?
#1022
b10111010 3
b1111010 ?
#1023
b10111011 3
b10000111 ?
#1024
b10111100 3
b11011111 ?
1L
1O
#1025
b10111101 3
b11100010 ?
0L
0N
