bmp_hdmi_test3/.Xil/Vivado-9388-DESKTOP-3OAFHV8/hw_ila_data_1/zip_work/waveform.vcd
$date
        2025-Jan-17 22:54:09
$end
$version
        Vivado v2020.2 (64-bit)
$end
$timescale
        1ps
$end
$scope module dut $end
$var reg 8 " system_i/Bic_top_0/inst/m_axis_tdata [7:0] $end
$var reg 9 * system_i/Bic_top_0/inst/coeff00 [8:0] $end
$var reg 3 3 system_i/Bic_top_0/inst/fillCount [2:0] $end
$var reg 9 6 system_i/Bic_top_0/inst/coeff11 [8:0] $end
$var reg 8 ? system_i/Bic_top_0/inst/o_vout_data [7:0] $end
$var reg 9 G system_i/Bic_top_0/inst/coeff10 [8:0] $end
$var reg 12 P system_i/Bic_top_0/inst/outputColumn [11:0] $end
$var reg 8 \ system_i/Bic_top_0/inst/readData00 [7:0] $end
$var reg 9 d system_i/Bic_top_0/inst/coeff01 [8:0] $end
$var reg 12 m system_i/Bic_top_0/inst/writeNextValidLine [11:0] $end
$var reg 12 y system_i/Bic_top_0/inst/writeColCount [11:0] $end
$var reg 8 '" system_i/Bic_top_0/inst/readData10 [7:0] $end
$var reg 8 /" system_i/Bic_top_0/inst/readData01 [7:0] $end
$var reg 8 7" system_i/Bic_top_0/inst/readData11 [7:0] $end
$var reg 12 ?" system_i/Bic_top_0/inst/writeRowCount [11:0] $end
$var reg 12 K" system_i/Bic_top_0/inst/yPixLowNext [11:0] $end
$var reg 8 W" system_i/Bic_top_0/inst/s_axis_tdata [7:0] $end
$var reg 12 _" system_i/Bic_top_0/inst/xPixLow [11:0] $end
$var reg 2 k" system_i/Bic_top_0/inst/writeState [1:0] $end
$var reg 12 m" system_i/Bic_top_0/inst/yPixLow [11:0] $end
$var reg 1 y" system_i/Bic_top_0/inst/advanceRead1 $end
$var reg 1 z" system_i/Bic_top_0/inst/advanceRead2 $end
$var reg 1 {" system_i/Bic_top_0/inst/advanceWrite $end
$var reg 1 |" system_i/Bic_top_0/inst/allDataWritten $end
$var reg 1 }" system_i/Bic_top_0/inst/discardInput $end
$var reg 1 ~" system_i/Bic_top_0/inst/enableNextDin $end
$var reg 1 !# system_i/Bic_top_0/inst/forceRead $end
$var reg 1 "# system_i/Bic_top_0/inst/i_vid_de $end
$var reg 1 ## system_i/Bic_top_0/inst/i_vout_read $end
$var reg 1 $# system_i/Bic_top_0/inst/m_axis_tready $end
$var reg 1 %# system_i/Bic_top_0/inst/m_axis_tvalid $end
$var reg 1 &# system_i/Bic_top_0/inst/o_vid_fifo_read $end
$var reg 1 '# system_i/Bic_top_0/inst/readState $end
$var reg 1 (# system_i/Bic_top_0/inst/s_axis_tlast $end
$var reg 1 )# system_i/Bic_top_0/inst/s_axis_tready $end
$var reg 1 *# system_i/Bic_top_0/inst/s_axis_tvalid $end
$var reg 1 +# _TRIGGER $end
$var reg 1 ,# _WINDOW $end
$var reg 1 -# _GAP $end
$upscope $end
$enddefinitions $end
#0
$dumpvars
b1100001 "
b100000000 *
b1 3
b0 6
b1100001 ?
b0 G
b0 P
b1100001 \
b0 d
b101 m
b10000000000 y
b1011000 '"
b1011101 /"
b1100011 7"
b100 ?"
b11 K"
b1010011 W"
b0 _"
b10 k"
b11 m"
0y"
0z"
0{"
0|"
0}"
1~"
0!#
1"#
1##
0$#
1%#
1&#
1'#
0(#
1)#
1*#
0+#
1,#
0-#
$end
#1
b10000000001 y
b1010011 '"
b10110111 W"
#2
b10000000010 y
b10110111 '"
b1011000 W"
#3
b10000000011 y
b1011000 '"
b1010101 W"
#4
b10000000100 y
b1010101 '"
b10110010 W"
#5
b10000000101 y
b10110010 '"
b1100001 W"
#6
b10000000110 y
b1100001 '"
b1010011 W"
#7
b10000000111 y
b1010011 '"
b10111101 W"
#8
b10000001000 y
b10111101 '"
b1010110 W"
#9
b10000001001 y
b1010110 '"
b1001101 W"
#10
b10000001010 y
b1001101 '"
b10111011 W"
#11
b10000001011 y
b10111011 '"
b1010001 W"
#12
b10000001100 y
b1010001 '"
b1001100 W"
#13
b10000001101 y
b1001100 '"
b10110000 W"
#14
b10000001110 y
b10110000 '"
b1011001 W"
#15
b10000001111 y
b1011001 '"
b1001100 W"
#16
b10000010000 y
b1001100 '"
b10101010 W"
#17
b10000010001 y
b10101010 '"
b1011011 W"
#18
b10000010010 y
b1011011 '"
b1001111 W"
#19
b10000010011 y
b1001111 '"
b10101110 W"
#20
b10000010100 y
b10101110 '"
b1010000 W"
#21
b10000010101 y
b1010000 '"
b1000011 W"
#22
b10000010110 y
b1000011 '"
b10101010 W"
#23
b10000010111 y
b10101010 '"
b1010000 W"
#24
b10000011000 y
b1010000 '"
b1000100 W"
#25
b10000011001 y
b1000100 '"
b10101110 W"
#26
b10000011010 y
b10101110 '"
b1011011 W"
#27
b10000011011 y
b1011011 '"
b1010110 W"
#28
b10000011100 y
b1010110 '"
b10110000 W"
#29
b10000011101 y
b10110000 '"
b1010010 W"
#30
b10000011110 y
b1010010 '"
b1010011 W"
#31
b10000011111 y
b1010011 '"
b11000010 W"
#32
b10000100000 y
b11000010 '"
b1011110 W"
#33
b10000100001 y
b1011110 '"
b1011011 W"
#34
b10000100010 y
b1011011 '"
b11000000 W"
#35
b10000100011 y
b11000000 '"
b1011111 W"
#36
b10000100100 y
b1011111 '"
b1011010 W"
#37
b10000100101 y
b1011010 '"
b11000101 W"
#38
b10000100110 y
b11000101 '"
b1011100 W"
#39
b10000100111 y
b1011100 '"
b1100001 W"
#40
b10000101000 y
b1100001 '"
b11000101 W"
#41
b10000101001 y
b11000101 '"
b1101100 W"
#42
b10000101010 y
b1101100 '"
#43
b10000101011 y
b11001011 W"
#44
b10000101100 y
b11001011 '"
b1100100 W"
#45
b10000101101 y
b1100100 '"
b1101011 W"
#46
b10000101110 y
b1101011 '"
b11010011 W"
#47
b10000101111 y
b11010011 '"
b1101100 W"
#48
b10000110000 y
b1101100 '"
b1101111 W"
#49
b10000110001 y
b1101111 '"
b11010011 W"
#50
b10000110010 y
b11010011 '"
b1101101 W"
#51
b10000110011 y
b1101101 '"
b1110011 W"
#52
b10000110100 y
b1110011 '"
b11010010 W"
#53
b10000110101 y
b11010010 '"
b1101001 W"
#54
b10000110110 y
b1101001 '"
b1110110 W"
#55
b10000110111 y
b1110110 '"
b11010110 W"
#56
b10000111000 y
b11010110 '"
b1101011 W"
#57
b10000111001 y
b1101011 '"
b1111010 W"
#58
b10000111010 y
b1111010 '"
b11010110 W"
#59
b10000111011 y
b11010110 '"
b1110111 W"
#60
b10000111100 y
b1110111 '"
b10000011 W"
#61
b10000111101 y
b10000011 '"
b11011010 W"
#62
b10000111110 y
b11011010 '"
b1101111 W"
#63
b10000111111 y
b1101111 '"
b1111110 W"
#64
b10001000000 y
b1111110 '"
b11011011 W"
#65
b10001000001 y
b11011011 '"
b1101100 W"
#66
b10001000010 y
b1101100 '"
b10000001 W"
#67
b10001000011 y
b10000001 '"
b11011101 W"
#68
b10001000100 y
b11011101 '"
b1101110 W"
#69
b10001000101 y
b1101110 '"
b10000011 W"
#70
b10001000110 y
b10000011 '"
b11011010 W"
#71
b10001000111 y
b11011010 '"
b1110000 W"
#72
b10001001000 y
b1110000 '"
b10000100 W"
#73
b10001001001 y
b10000100 '"
b11011110 W"
#74
b10001001010 y
b11011110 '"
b1111000 W"
#75
b10001001011 y
b1111000 '"
b10000110 W"
#76
b10001001100 y
b10000110 '"
b11011100 W"
#77
b10001001101 y
b11011100 '"
b1111000 W"
#78
b10001001110 y
b1111000 '"
b10001100 W"
#79
b10001001111 y
b10001100 '"
b11011111 W"
#80
b10001010000 y
b11011111 '"
b1111000 W"
#81
b10001010001 y
b1111000 '"
b10001000 W"
#82
b10001010010 y
b10001000 '"
b11100000 W"
#83
b10001010011 y
b11100000 '"
b1110000 W"
#84
b10001010100 y
b1110000 '"
b10001000 W"
#85
b10001010101 y
b10001000 '"
b11011111 W"
#86
b10001010110 y
b11011111 '"
b1110110 W"
#87
b10001010111 y
b1110110 '"
b10001001 W"
#88
b10001011000 y
b10001001 '"
b11011100 W"
#89
b10001011001 y
b11011100 '"
b1101000 W"
#90
b10001011010 y
b1101000 '"
b10000001 W"
#91
b10001011011 y
b10000001 '"
b11100001 W"
#92
b10001011100 y
b11100001 '"
b1111011 W"
#93
b10001011101 y
b1111011 '"
b10000101 W"
#94
b10001011110 y
b10000101 '"
b11011110 W"
#95
b10001011111 y
b11011110 '"
b1101111 W"
#96
b10001100000 y
b1101111 '"
b10000100 W"
#97
b10001100001 y
b10000100 '"
b11011101 W"
#98
b10001100010 y
b11011101 '"
b1100010 W"
#99
b10001100011 y
b1100010 '"
b1111011 W"
#100
b10001100100 y
b1111011 '"
b11011101 W"
#101
b10001100101 y
b11011101 '"
b1101001 W"
#102
b10001100110 y
b1101001 '"
b1111101 W"
#103
b10001100111 y
b1111101 '"
b11011110 W"
#104
b10001101000 y
b11011110 '"
b1100100 W"
#105
b10001101001 y
b1100100 '"
b1111010 W"
#106
b10001101010 y
b1111010 '"
b11011110 W"
#107
b10001101011 y
b11011110 '"
b1100001 W"
#108
b10001101100 y
b1100001 '"
b1111110 W"
#109
b10001101101 y
b1111110 '"
b11011101 W"
#110
b10001101110 y
b11011101 '"
b1110100 W"
#111
b10001101111 y
b1110100 '"
b10000000 W"
#112
b10001110000 y
b10000000 '"
b11011110 W"
#113
b10001110001 y
b11011110 '"
b1101011 W"
#114
b10001110010 y
b1101011 '"
b1111111 W"
#115
b10001110011 y
b1111111 '"
b11011100 W"
#116
b10001110100 y
b11011100 '"
b1100001 W"
#117
b10001110101 y
b1100001 '"
b1111000 W"
#118
b10001110110 y
b1111000 '"
b11011100 W"
#119
b10001110111 y
b11011100 '"
b1101011 W"
#120
b10001111000 y
b1101011 '"
b1111110 W"
#121
b10001111001 y
b1111110 '"
b11011110 W"
#122
b10001111010 y
b11011110 '"
b1101101 W"
#123
b10001111011 y
b1101101 '"
b1111111 W"
#124
b10001111100 y
b1111111 '"
b11011111 W"
#125
b10001111101 y
b11011111 '"
b1101000 W"
#126
b10001111110 y
b1101000 '"
b1111111 W"
#127
b10001111111 y
b1111111 '"
b11011101 W"
#128
b10010000000 y
b11011101 '"
b1110000 W"
#129
b10010000001 y
b1110000 '"
b10000000 W"
#130
b10010000010 y
b10000000 '"
b11011100 W"
#131
b10010000011 y
b11011100 '"
b1101100 W"
#132
b10010000100 y
b1101100 '"
b1111101 W"
#133
b10010000101 y
b1111101 '"
b11011101 W"
#134
b10010000110 y
b11011101 '"
b1101011 W"
#135
b10010000111 y
b1101011 '"
b10000001 W"
#136
b10010001000 y
b10000001 '"
b11011011 W"
#137
b10010001001 y
b11011011 '"
b1100110 W"
#138
b10010001010 y
b1100110 '"
b1111011 W"
#139
b10010001011 y
b1111011 '"
b11011111 W"
#140
b10010001100 y
b11011111 '"
b1110101 W"
#141
b10010001101 y
b1110101 '"
b10000010 W"
#142
b10010001110 y
b10000010 '"
b11011010 W"
#143
b10010001111 y
b11011010 '"
b1101011 W"
#144
b10010010000 y
b1101011 '"
b1111101 W"
#145
b10010010001 y
b1111101 '"
b11011101 W"
#146
b10010010010 y
b11011101 '"
b1101110 W"
#147
b10010010011 y
b1101110 '"
b1111101 W"
#148
b10010010100 y
b1111101 '"
b11011110 W"
#149
b10010010101 y
b11011110 '"
b1110100 W"
#150
b10010010110 y
b1110100 '"
b10001001 W"
#151
b10010010111 y
b10001001 '"
b11011111 W"
#152
b10010011000 y
b11011111 '"
b1101101 W"
#153
b10010011001 y
b1101101 '"
b10000010 W"
#154
b10010011010 y
b10000010 '"
b11100000 W"
#155
b10010011011 y
b11100000 '"
b1100110 W"
#156
b10010011100 y
b1100110 '"
b1111110 W"
#157
b10010011101 y
b1111110 '"
b11100000 W"
#158
b10010011110 y
b11100000 '"
b1101100 W"
#159
b10010011111 y
b1101100 '"
b10000001 W"
#160
b10010100000 y
b10000001 '"
b11100001 W"
#161
b10010100001 y
b11100001 '"
b1101010 W"
#162
b10010100010 y
b1101010 '"
b1111111 W"
#163
b10010100011 y
b1111111 '"
b11100000 W"
#164
b10010100100 y
b11100000 '"
b1101001 W"
#165
b10010100101 y
b1101001 '"
b10000011 W"
#166
b10010100110 y
b10000011 '"
b11100001 W"
#167
b10010100111 y
b11100001 '"
b1100011 W"
#168
b10010101000 y
b1100011 '"
b10000010 W"
#169
b10010101001 y
b10000010 '"
b11011101 W"
#170
b10010101010 y
b11011101 '"
b1100100 W"
#171
b10010101011 y
b1100100 '"
b10000000 W"
#172
b10010101100 y
b10000000 '"
b11011111 W"
#173
b10010101101 y
b11011111 '"
b1100100 W"
#174
b10010101110 y
b1100100 '"
b10000000 W"
#175
b10010101111 y
b10000000 '"
b11100000 W"
#176
b10010110000 y
b11100000 '"
b1100011 W"
#177
b10010110001 y
b1100011 '"
b1111111 W"
#178
b10010110010 y
b1111111 '"
b11011111 W"
#179
b10010110011 y
b11011111 '"
b1100011 W"
#180
b10010110100 y
b1100011 '"
b1111011 W"
#181
b10010110101 y
b1111011 '"
b11011101 W"
#182
b10010110110 y
b11011101 '"
b1100110 W"
#183
b10010110111 y
b1100110 '"
b1111111 W"
#184
b10010111000 y
b1111111 '"
b11011110 W"
#185
b10010111001 y
b11011110 '"
b1101001 W"
#186
b10010111010 y
b1101001 '"
b1111101 W"
#187
b10010111011 y
b1111101 '"
b11100000 W"
#188
b10010111100 y
b11100000 '"
b1101000 W"
#189
b10010111101 y
b1101000 '"
b10000001 W"
#190
b10010111110 y
b10000001 '"
b11100001 W"
#191
b10010111111 y
b11100001 '"
b1100111 W"
#192
b10011000000 y
b1100111 '"
b10000010 W"
#193
b10011000001 y
b10000010 '"
b11011111 W"
#194
b10011000010 y
b11011111 '"
b1100101 W"
#195
b10011000011 y
b1100101 '"
b1111110 W"
#196
b10011000100 y
b1111110 '"
b11011110 W"
#197
b10011000101 y
b11011110 '"
b1101010 W"
#198
b10011000110 y
b1101010 '"
b10000001 W"
#199
b10011000111 y
b10000001 '"
b11011111 W"
#200
b10011001000 y
b11011111 '"
b1101101 W"
#201
b10011001001 y
b1101101 '"
b10000011 W"
#202
b10011001010 y
b10000011 '"
b11011101 W"
#203
b10011001011 y
b11011101 '"
b1011100 W"
#204
b10011001100 y
b1011100 '"
b1111101 W"
#205
b10011001101 y
b1111101 '"
b11100001 W"
#206
b10011001110 y
b11100001 '"
b1100101 W"
#207
b10011001111 y
b1100101 '"
b1111101 W"
#208
b10011010000 y
b1111101 '"
b11011101 W"
#209
b10011010001 y
b11011101 '"
b1100000 W"
#210
b10011010010 y
b1100000 '"
b1111101 W"
#211
b10011010011 y
b1111101 '"
b11011111 W"
#212
b10011010100 y
b11011111 '"
b1100101 W"
#213
b10011010101 y
b1100101 '"
b1111111 W"
#214
b10011010110 y
b1111111 '"
b11011110 W"
#215
b10011010111 y
b11011110 '"
b1100110 W"
#216
b10011011000 y
b1100110 '"
b1111100 W"
#217
b10011011001 y
b1111100 '"
b11011110 W"
#218
b10011011010 y
b11011110 '"
b1101010 W"
#219
b10011011011 y
b1101010 '"
b10000011 W"
#220
b10011011100 y
b10000011 '"
b11011100 W"
#221
b10011011101 y
b11011100 '"
b1100000 W"
#222
b10011011110 y
b1100000 '"
b1111101 W"
#223
b10011011111 y
b1111101 '"
b11011111 W"
#224
b10011100000 y
b11011111 '"
b1101110 W"
#225
b10011100001 y
b1101110 '"
b10000001 W"
#226
b10011100010 y
b10000001 '"
b11011110 W"
#227
b10011100011 y
b11011110 '"
b1100111 W"
#228
b10011100100 y
b1100111 '"
b10000010 W"
#229
b10011100101 y
b10000010 '"
b11011101 W"
#230
b10011100110 y
b11011101 '"
b1100110 W"
#231
b10011100111 y
b1100110 '"
b1111111 W"
#232
b10011101000 y
b1111111 '"
b11011011 W"
#233
b10011101001 y
b11011011 '"
b1101111 W"
#234
b10011101010 y
b1101111 '"
b10000001 W"
#235
b10011101011 y
b10000001 '"
b11011100 W"
#236
b10011101100 y
b11011100 '"
b1110111 W"
#237
b10011101101 y
b1110111 '"
b10001000 W"
#238
b10011101110 y
b10001000 '"
b11011110 W"
#239
b10011101111 y
b11011110 '"
b1100111 W"
#240
b10011110000 y
b1100111 '"
b10000110 W"
#241
b10011110001 y
b10000110 '"
b11011110 W"
#242
b10011110010 y
b11011110 '"
b1111000 W"
#243
b10011110011 y
b1111000 '"
b10000100 W"
#244
b10011110100 y
b10000100 '"
b11011011 W"
#245
b10011110101 y
b11011011 '"
b1110111 W"
#246
b10011110110 y
b1110111 '"
b10000100 W"
#247
b10011110111 y
b10000100 '"
b11011100 W"
#248
b10011111000 y
b11011100 '"
b1101001 W"
#249
b10011111001 y
b1101001 '"
b10000011 W"
#250
b10011111010 y
b10000011 '"
b11011111 W"
#251
b10011111011 y
b11011111 '"
b1110010 W"
#252
b10011111100 y
b1110010 '"
b1111110 W"
#253
b10011111101 y
b1111110 '"
b11011110 W"
#254
b10011111110 y
b11011110 '"
b1101001 W"
#255
b10011111111 y
b1101001 '"
b10000101 W"
#256
b10100000000 y
b10000101 '"
b11011110 W"
#257
b10100000001 y
b11011110 '"
b1101100 W"
#258
b10100000010 y
b1101100 '"
b10000001 W"
#259
b10100000011 y
b10000001 '"
b11011010 W"
#260
b10100000100 y
b11011010 '"
b1101001 W"
#261
b10100000101 y
b1101001 '"
b10000011 W"
#262
b10100000110 y
b10000011 '"
b11011100 W"
#263
b10100000111 y
b11011100 '"
b1101100 W"
#264
b10100001000 y
b1101100 '"
b1111110 W"
#265
b10100001001 y
b1111110 '"
b11011010 W"
#266
b10100001010 y
b11011010 '"
b1100011 W"
#267
b10100001011 y
b1100011 '"
b1111100 W"
#268
b10100001100 y
b1111100 '"
b11011001 W"
#269
b10100001101 y
b11011001 '"
b1100110 W"
#270
b10100001110 y
b1100110 '"
b1111100 W"
#271
b10100001111 y
b1111100 '"
b11011100 W"
#272
b10100010000 y
b11011100 '"
b1101101 W"
#273
b10100010001 y
b1101101 '"
b10010000 W"
#274
b10100010010 y
b10010000 '"
b11100010 W"
#275
b10100010011 y
b11100010 '"
b1111001 W"
#276
b10100010100 y
b1111001 '"
b10100101 W"
#277
b10100010101 y
b10100101 '"
b11101001 W"
#278
b10100010110 y
b11101001 '"
b10000010 W"
#279
b10100010111 y
b10000010 '"
b10111000 W"
#280
b10100011000 y
b10111000 '"
b11101101 W"
#281
b10100011001 y
b11101101 '"
b10001101 W"
#282
b10100011010 y
b10001101 '"
b11000000 W"
#283
b10100011011 y
b11000000 '"
b11110011 W"
#284
b10100011100 y
b11110011 '"
b10001101 W"
#285
b10100011101 y
b10001101 '"
b11000101 W"
#286
b10100011110 y
b11000101 '"
b11110101 W"
#287
b10100011111 y
b11110101 '"
b10001101 W"
#288
b10100100000 y
b10001101 '"
b11001001 W"
#289
b10100100001 y
b11001001 '"
b11110111 W"
#290
b10100100010 y
b11110111 '"
b10010110 W"
#291
b10100100011 y
b10010110 '"
b11001110 W"
#292
b10100100100 y
b11001110 '"
b11110111 W"
#293
b10100100101 y
b11110111 '"
b10011011 W"
#294
b10100100110 y
b10011011 '"
b11010001 W"
#295
b10100100111 y
b11010001 '"
b11111000 W"
#296
b10100101000 y
b11111000 '"
b10011010 W"
#297
b10100101001 y
b10011010 '"
b11010001 W"
#298
b10100101010 y
b11010001 '"
b11111001 W"
#299
b10100101011 y
b11111001 '"
b10011011 W"
#300
b10100101100 y
b10011011 '"
b11010001 W"
#301
b10100101101 y
b11010001 '"
b11111011 W"
#302
b10100101110 y
b11111011 '"
b10010111 W"
#303
b10100101111 y
b10010111 '"
b11010100 W"
#304
b10100110000 y
b11010100 '"
b11111100 W"
#305
b10100110001 y
b11111100 '"
b10100000 W"
#306
b10100110010 y
b10100000 '"
b11010011 W"
#307
b10100110011 y
b11010011 '"
b11111011 W"
#308
b10100110100 y
b11111011 '"
b10100010 W"
#309
b10100110101 y
b10100010 '"
b11010100 W"
#310
b10100110110 y
b11010100 '"
b11111011 W"
#311
b10100110111 y
b11111011 '"
b10011110 W"
#312
b10100111000 y
b10011110 '"
b11010100 W"
#313
b10100111001 y
b11010100 '"
b11111100 W"
#314
b10100111010 y
b11111100 '"
b10011000 W"
#315
b10100111011 y
b10011000 '"
b11010101 W"
#316
b10100111100 y
b11010101 '"
b11111101 W"
#317
b10100111101 y
b11111101 '"
b10010101 W"
#318
b10100111110 y
b10010101 '"
b11010001 W"
#319
b10100111111 y
b11010001 '"
b11111011 W"
#320
b10101000000 y
b11111011 '"
b10001011 W"
#321
b10101000001 y
b10001011 '"
b11001011 W"
#322
b10101000010 y
b11001011 '"
b11111000 W"
#323
b10101000011 y
b11111000 '"
b10001100 W"
#324
b10101000100 y
b10001100 '"
b11000000 W"
#325
b10101000101 y
b11000000 '"
b11110001 W"
#326
b10101000110 y
b11110001 '"
b1111100 W"
#327
b10101000111 y
b1111100 '"
b10110000 W"
#328
b10101001000 y
b10110000 '"
b11101001 W"
#329
b10101001001 y
b11101001 '"
b1101100 W"
#330
b10101001010 y
b1101100 '"
b10011010 W"
#331
b10101001011 y
b10011010 '"
b11011101 W"
#332
b10101001100 y
b11011101 '"
b1100011 W"
#333
b10101001101 y
b1100011 '"
b1110101 W"
#334
b10101001110 y
b1110101 '"
b11001000 W"
#335
b10101001111 y
b11001000 '"
b1100011 W"
#336
b10101010000 y
b1100011 '"
#337
b10101010001 y
b10110001 W"
#338
b10101010010 y
b10110001 '"
b1010111 W"
#339
b10101010011 y
b1010111 '"
b1001010 W"
#340
b10101010100 y
b1001010 '"
b10100011 W"
#341
b10101010101 y
b10100011 '"
b1010110 W"
#342
b10101010110 y
b1010110 '"
b1000011 W"
#343
b10101010111 y
b1000011 '"
b10100000 W"
#344
b10101011000 y
b10100000 '"
b1011101 W"
#345
b10101011001 y
b1011101 '"
b1001011 W"
#346
b10101011010 y
b1001011 '"
b10100001 W"
#347
b10101011011 y
b10100001 '"
b1010101 W"
#348
b10101011100 y
b1010101 '"
b1001101 W"
#349
b10101011101 y
b1001101 '"
b10100101 W"
#350
b10101011110 y
b10100101 '"
b1100110 W"
#351
b10101011111 y
b1100110 '"
b1010101 W"
#352
b10101100000 y
b1010101 '"
b10100111 W"
#353
b10101100001 y
b10100111 '"
b1011011 W"
#354
b10101100010 y
b1011011 '"
b1001110 W"
#355
b10101100011 y
b1001110 '"
b10101110 W"
#356
b10101100100 y
b10101110 '"
b1011111 W"
#357
b10101100101 y
b1011111 '"
b1010101 W"
#358
b10101100110 y
b1010101 '"
b10110010 W"
#359
b10101100111 y
b10110010 '"
b1011010 W"
#360
b10101101000 y
b1011010 '"
b1010100 W"
#361
b10101101001 y
b1010100 '"
b10110100 W"
#362
b10101101010 y
b10110100 '"
b1011100 W"
#363
b10101101011 y
b1011100 '"
b1011000 W"
#364
b10101101100 y
b1011000 '"
b10110111 W"
#365
b10101101101 y
b10110111 '"
b1011001 W"
#366
b10101101110 y
b1011001 '"
b1010100 W"
#367
b10101101111 y
b1010100 '"
b10111000 W"
#368
b10101110000 y
b10111000 '"
b1010111 W"
#369
b10101110001 y
b1010111 '"
b1011001 W"
#370
b10101110010 y
b1011001 '"
b10111011 W"
#371
b10101110011 y
b10111011 '"
b1011110 W"
#372
b10101110100 y
b1011110 '"
b1011001 W"
#373
b10101110101 y
b1011001 '"
b10111101 W"
#374
b10101110110 y
b10111101 '"
b1010111 W"
#375
b10101110111 y
b1010111 '"
b1010001 W"
#376
b10101111000 y
b1010001 '"
b10111101 W"
#377
b10101111001 y
b10111101 '"
b1011100 W"
#378
b10101111010 y
b1011100 '"
b1010110 W"
#379
b10101111011 y
b1010110 '"
b10110111 W"
#380
b10101111100 y
b10110111 '"
b1100000 W"
#381
b10101111101 y
b1100000 '"
b1011101 W"
#382
b10101111110 y
b1011101 '"
b10110100 W"
#383
b10101111111 y
b10110100 '"
b1010111 W"
#384
b10110000000 y
b1010111 '"
#385
b10110000001 y
b10111011 W"
#386
b10110000010 y
b10111011 '"
b1010100 W"
#387
b10110000011 y
b1010100 '"
b1011001 W"
#388
b10110000100 y
b1011001 '"
b11000000 W"
#389
b10110000101 y
b11000000 '"
b1100101 W"
#390
b10110000110 y
b1100101 '"
b1011010 W"
#391
b10110000111 y
b1011010 '"
b10111001 W"
#392
b10110001000 y
b10111001 '"
b1011101 W"
#393
b10110001001 y
b1011101 '"
b1011010 W"
#394
b10110001010 y
b1011010 '"
b10111111 W"
#395
b10110001011 y
b10111111 '"
b1011001 W"
#396
b10110001100 y
b1011001 '"
b1010101 W"
#397
b10110001101 y
b1010101 '"
b10111011 W"
#398
b10110001110 y
b10111011 '"
b1100000 W"
#399
b10110001111 y
b1100000 '"
b1100001 W"
#400
b10110010000 y
b1100001 '"
b10111010 W"
#401
b10110010001 y
b10111010 '"
b1011101 W"
#402
b10110010010 y
b1011101 '"
b1011011 W"
#403
b10110010011 y
b1011011 '"
b10111000 W"
#404
b10110010100 y
b10111000 '"
b1100001 W"
#405
b10110010101 y
b1100001 '"
b1010110 W"
#406
b10110010110 y
b1010110 '"
b10111100 W"
#407
b10110010111 y
b10111100 '"
b1011100 W"
#408
b10110011000 y
b1011100 '"
b1011011 W"
#409
b10110011001 y
b1011011 '"
b10111111 W"
#410
b10110011010 y
b10111111 '"
b1100011 W"
#411
b10110011011 y
b1100011 '"
b1100000 W"
#412
b10110011100 y
b1100000 '"
b10111100 W"
#413
b10110011101 y
b10111100 '"
b1011011 W"
#414
b10110011110 y
b1011011 '"
b1011101 W"
#415
b10110011111 y
b1011101 '"
b11000001 W"
#416
b10110100000 y
b11000001 '"
b1100010 W"
#417
b10110100001 y
b1100010 '"
b1100001 W"
#418
b10110100010 y
b1100001 '"
b11000000 W"
#419
b10110100011 y
b11000000 '"
b1011101 W"
#420
b10110100100 y
b1011101 '"
b1011011 W"
#421
b10110100101 y
b1011011 '"
b10111101 W"
#422
b10110100110 y
b10111101 '"
b1101011 W"
#423
b10110100111 y
b1101011 '"
b1100011 W"
#424
b10110101000 y
b1100011 '"
b10111001 W"
#425
b10110101001 y
b10111001 '"
b1100011 W"
#426
b10110101010 y
b1100011 '"
b1011111 W"
#427
b10110101011 y
b1011111 '"
b11000000 W"
#428
b10110101100 y
b11000000 '"
b1100011 W"
#429
b10110101101 y
b1100011 '"
b1011111 W"
#430
b10110101110 y
b1011111 '"
b10111011 W"
#431
b10110101111 y
b10111011 '"
b1101010 W"
#432
b10110110000 y
b1101010 '"
b1011111 W"
#433
b10110110001 y
b1011111 '"
b10111101 W"
#434
b10110110010 y
b10111101 '"
b1011011 W"
#435
b10110110011 y
b1011011 '"
b1011010 W"
#436
b10110110100 y
b1011010 '"
b10111010 W"
#437
b10110110101 y
b10111010 '"
b1011101 W"
#438
b10110110110 y
b1011101 '"
b1011110 W"
#439
b10110110111 y
b1011110 '"
b11000000 W"
#440
b10110111000 y
b11000000 '"
b1011111 W"
#441
b10110111001 y
b1011111 '"
#442
b10110111010 y
b10111010 W"
#443
b10110111011 y
b10111010 '"
b1011011 W"
#444
b10110111100 y
b1011011 '"
b1011111 W"
#445
b10110111101 y
b1011111 '"
b11000010 W"
#446
b10110111110 y
b11000010 '"
b1011011 W"
#447
b10110111111 y
b1011011 '"
b1100001 W"
#448
b10111000000 y
b1100001 '"
b11000110 W"
#449
b10111000001 y
b11000110 '"
b1011001 W"
#450
b10111000010 y
b1011001 '"
b1011111 W"
#451
b10111000011 y
b1011111 '"
b11000010 W"
#452
b10111000100 y
b11000010 '"
b1100000 W"
#453
b10111000101 y
b1100000 '"
#454
b10111000110 y
b10111110 W"
#455
b10111000111 y
b10111110 '"
b1011111 W"
#456
b10111001000 y
b1011111 '"
#457
b10111001001 y
b11000010 W"
#458
b10111001010 y
b11000010 '"
b1011101 W"
#459
b10111001011 y
b1011101 '"
b1100001 W"
#460
b10111001100 y
b1100001 '"
b11000110 W"
#461
b10111001101 y
b11000110 '"
b1011001 W"
#462
b10111001110 y
b1011001 '"
b1011110 W"
#463
b10111001111 y
b1011110 '"
b11000110 W"
#464
b10111010000 y
b11000110 '"
b1011100 W"
#465
b10111010001 y
b1011100 '"
b1011101 W"
#466
b10111010010 y
b1011101 '"
b10111111 W"
#467
b10111010011 y
b10111111 '"
b1100011 W"
#468
b10111010100 y
b1100011 '"
b1100101 W"
#469
b10111010101 y
b1100101 '"
b11000001 W"
#470
b10111010110 y
b11000001 '"
b1011110 W"
#471
b10111010111 y
b1011110 '"
b1011111 W"
#472
b10111011000 y
b1011111 '"
b11000011 W"
#473
b10111011001 y
b11000011 '"
b1011011 W"
#474
b10111011010 y
b1011011 '"
b1011001 W"
#475
b10111011011 y
b1011001 '"
b11000001 W"
#476
b10111011100 y
b11000001 '"
b1011011 W"
#477
b10111011101 y
b1011011 '"
b1011101 W"
#478
b10111011110 y
b1011101 '"
b11000111 W"
#479
b10111011111 y
b11000111 '"
b1011000 W"
#480
b10111100000 y
b1011000 '"
b1011100 W"
#481
b10111100001 y
b1011100 '"
b11000100 W"
#482
b10111100010 y
b11000100 '"
b1010110 W"
#483
b10111100011 y
b1010110 '"
b1011000 W"
#484
b10111100100 y
b1011000 '"
b10111111 W"
#485
b10111100101 y
b10111111 '"
b1100011 W"
#486
b10111100110 y
b1100011 '"
b1100000 W"
#487
b10111100111 y
b1100000 '"
b11000011 W"
#488
b10111101000 y
b11000011 '"
b1011010 W"
#489
b10111101001 y
b1011010 '"
b1011011 W"
#490
b10111101010 y
b1011011 '"
b11000111 W"
#491
b10111101011 y
b11000111 '"
b1010111 W"
#492
b10111101100 y
b1010111 '"
b1011001 W"
#493
b10111101101 y
b1011001 '"
b11000101 W"
#494
b10111101110 y
b11000101 '"
b1011111 W"
#495
b10111101111 y
b1011111 '"
b1100000 W"
#496
b10111110000 y
b1100000 '"
b11000011 W"
